899.7 -4870.9 -43.8 323 0 10.7 11.1 2.5 0.0 0 1 1 3 3
899.3 -4795.7 -44.2 47 0 25.3 11.9 2.5 2.5 2 0 1 4 4
1029.7 -4739.3 -43.5 139 0 6.3 13.0 2.5 2.5 2 1 1 5 5
1055.8 -4775.4 -43.2 47 0 9.7 14.3 2.5 2.5 2 1 1 4 4
986.1 -4839.0 -43.4 47 0 12.6 9.2 2.5 2.5 2 0 1 1 1
933.9 -4878.0 -43.5 289 0 5.8 12.8 2.5 2.5 2 1 1 0 0
1032.3 -4699.9 -43.8 141 0 14.0 11.5 2.5 2.5 2 0 1 3 3
1030.1 -4798.1 -43.4 47 0 14.3 8.2 2.5 2.5 2 0 1 0 0
918.4 -4808.8 -43.9 230 0 13.6 8.0 2.5 2.5 2 0 1 1 1
914.5 -4859.6 -43.8 314 0 9.1 7.9 2.5 2.5 2 0 1 0 0
1021.9 -4729.1 -43.7 139 0 7.4 13.3 2.5 0.0 0 1 1 0 0
1082.4 -4753.2 -43.2 51 0 14.2 15.9 2.5 2.5 2 1 1 0 0
943.4 -4852.0 -43.6 106 0 9.6 7.4 2.5 2.5 2 0 1 1 1
923.5 -4902.7 -43.5 51 0 6.9 12.5 2.5 2.5 2 1 1 1 1
1013.6 -4719.9 -43.9 139 0 6.6 12.8 2.5 2.5 2 1 1 1 1
930.4 -4766.3 -44.1 51 0 31.0 15.4 2.5 2.5 2 0 1 3 3
1010.3 -4816.4 -43.4 46 0 14.8 8.9 2.5 2.5 2 0 1 2 2
1646.3 -4075.0 -41.5 203 0 9.0 12.8 5.0 2.5 2 1 2 5 5
1217.6 -4662.1 -42.4 233 0 10.8 25.1 2.5 2.5 4 1 1 5 5
1614.8 -3854.2 -41.7 38 0 13.2 8.8 5.0 2.5 2 0 2 5 5
999.0 -5125.0 -41.9 80 0 11.3 11.1 2.5 2.5 2 0 1 0 0
1541.7 -4447.2 -40.7 23 0 9.6 7.2 2.5 0.0 0 0 1 4 4
976.7 -4684.4 -44.2 135 0 7.9 15.4 2.5 2.5 2 1 1 4 4
432.7 -5200.0 -44.3 207 0 14.2 6.7 5.0 0.0 0 0 2 2 2
1641.9 -3964.4 -41.7 6 0 16.2 9.2 5.0 2.5 2 0 2 0 0
1006.7 -5059.6 -41.5 332 0 11.3 8.3 2.5 2.5 2 0 1 0 0
1519.2 -4544.8 -40.3 227 0 7.9 6.2 2.5 0.0 0 0 1 0 0
811.2 -4739.4 -44.7 38 0 19.0 7.1 2.5 2.5 2 0 1 1 1
394.7 -5159.7 -44.7 26 0 5.8 4.0 2.5 0.0 0 0 1 5 5
1648.7 -4023.9 -41.6 208 0 11.6 16.8 5.0 2.5 2 1 2 3 3
896.5 -5097.6 -42.9 291 0 9.9 26.4 5.0 2.5 2 1 2 1 1
1483.5 -4555.4 -40.6 223 0 21.5 12.8 5.0 2.5 2 0 2 0 0
718.3 -5156.3 -44.0 32 0 15.4 6.8 5.0 2.5 2 0 2 2 2
412.9 -5199.0 -44.4 18 0 14.7 10.0 5.0 2.5 2 0 2 0 0
1565.0 -4300.4 -41.4 295 0 13.9 11.5 5.0 2.5 2 0 2 0 0
1390.7 -4521.5 -41.7 223 0 19.2 8.8 5.0 2.5 2 0 2 3 3
1462.4 -4542.8 -41.0 43 0 15.6 9.1 5.0 2.5 2 0 2 0 0
425.7 -5100.2 -44.9 101 0 6.8 15.2 5.0 2.5 2 1 2 1 1
501.4 -5172.1 -44.0 289 0 13.8 17.7 5.0 2.5 2 1 2 4 4
1241.6 -5094.8 -39.7 147 0 7.8 6.5 2.5 0.0 0 0 1 3 3
1522.6 -4462.0 -41.0 113 0 8.5 6.7 2.5 0.0 0 0 1 5 5
1484.8 -4468.4 -41.3 294 0 15.8 13.0 5.0 2.5 2 0 2 3 3
1487.4 -4677.6 -40.2 240 0 16.4 8.9 7.5 2.5 4 0 3 3 3
535.5 -5201.9 -44.0 111 0 5.9 5.9 2.5 0.0 0 0 1 0 0
434.4 -5213.3 -44.2 210 0 5.3 16.6 5.0 2.5 2 1 2 3 3
349.9 -5058.7 -51.9 281 0 16.3 7.4 5.0 2.5 2 0 2 5 5
1529.5 -4514.9 -40.5 219 0 10.5 16.7 5.0 2.5 2 1 2 3 3
612.9 -5287.5 -45.0 300 0 5.5 8.2 2.5 0.0 0 1 1 1 1
1400.1 -4647.3 -40.9 222 0 16.8 8.7 5.0 0.0 0 0 2 2 2
561.6 -5180.5 -43.9 14 0 4.1 5.3 2.5 0.0 0 1 1 1 1
399.3 -5161.8 -44.6 24 0 6.0 3.0 2.5 0.0 0 0 1 1 1
379.0 -4990.4 -64.9 99 0 8.9 10.8 5.0 2.5 2 1 2 2 2
1280.4 -4870.8 -41.5 333 0 14.7 9.3 2.5 2.5 2 0 1 2 2
1348.7 -4566.4 -41.7 225 0 12.4 8.2 5.0 0.0 0 0 2 3 3
450.9 -5155.9 -44.4 196 0 8.2 8.7 5.0 2.5 2 1 2 1 1
1371.6 -4822.5 -40.7 170 0 27.0 12.9 5.0 2.5 4 0 2 0 0
778.5 -4685.8 -46.5 216 0 7.7 27.7 2.5 2.5 2 1 1 4 4
1478.2 -4525.3 -41.0 43 0 12.6 8.3 5.0 2.5 2 0 2 4 4
400.7 -5183.9 -44.6 17 0 6.6 16.0 5.0 2.5 2 1 2 4 4
1207.2 -5034.7 -40.7 165 0 11.6 10.3 2.5 2.5 2 0 1 1 1
1502.9 -3619.5 -42.3 34 0 9.3 16.1 5.0 2.5 4 1 2 5 5
449.4 -5083.9 -44.8 9 0 6.2 10.4 2.5 0.0 0 1 1 2 2
1326.9 -4974.9 -40.0 320 0 17.9 9.8 2.5 2.5 2 0 1 3 3
1407.6 -4499.5 -41.7 222 0 14.3 10.3 5.0 2.5 2 0 2 3 3
1291.8 -5066.7 -40.0 51 0 9.0 11.6 2.5 2.5 2 1 1 4 4
1288.3 -4579.8 -42.3 306 0 6.0 11.4 2.5 0.0 0 1 1 3 3
891.8 -4668.2 -50.9 46 0 7.4 12.9 2.5 2.5 2 1 1 0 0
1393.4 -4610.1 -41.2 136 0 8.6 13.3 5.0 0.0 0 1 2 0 0
1237.0 -5109.8 -39.8 143 0 9.2 9.5 2.5 2.5 2 1 1 2 2
1393.9 -3665.2 -42.8 52 0 7.5 8.1 2.5 0.0 0 1 1 3 3
517.3 -5104.1 -44.4 13 0 15.0 14.8 5.0 2.5 2 0 2 1 1
1255.0 -5023.9 -40.5 230 0 24.3 11.9 2.5 2.5 2 0 1 3 3
617.9 -5185.6 -44.1 26 0 7.6 8.3 2.5 0.0 0 1 1 1 1
1240.1 -5182.5 -39.9 77 0 6.2 10.9 2.5 0.0 0 1 1 5 5
1340.2 -4670.3 -41.5 39 0 11.3 21.4 2.5 0.0 0 1 1 4 4
1424.3 -4619.3 -40.9 220 0 11.1 8.1 5.0 2.5 2 0 2 1 1
371.7 -5032.8 -45.5 128 0 5.0 7.8 2.5 0.0 0 1 1 5 5
1166.5 -4850.6 -42.2 232 0 11.0 37.2 2.5 2.5 2 1 1 4 4
1443.3 -3599.6 -42.4 47 0 6.5 10.4 2.5 0.0 0 1 1 0 0
562.4 -5187.5 -43.9 10 0 3.6 7.2 2.5 0.0 0 1 1 3 3
1567.9 -3684.6 -42.3 214 0 15.4 7.8 5.0 2.5 2 0 2 5 5
581.2 -5279.7 -44.9 257 0 8.3 5.7 2.5 0.0 0 0 1 2 2
1208.2 -5115.6 -40.1 308 0 9.1 20.5 2.5 2.5 4 1 1 3 3
1218.5 -4561.0 -43.0 139 0 22.4 11.4 2.5 2.5 2 0 1 4 4
940.7 -4687.2 -44.5 316 0 12.6 18.3 2.5 2.5 4 1 1 3 3
1379.1 -4858.3 -40.9 84 0 10.4 11.5 5.0 2.5 2 1 2 2 2
354.4 -4987.0 -67.6 95 0 22.4 11.7 2.5 2.5 2 0 1 4 4
1343.9 -4910.9 -40.8 351 0 12.3 11.2 2.5 2.5 2 0 1 4 4
1527.0 -3676.9 -42.4 34 0 12.3 5.0 2.5 0.0 0 0 1 2 2
1525.1 -3707.5 -42.5 32 0 17.4 8.6 5.0 2.5 2 0 2 3 3
525.8 -5175.4 -43.8 194 0 7.0 11.0 5.0 2.5 4 1 2 2 2
1186.9 -5060.1 -40.3 352 0 10.3 9.8 5.0 2.5 2 0 2 1 1
1257.7 -4676.1 -42.1 324 0 14.6 10.3 2.5 2.5 2 0 1 0 0
853.8 -4726.4 -44.7 137 0 10.8 11.1 2.5 2.5 2 1 1 2 2
1319.1 -5024.6 -40.1 51 0 10.4 9.8 2.5 0.0 0 0 1 4 4
1390.3 -3625.7 -42.7 309 0 7.7 11.0 5.0 2.5 2 1 2 1 1
1301.9 -4950.6 -40.7 229 0 9.8 18.2 2.5 2.5 2 1 1 0 0
1572.3 -3758.5 -42.2 25 0 16.8 6.3 5.0 2.5 2 0 2 2 2
1097.1 -5107.8 -40.9 79 0 16.9 10.8 5.0 2.5 2 0 2 0 0
1172.6 -4604.3 -43.2 320 0 14.2 6.1 2.5 2.5 4 0 1 3 3
885.9 -4688.2 -44.6 318 0 9.1 16.0 2.5 2.5 2 1 1 4 4
1215.8 -5183.2 -40.1 77 0 19.0 9.2 2.5 2.5 4 0 1 2 2
1362.1 -4652.6 -41.3 42 0 10.9 10.3 2.5 2.5 2 0 1 4 4
1406.9 -3666.5 -42.8 53 0 11.5 6.8 5.0 2.5 2 0 2 1 1
1266.1 -4996.8 -40.4 232 0 12.0 21.3 2.5 2.5 2 1 1 1 1
1685.6 -3778.5 -41.8 300 0 7.1 18.7 5.0 2.5 2 1 2 0 0
1041.1 -5177.1 -41.8 197 0 13.7 10.6 2.5 2.5 2 0 1 1 1
1240.7 -4633.1 -42.5 329 0 10.9 9.2 2.5 2.5 4 0 1 5 5
1561.3 -3713.8 -42.3 219 0 4.9 7.3 2.5 0.0 0 1 1 1 1
1217.5 -5132.2 -40.0 314 0 6.7 16.3 2.5 2.5 2 1 1 2 2
1246.5 -4562.8 -42.7 210 0 6.5 14.6 2.5 2.5 4 1 1 4 4
1451.5 -3614.2 -42.4 45 0 8.4 5.4 2.5 0.0 0 0 1 5 5
1591.9 -3950.6 -41.8 252 0 10.2 13.2 5.0 2.5 2 1 2 0 0
1012.0 -5188.8 -42.2 19 0 6.7 8.8 2.5 0.0 0 1 1 1 1
1106.8 -4721.1 -43.5 143 0 12.4 38.6 2.5 2.5 2 1 1 4 4
1538.6 -3696.4 -42.5 35 0 6.7 13.0 5.0 2.5 2 1 2 3 3
999.2 -4744.3 -43.8 317 0 18.8 10.3 2.5 2.5 4 0 1 2 2
1180.5 -5034.3 -40.9 352 0 16.8 10.6 5.0 2.5 4 0 2 1 1
1281.0 -4654.9 -42.0 144 0 14.8 13.9 2.5 2.5 2 0 1 1 1
1649.2 -3866.0 -41.6 303 0 7.1 24.3 5.0 2.5 2 1 2 1 1
981.2 -5004.5 -42.1 339 0 10.3 25.2 2.5 2.5 2 1 1 4 4
959.3 -4665.6 -44.5 136 0 8.0 14.9 2.5 2.5 2 1 1 2 2
1554.4 -3725.4 -42.3 213 0 11.7 9.4 5.0 2.5 2 0 2 5 5
1120.7 -5103.1 -40.7 82 0 15.8 10.5 5.0 2.5 2 0 2 5 5
1177.5 -4600.0 -43.2 140 0 12.7 6.3 2.5 2.5 2 0 1 2 2
1708.3 -4019.1 -41.4 0 0 8.7 10.9 5.0 2.5 2 1 2 4 4
964.4 -5111.5 -42.1 112 0 9.0 16.9 2.5 0.0 0 1 1 0 0
770.1 -4725.0 -44.7 210 0 9.9 23.4 2.5 2.5 4 1 1 5 5
1645.7 -3779.4 -41.9 118 0 6.4 10.0 2.5 0.0 0 1 1 5 5
1062.8 -5141.8 -41.5 296 0 12.0 22.0 2.5 2.5 2 1 1 2 2
1688.6 -4053.6 -41.2 30 0 10.8 14.0 5.0 2.5 2 1 2 4 4
711.6 -5135.9 -43.9 215 0 10.2 16.9 5.0 2.5 2 1 2 4 4
1591.5 -3943.8 -41.9 343 0 8.4 10.4 5.0 2.5 2 1 2 1 1
983.9 -5176.1 -42.3 207 0 9.3 10.2 5.0 2.5 2 1 2 4 4
1247.6 -4750.2 -42.7 51 0 30.9 38.1 2.5 0.0 0 1 1 1 1
1485.9 -4445.4 -41.2 114 0 9.4 10.7 5.0 2.5 2 1 2 3 3
1706.0 -3852.4 -41.5 293 0 9.1 17.6 5.0 2.5 2 1 2 4 4
1028.2 -5111.1 -41.5 335 0 10.7 8.9 2.5 2.5 2 0 1 2 2
968.9 -4674.2 -44.4 136 0 7.1 12.8 2.5 2.5 2 1 1 1 1
457.0 -5190.5 -44.2 212 0 8.4 16.2 5.0 2.5 2 1 2 3 3
1659.5 -3973.4 -41.7 270 0 19.8 11.2 5.0 2.5 2 0 2 0 0
1014.7 -5080.0 -41.5 340 0 10.4 9.1 2.5 2.5 2 0 1 0 0
797.8 -4757.8 -44.7 47 0 9.1 9.2 2.5 2.5 2 1 1 0 0
428.6 -5118.6 -44.7 287 0 7.3 16.3 5.0 2.5 2 1 2 1 1
1661.0 -4054.2 -41.3 118 0 7.3 19.2 5.0 2.5 2 1 2 4 4
749.8 -5129.7 -43.8 51 0 6.4 7.3 2.5 0.0 0 1 1 1 1
419.6 -5153.1 -44.6 21 0 13.0 10.7 5.0 2.5 2 0 2 0 0
728.6 -5177.9 -44.2 298 0 18.1 9.3 5.0 0.0 0 0 2 4 4
1374.2 -4540.0 -41.6 221 0 15.8 9.7 5.0 2.5 4 0 2 3 3
1594.4 -4320.8 -41.2 19 0 8.8 10.4 5.0 2.5 4 1 2 0 0
1443.1 -4564.4 -40.9 46 0 17.1 9.2 5.0 2.5 2 0 2 2 2
403.2 -5220.6 -55.2 20 0 9.2 20.2 5.0 2.5 2 1 2 4 4
1232.6 -5076.6 -39.9 128 0 12.7 8.7 2.5 2.5 2 0 1 1 1
464.2 -5099.2 -44.7 189 0 12.1 8.1 5.0 2.5 2 0 2 1 1
1455.6 -4457.3 -41.6 293 0 17.3 11.0 5.0 2.5 4 0 2 2 2
455.9 -5230.6 -44.0 119 0 4.7 10.7 2.5 0.0 0 1 1 5 5
1555.0 -4478.1 -40.6 210 0 12.0 7.6 5.0 2.5 2 0 2 1 1
1512.8 -4696.9 -40.2 332 0 6.7 15.1 5.0 2.5 2 1 2 2 2
348.4 -5133.9 -48.2 298 0 19.1 9.8 5.0 2.5 2 0 2 0 0
539.5 -5194.1 -43.9 106 0 7.3 8.4 2.5 0.0 0 1 1 0 0
624.5 -5358.7 -66.4 308 0 6.6 6.1 2.5 0.0 0 0 1 1 1
419.4 -5232.3 -47.2 121 0 4.4 5.7 2.5 0.0 0 1 1 4 4
1535.4 -4583.7 -40.0 23 0 8.0 7.2 2.5 0.0 0 0 1 5 5
1357.4 -4688.0 -41.4 219 0 17.2 12.7 5.0 2.5 2 0 2 1 1
465.2 -4989.2 -64.7 10 0 8.2 8.1 2.5 0.0 0 0 1 0 0
1257.3 -4882.9 -41.7 326 0 7.1 12.8 2.5 2.5 2 1 1 4 4
563.3 -5114.1 -43.9 104 0 5.5 5.8 2.5 0.0 0 1 1 2 2
450.7 -5163.5 -44.4 285 0 8.9 8.8 5.0 2.5 2 0 2 0 0
394.4 -5123.4 -44.9 291 0 14.4 7.1 5.0 2.5 2 0 2 2 2
1365.9 -4587.7 -41.5 128 0 9.4 11.5 5.0 2.5 2 1 2 5 5
1499.8 -4500.4 -41.0 40 0 22.1 7.9 5.0 0.0 0 0 2 5 5
1360.8 -4774.6 -41.3 163 0 21.1 15.5 5.0 2.5 2 0 2 3 3
1505.7 -3593.7 -42.3 313 0 4.7 11.8 2.5 0.0 0 1 1 4 4
493.0 -5082.0 -44.7 284 0 13.7 5.9 5.0 2.5 2 0 2 0 0
1354.7 -4952.2 -40.3 344 0 15.0 13.5 2.5 2.5 2 0 1 2 2
376.8 -5216.1 -57.5 109 0 8.6 15.7 5.0 2.5 2 1 2 2 2
1209.4 -5053.8 -40.4 166 0 13.0 9.2 2.5 2.5 2 0 1 2 2
877.4 -4645.3 -52.8 316 0 13.6 9.8 2.5 2.5 4 0 1 1 1
1427.0 -4479.3 -41.7 219 0 15.9 8.1 5.0 2.5 2 0 2 1 1
1346.2 -5202.5 -39.1 22 0 10.8 7.9 5.0 2.5 2 0 2 5 5
1418.4 -4592.6 -41.0 43 0 14.6 9.6 5.0 2.5 2 0 2 3 3
1376.6 -4623.1 -41.3 306 0 13.3 8.8 2.5 2.5 2 0 1 5 5
1429.7 -3652.9 -42.7 325 0 8.7 10.2 5.0 2.5 2 1 2 3 3
484.5 -5109.9 -44.5 192 0 6.3 17.0 5.0 2.5 2 1 2 5 5
1285.4 -5034.4 -40.4 52 0 32.3 8.0 2.5 2.5 2 0 1 2 2
340.3 -5109.9 -57.5 28 0 24.5 17.7 5.0 2.5 2 0 2 1 1
670.6 -5244.5 -44.6 76 0 7.4 13.2 2.5 2.5 2 1 1 5 5
1252.2 -5159.0 -39.8 307 0 7.0 9.8 2.5 0.0 0 1 1 4 4
1451.8 -4588.9 -40.6 226 0 13.4 9.2 5.0 2.5 2 0 2 5 5
1311.0 -4581.2 -42.1 303 0 18.4 11.4 2.5 2.5 2 0 1 4 4
561.3 -5192.6 -44.0 12 0 4.2 5.1 2.5 0.0 0 1 1 2 2
320.2 -5013.9 -60.9 118 0 7.1 9.1 2.5 0.0 0 1 1 1 1
1206.8 -4944.7 -41.8 50 0 10.0 32.0 2.5 2.5 2 1 1 5 5
1553.7 -3663.6 -42.3 33 0 9.4 11.3 5.0 2.5 2 1 2 4 4
916.5 -4710.5 -44.6 315 0 11.9 36.4 2.5 2.5 2 1 1 1 1
542.5 -5275.8 -44.7 110 0 6.8 6.7 2.5 0.0 0 0 1 3 3
1113.5 -5036.2 -41.0 252 0 14.2 8.2 5.0 2.5 2 0 2 2 2
1414.1 -4756.7 -41.2 337 0 16.8 10.2 5.0 2.5 2 0 2 5 5
1250.0 -4616.9 -42.4 151 0 13.3 13.0 2.5 2.5 2 0 1 5 5
1508.3 -3691.8 -42.5 117 0 10.4 10.4 5.0 2.5 2 1 2 2 2
344.2 -5024.1 -55.6 116 0 11.1 26.3 2.5 0.0 0 1 1 1 1
1348.4 -4933.8 -40.6 344 0 11.4 9.9 2.5 2.5 2 0 1 1 1
1554.3 -3789.4 -42.1 109 0 6.9 6.5 2.5 0.0 0 0 1 5 5
523.3 -5189.4 -43.9 198 0 16.0 9.3 5.0 2.5 2 0 2 0 0
1191.3 -5083.7 -40.2 351 0 10.1 10.6 5.0 2.5 2 1 2 5 5
1229.3 -4526.0 -43.0 216 0 5.2 11.2 2.5 0.0 0 1 1 4 4
1211.5 -4647.9 -42.5 236 0 6.3 9.4 2.5 0.0 0 1 1 3 3
861.6 -4684.9 -44.6 326 0 12.2 13.3 2.5 2.5 2 1 1 4 4
1405.7 -3628.3 -42.6 232 0 6.9 14.9 5.0 2.5 2 1 2 0 0
1253.5 -4985.3 -40.5 229 0 5.8 7.6 2.5 0.0 0 1 1 1 1
1230.4 -5185.6 -39.9 78 0 4.7 8.2 2.5 0.0 0 1 1 4 4
1588.9 -3766.7 -42.1 31 0 13.6 9.0 5.0 2.5 2 0 2 2 2
1045.1 -5063.5 -41.2 246 0 14.0 10.6 5.0 2.5 2 0 2 4 4
1347.1 -4601.3 -41.7 302 0 11.5 10.2 2.5 2.5 2 0 1 1 1
1188.1 -4622.2 -43.0 320 0 15.2 7.8 2.5 2.5 2 0 1 5 5
940.7 -4743.1 -44.2 48 0 13.4 8.0 2.5 0.0 0 0 1 4 4
1407.1 -3737.2 -42.7 342 0 5.5 6.0 2.5 0.0 0 1 1 0 0
1582.0 -3719.6 -42.3 200 0 7.0 8.9 2.5 0.0 0 1 1 3 3
1235.9 -5139.5 -39.9 314 0 7.7 20.2 2.5 2.5 2 1 1 1 1
1584.5 -3889.3 -41.9 359 0 17.0 12.2 5.0 2.5 4 0 2 2 2
1027.2 -5202.2 -42.1 199 0 12.1 13.7 2.5 2.5 2 1 1 5 5
1283.2 -4560.8 -42.4 302 0 11.2 9.9 2.5 2.5 2 0 1 0 0
1248.5 -4646.1 -42.3 323 0 10.5 24.9 2.5 0.0 0 1 1 1 1
860.0 -4766.3 -44.6 137 0 15.1 27.2 2.5 2.5 2 1 1 2 2
1464.7 -3621.6 -42.4 224 0 7.6 9.9 5.0 2.5 2 1 2 2 2
1548.0 -3681.7 -42.4 31 0 9.1 15.2 5.0 2.5 2 1 2 1 1
1138.0 -5027.9 -41.1 253 0 16.9 8.0 5.0 0.0 0 0 2 5 5
1643.4 -3856.2 -41.7 46 0 5.4 9.3 2.5 0.0 0 1 1 0 0
1008.7 -5155.7 -42.1 292 0 18.0 9.6 5.0 2.5 4 0 2 5 5
1270.3 -4635.4 -42.2 154 0 12.8 16.9 2.5 0.0 0 1 1 5 5
984.2 -4692.8 -44.1 139 0 7.3 14.5 2.5 2.5 2 1 1 5 5
1535.8 -3780.6 -42.3 112 0 11.5 15.3 5.0 2.5 2 1 2 5 5
1155.7 -5095.1 -40.5 81 0 24.8 9.7 5.0 2.5 2 0 2 2 2
995.2 -5037.6 -41.6 336 0 13.5 10.6 2.5 2.5 2 0 1 3 3
1210.1 -4609.1 -42.9 144 0 30.8 11.5 2.5 2.5 2 0 1 0 0
834.4 -4719.4 -44.7 49 0 5.1 12.6 2.5 0.0 0 1 1 2 2
1610.2 -3780.9 -42.0 312 0 10.7 11.2 5.0 2.5 2 1 2 1 1
1048.1 -5104.7 -41.2 160 0 13.4 9.1 5.0 2.5 2 0 2 1 1
1686.5 -4002.6 -41.6 358 0 18.7 8.4 5.0 2.5 2 0 2 5 5
867.9 -5087.7 -43.0 295 0 10.5 12.9 5.0 2.5 2 1 2 0 0
1198.3 -4630.4 -42.8 234 0 18.9 6.8 2.5 0.0 0 0 1 2 2
1573.8 -3925.9 -41.9 164 0 8.2 10.8 5.0 2.5 2 1 2 2 2
997.8 -5206.7 -42.6 17 0 8.9 22.1 5.0 2.5 4 1 2 0 0
1086.0 -4507.8 -44.5 228 0 7.4 7.4 2.5 0.0 0 1 1 5 5
1157.1 -4534.0 -43.7 318 0 15.5 8.0 2.5 2.5 2 0 1 0 0
1347.9 -5002.6 -39.9 50 0 11.7 10.6 2.5 2.5 2 0 1 0 0
1140.1 -4582.0 -43.7 48 0 33.0 11.9 2.5 2.5 2 0 1 3 3
1370.8 -5184.2 -38.9 25 0 4.0 7.4 2.5 0.0 0 1 1 3 3
1232.7 -5301.1 -40.8 54 0 8.2 8.2 2.5 0.0 0 1 1 5 5
1073.8 -4529.9 -44.4 228 0 11.8 10.0 2.5 2.5 2 0 1 3 3
1158.6 -4563.2 -43.6 48 0 6.5 11.5 2.5 0.0 0 1 1 1 1
1128.0 -4633.2 -43.4 228 0 21.4 12.8 2.5 2.5 2 0 1 3 3
1105.6 -4517.1 -44.2 234 0 14.1 7.3 2.5 2.5 2 0 1 3 3
1144.7 -4548.6 -43.8 48 0 8.2 12.9 2.5 2.5 2 1 1 3 3
1309.3 -5259.4 -39.7 222 0 5.3 4.4 2.5 0.0 0 0 1 2 2
1165.9 -4612.3 -43.3 318 0 10.1 21.9 2.5 2.5 2 0 1 4 4
1272.1 -5115.8 -39.6 57 0 8.1 12.4 2.5 2.5 4 1 1 3 3
1247.8 -5321.8 -40.8 58 0 6.7 8.9 2.5 0.0 0 1 1 0 0
1086.5 -4552.7 -44.2 138 0 8.1 12.9 2.5 2.5 2 1 1 3 3
1100.6 -4595.8 -44.0 138 0 30.9 14.8 2.5 2.5 2 0 1 4 4
1280.5 -5141.5 -39.5 140 0 9.7 22.3 2.5 2.5 2 1 1 5 5
1417.8 -4360.8 -41.5 139 0 7.0 5.9 2.5 0.0 0 0 1 5 5
1271.5 -4379.1 -42.6 326 0 12.0 10.2 5.0 2.5 2 0 2 1 1
1349.1 -4429.5 -42.3 248 0 8.3 8.9 5.0 2.5 2 1 2 1 1
1395.5 -4461.7 -42.1 44 0 10.4 5.3 2.5 0.0 0 0 1 3 3
1301.1 -4481.4 -42.8 221 0 7.0 4.9 2.5 0.0 0 0 1 0 0
1319.3 -4556.4 -42.0 132 0 6.9 8.5 2.5 0.0 0 1 1 0 0
1401.6 -4406.3 -41.6 110 0 10.8 11.9 5.0 0.0 0 1 2 2 2
1284.8 -4467.3 -43.0 219 0 20.5 17.1 5.0 2.5 2 0 2 0 0
1419.5 -4451.5 -41.9 46 0 16.1 9.5 5.0 0.0 0 0 2 2 2
1206.4 -4341.1 -43.0 298 0 21.1 13.1 5.0 2.5 2 0 2 2 2
1368.4 -4508.6 -42.1 41 0 11.8 7.1 5.0 2.5 2 0 2 0 0
1113.8 -4469.3 -44.5 119 0 10.3 15.7 5.0 2.5 2 1 2 0 0
1329.3 -4532.6 -42.2 31 0 3.8 5.1 2.5 0.0 0 1 1 2 2
1279.8 -4506.3 -42.8 122 0 5.9 9.1 2.5 0.0 0 1 1 1 1
1176.6 -4358.1 -43.3 117 0 13.5 28.8 5.0 2.5 2 1 2 3 3
1130.9 -4474.4 -44.3 127 0 15.4 8.1 5.0 2.5 2 0 2 1 1
1366.0 -4355.8 -41.8 346 0 5.8 8.0 2.5 0.0 0 1 1 5 5
1290.1 -4405.3 -42.7 332 0 10.7 10.5 5.0 2.5 2 0 2 0 0
1376.8 -4423.6 -42.1 293 0 12.4 10.1 5.0 2.5 2 0 2 4 4
1401.2 -4471.5 -42.0 47 0 10.3 8.3 5.0 2.5 2 0 2 0 0
1363.0 -4295.2 -42.5 45 0 6.7 7.9 2.5 0.0 0 1 1 2 2
1334.7 -4449.6 -42.6 242 0 21.3 14.2 5.0 2.5 2 0 2 4 4
1311.4 -4393.4 -42.3 147 0 14.4 10.0 5.0 2.5 4 0 2 4 4
1297.4 -4543.8 -42.4 127 0 8.8 10.8 5.0 2.5 2 1 2 3 3
1390.4 -4428.3 -42.0 297 0 7.6 10.8 5.0 2.5 4 1 2 5 5
1252.8 -4508.2 -43.1 126 0 11.1 23.1 5.0 2.5 4 1 2 0 0
1385.2 -4491.8 -42.1 42 0 11.8 9.0 5.0 2.5 2 0 2 3 3
1197.6 -4503.4 -43.6 319 0 13.9 12.0 5.0 2.5 2 0 2 5 5
1317.3 -4525.9 -42.3 129 0 6.4 7.8 2.5 0.0 0 1 1 1 1
1144.1 -4436.0 -44.4 298 0 24.1 21.2 5.0 2.5 2 0 2 4 4
1277.9 -4527.6 -42.7 120 0 8.7 9.9 5.0 2.5 2 1 2 3 3
1245.0 -4413.4 -43.1 118 0 11.3 9.8 5.0 2.5 2 0 2 1 1
1167.5 -4495.5 -43.9 137 0 18.0 13.3 5.0 2.5 2 0 2 0 0
1114.1 -3431.7 -45.0 18 0 13.1 8.3 5.0 2.5 2 0 2 0 0
1084.1 -3157.2 -44.6 285 0 15.9 17.2 5.0 2.5 4 1 2 2 2
1534.1 -3312.2 -43.4 124 0 6.7 7.8 2.5 0.0 0 1 1 1 1
1143.6 -3412.1 -45.8 190 0 11.3 18.8 5.0 2.5 2 1 2 1 1
1298.5 -3345.6 -51.4 117 0 9.2 19.8 5.0 2.5 2 1 2 3 3
1461.0 -3101.0 -43.4 106 0 13.8 12.7 2.5 2.5 2 0 1 5 5
1182.7 -3884.8 -43.2 355 0 9.9 8.7 5.0 2.5 2 0 2 4 4
1419.5 -3512.5 -43.1 227 0 11.5 14.0 2.5 2.5 2 1 1 5 5
1320.4 -4771.2 -41.5 337 0 6.8 19.0 5.0 2.5 2 1 2 5 5
1204.2 -3449.5 -44.2 102 0 13.0 25.3 5.0 2.5 2 1 2 4 4
1378.4 -2886.4 -41.7 200 0 9.9 21.0 2.5 2.5 2 1 1 2 2
1403.7 -2474.5 -40.1 301 0 8.9 13.3 2.5 2.5 2 1 1 5 5
1146.2 -3916.5 -46.7 291 0 9.7 13.8 5.0 2.5 2 1 2 2 2
1455.3 -3522.9 -43.0 123 0 17.3 6.8 2.5 2.5 2 0 1 2 2
1268.4 -3442.5 -43.9 27 0 7.4 10.0 5.0 2.5 2 1 2 1 1
1614.1 -2636.1 -39.1 103 0 47.4 21.6 5.0 2.5 2 0 2 0 0
1035.5 -3941.9 -54.4 176 0 12.5 18.6 5.0 2.5 2 1 2 0 0
1484.3 -3562.0 -42.6 123 0 6.7 13.7 2.5 2.5 2 1 1 3 3
1051.1 -3070.2 -43.8 344 0 7.8 15.3 2.5 2.5 4 1 1 4 4
1552.5 -2770.9 -40.6 201 0 14.6 11.3 4.0 2.5 2 0 1 4 4
1954.1 -3570.2 -41.1 128 0 5.9 6.1 2.5 0.0 0 1 1 3 3
1610.5 -5120.8 -37.7 215 0 4.0 5.9 2.5 0.0 0 1 1 1 1
1183.2 -3865.4 -44.5 353 0 12.8 10.6 5.0 2.5 2 0 2 0 0
1371.6 -3275.6 -43.8 20 0 13.7 9.1 5.0 2.5 2 0 2 2 2
1499.1 -3500.3 -43.1 33 0 5.0 6.9 2.5 0.0 0 1 1 0 0
1691.9 -2875.6 -41.0 88 0 8.0 10.6 8.0 2.5 2 1 2 3 3
1026.4 -3789.3 -47.1 10 0 11.2 10.4 5.0 2.5 2 0 2 0 0
1894.7 -3632.5 -41.3 181 0 11.2 9.7 5.0 2.5 2 0 2 2 2
1398.4 -2518.1 -40.1 124 0 9.8 9.6 2.5 2.5 2 0 1 5 5
1145.4 -3947.8 -46.9 193 0 7.0 10.5 5.0 2.5 2 1 2 5 5
1376.0 -2907.2 -41.9 197 0 5.2 15.5 2.5 2.5 2 1 1 4 4
1445.5 -3541.2 -42.9 114 0 11.9 7.6 2.5 2.5 2 0 1 3 3
1286.2 -3645.8 -43.1 200 0 8.3 5.6 2.5 0.0 0 0 1 1 1
1077.4 -3758.9 -47.7 200 0 5.3 5.0 2.5 0.0 0 0 1 0 0
1909.4 -3679.6 -40.6 182 0 11.9 10.5 5.0 2.5 2 0 2 0 0
1508.5 -5082.0 -38.7 115 0 12.6 8.5 8.0 2.5 2 0 2 1 1
1500.8 -2656.9 -39.6 196 0 10.0 22.7 2.5 0.0 0 1 1 1 1
1067.4 -3935.4 -51.8 338 0 7.1 8.0 2.5 0.0 0 1 1 5 5
1162.7 -3729.0 -45.1 291 0 6.9 5.0 2.5 0.0 0 0 1 2 2
1539.4 -3600.0 -42.2 128 0 4.9 8.9 2.5 0.0 0 1 1 0 0
1285.5 -3601.4 -42.9 209 0 25.1 11.4 5.0 2.5 2 0 2 3 3
1056.9 -3848.9 -53.5 117 0 29.6 10.1 5.0 2.5 2 0 2 0 0
1484.6 -5007.2 -39.6 127 0 10.9 5.8 2.5 0.0 0 0 1 2 2
1559.7 -2737.8 -40.3 102 0 8.9 9.3 2.5 2.5 2 1 1 3 3
1030.3 -3860.2 -56.0 351 0 17.9 6.6 5.0 0.0 0 0 2 3 3
1207.6 -3673.6 -45.4 32 0 7.9 9.4 5.0 2.5 2 1 2 3 3
1208.4 -3583.5 -45.9 114 0 6.6 11.0 5.0 0.0 0 1 2 5 5
1962.7 -3602.5 -41.1 271 0 4.3 6.1 2.5 0.0 0 1 1 2 2
1314.1 -3502.4 -43.5 294 0 7.5 18.0 5.0 2.5 2 1 2 0 0
1567.0 -5003.4 -39.3 29 0 22.0 5.9 8.0 2.5 2 0 2 5 5
1577.4 -2969.2 -41.9 108 0 27.5 15.0 8.0 2.5 2 0 2 4 4
1029.5 -3756.2 -49.0 279 0 14.9 11.1 5.0 2.5 2 0 2 3 3
1577.5 -5112.3 -38.0 36 0 12.0 7.1 7.0 2.5 2 0 2 1 1
1223.0 -3509.8 -43.9 285 0 13.9 11.0 5.0 2.5 2 0 2 2 2
1867.7 -3729.5 -40.4 91 0 7.6 18.4 5.0 2.5 2 1 2 3 3
1339.5 -3357.0 -46.4 18 0 15.6 11.3 5.0 2.5 2 0 2 2 2
1719.6 -2789.2 -40.7 288 0 29.6 15.2 4.0 2.5 2 0 1 1 1
1111.3 -3754.2 -46.9 115 0 5.8 5.6 2.5 0.0 0 0 1 3 3
1520.0 -5061.7 -39.0 129 0 4.4 14.6 2.5 0.0 0 1 1 0 0
1120.8 -3790.7 -44.1 108 0 7.7 6.2 2.5 0.0 0 0 1 2 2
1089.6 -3506.1 -45.4 98 0 12.8 8.7 5.0 2.5 2 0 2 3 3
1928.7 -3699.6 -40.3 104 0 9.8 8.8 5.0 2.5 2 0 2 3 3
1364.2 -3462.0 -43.8 115 0 15.7 8.4 2.5 2.5 2 0 1 2 2
1258.4 -3646.3 -43.2 203 0 19.7 10.6 5.0 2.5 2 0 2 1 1
1085.1 -3802.7 -43.9 15 0 9.8 6.7 2.5 0.0 0 0 1 2 2
1477.9 -5023.2 -39.6 128 0 11.4 6.5 8.0 2.5 2 0 2 4 4
1184.1 -3727.4 -44.2 282 0 8.9 13.0 5.0 2.5 2 1 2 0 0
988.2 -3476.9 -55.1 184 0 9.3 16.4 5.0 2.5 2 1 2 1 1
1510.9 -3413.0 -43.3 127 0 9.5 13.1 2.5 2.5 2 1 1 5 5
1255.6 -3543.5 -43.7 17 0 7.6 11.7 5.0 2.5 2 1 2 5 5
1295.1 -3539.7 -43.1 202 0 12.3 24.1 5.0 2.5 2 1 2 0 0
1562.1 -4959.7 -39.3 300 0 15.1 27.3 7.0 2.5 2 1 2 0 0
1232.2 -3636.7 -43.5 23 0 12.1 7.6 5.0 2.5 2 0 2 5 5
953.9 -3397.0 -52.0 143 0 8.5 12.3 5.0 2.5 2 1 2 2 2
1468.2 -3377.8 -43.5 215 0 9.7 8.6 2.5 2.5 2 0 1 4 4
1181.4 -3543.9 -44.4 283 0 10.5 10.9 5.0 0.0 0 1 2 3 3
1336.4 -3515.5 -43.2 290 0 16.3 18.5 5.0 2.5 2 1 2 4 4
1525.4 -3384.3 -43.3 211 0 17.7 10.1 2.5 2.5 2 0 1 1 1
1496.8 -3289.9 -43.6 117 0 24.7 7.2 2.5 2.5 2 0 1 4 4
1252.9 -4820.1 -41.5 320 0 12.5 8.2 2.5 2.5 2 0 1 0 0
1121.5 -3411.8 -46.6 19 0 20.8 8.1 5.0 2.5 2 0 2 3 3
1025.0 -3478.6 -51.3 292 0 23.1 9.6 5.0 2.5 2 0 2 4 4
1565.0 -3394.8 -43.2 116 0 10.5 6.9 2.5 2.5 2 0 1 3 3
1289.2 -4747.4 -42.0 247 0 15.0 14.5 5.0 2.5 2 0 2 4 4
1176.0 -3474.1 -43.9 100 0 15.2 18.1 5.0 2.5 4 1 2 5 5
948.0 -3387.8 -58.4 138 0 11.7 7.5 5.0 2.5 2 0 2 3 3
1482.3 -3423.8 -43.5 37 0 22.4 12.2 2.5 2.5 2 0 1 4 4
1332.8 -4843.5 -41.1 349 0 13.0 9.0 5.0 2.5 2 0 2 1 1
1249.5 -3492.2 -43.9 102 0 15.7 8.2 5.0 2.5 2 0 2 3 3
1072.1 -3413.8 -46.1 298 0 15.2 11.4 5.0 2.5 2 0 2 2 2
1507.0 -3338.9 -43.5 36 0 11.5 9.9 2.5 0.0 0 0 1 0 0
1525.5 -3447.3 -43.2 318 0 12.3 20.0 2.5 2.5 2 1 1 3 3
1090.8 -3121.0 -43.7 105 0 8.8 21.1 2.5 2.5 2 1 1 5 5
1116.8 -3382.4 -55.6 298 0 8.0 9.5 5.0 2.5 2 1 2 0 0
1098.3 -3997.6 -44.0 9 0 7.2 8.4 2.5 0.0 0 1 1 4 4
1088.2 -3083.4 -43.7 285 0 20.2 8.6 2.5 2.5 2 0 1 4 4
1260.5 -4775.1 -41.8 237 0 11.4 10.5 5.0 2.5 2 0 2 4 4
1134.7 -3461.0 -44.7 101 0 8.3 17.6 5.0 2.5 2 1 2 4 4
1134.1 -3996.3 -43.7 96 0 6.6 8.4 2.5 0.0 0 1 1 5 5
1468.4 -2889.1 -41.8 286 0 10.2 11.0 5.0 2.5 2 1 2 4 4
1460.6 -3471.0 -43.3 228 0 13.6 16.8 2.5 0.0 0 1 1 1 1
1328.6 -4814.5 -41.0 349 0 9.0 6.6 2.5 0.0 0 0 1 0 0
1204.3 -3484.2 -43.9 102 0 14.4 12.4 5.0 2.5 2 0 2 3 3
1372.9 -2431.0 -40.4 302 0 7.3 19.4 2.5 2.5 2 1 1 1 1
1103.3 -3961.8 -50.8 355 0 10.3 9.2 5.0 2.5 2 0 2 1 1
1501.1 -3564.0 -42.5 123 0 4.1 4.9 2.5 0.0 0 1 1 1 1
1289.2 -3456.1 -43.9 23 0 12.1 11.1 5.0 2.5 2 0 2 1 1
1066.0 -3958.4 -52.7 265 0 8.2 13.9 5.0 2.5 2 1 2 1 1
1846.7 -3651.9 -41.4 204 0 7.9 8.6 2.5 0.0 0 1 1 0 0
1062.3 -3108.6 -43.7 103 0 10.5 15.7 2.5 0.0 0 1 1 3 3
1076.1 -3999.0 -44.4 185 0 8.5 10.5 5.0 2.5 2 1 2 0 0
1526.2 -2959.0 -42.0 107 0 10.4 21.0 3.5 2.5 4 1 1 5 5
994.7 -3777.7 -48.1 192 0 10.8 5.5 2.5 0.0 0 0 1 3 3
1601.9 -5151.3 -37.4 36 0 9.0 7.9 8.0 2.5 2 0 2 1 1
1916.6 -3602.8 -41.3 294 0 7.8 11.6 5.0 2.5 2 1 2 5 5
1402.5 -3262.2 -43.8 108 0 11.0 15.1 2.5 2.5 2 1 1 1 1
1460.1 -2605.4 -39.4 166 0 9.1 16.0 2.5 0.0 0 1 1 4 4
1167.4 -3999.6 -43.5 102 0 22.4 10.0 5.0 2.5 2 0 2 2 2
1480.6 -3487.2 -43.2 230 0 4.0 6.9 2.5 0.0 0 1 1 2 2
1668.2 -2800.4 -40.7 276 0 8.8 22.1 12.0 2.5 2 1 3 5 5
1046.4 -3807.0 -44.1 192 0 9.8 10.4 5.0 2.5 4 1 2 0 0
1889.5 -3733.5 -40.1 91 0 11.4 8.8 5.0 2.5 2 0 2 0 0
1437.7 -2995.6 -42.7 16 0 13.4 12.9 5.0 2.5 2 0 2 3 3
1367.9 -2513.3 -40.4 133 0 8.2 22.4 2.5 2.5 2 1 1 4 4
1108.7 -3975.1 -48.2 355 0 13.1 12.2 5.0 2.5 2 0 2 3 3
1466.7 -3550.0 -42.7 128 0 8.3 8.8 2.5 2.5 2 1 1 4 4
1243.6 -3703.3 -43.5 208 0 9.1 12.5 5.0 2.5 2 1 2 2 2
1060.9 -3780.9 -46.1 188 0 6.7 6.5 2.5 0.0 0 0 1 2 2
1496.9 -5091.8 -38.7 118 0 20.7 9.1 8.0 2.5 2 0 2 4 4
1118.0 -3808.4 -46.6 289 0 7.8 25.2 5.0 2.5 2 1 2 3 3
1936.2 -3773.0 -39.5 84 0 19.0 9.9 5.0 2.5 2 0 2 0 0
1265.6 -3515.9 -43.7 293 0 10.7 12.0 5.0 2.5 2 1 2 5 5
1601.9 -2706.5 -39.7 16 0 6.9 21.1 2.5 2.5 2 1 1 4 4
1045.9 -3880.2 -51.2 299 0 14.5 10.5 5.0 2.5 2 0 2 4 4
1595.5 -3652.7 -42.1 128 0 5.0 10.5 2.5 0.0 0 1 1 4 4
1302.6 -3619.2 -42.9 204 0 9.3 14.5 5.0 0.0 0 1 2 3 3
1080.0 -3868.3 -51.0 295 0 7.1 13.8 5.0 2.5 2 1 2 0 0
1507.5 -5021.2 -39.5 119 0 15.6 14.4 7.0 2.5 2 0 2 3 3
1215.2 -3594.4 -45.4 111 0 9.7 5.5 2.5 0.0 0 0 1 1 1
1519.1 -2910.2 -41.8 202 0 12.6 28.9 7.0 2.5 4 1 2 1 1
1934.0 -3627.9 -41.2 285 0 4.3 19.4 5.0 2.5 2 1 2 4 4
1354.6 -3520.4 -43.1 286 0 6.8 3.5 2.5 0.0 0 0 1 4 4
1608.9 -5134.8 -37.6 36 0 14.9 8.9 8.0 0.0 0 0 2 4 4
1247.6 -3571.9 -44.3 22 0 8.2 9.0 5.0 2.5 2 1 2 0 0
1181.3 -3504.8 -44.0 195 0 10.2 9.5 5.0 2.5 2 0 2 0 0
1568.8 -2793.7 -40.8 197 0 15.8 34.2 8.0 2.5 4 1 2 4 4
1094.8 -3714.6 -47.6 280 0 7.8 7.5 2.5 0.0 0 0 1 0 0
1874.5 -3744.1 -40.2 260 0 16.0 9.1 5.0 2.5 2 0 2 2 2
1327.1 -3476.5 -43.8 21 0 17.8 9.7 2.5 2.5 2 0 1 4 4
1508.7 -5049.6 -39.2 126 0 7.1 12.8 8.0 2.5 2 1 2 2 2
1106.3 -3789.9 -45.3 20 0 6.8 22.3 5.0 2.5 2 1 2 3 3
1257.6 -3736.7 -43.0 25 0 13.9 8.1 5.0 0.0 0 0 2 2 2
1068.6 -3795.5 -44.4 207 0 6.6 4.5 2.5 0.0 0 0 1 3 3
1975.8 -3673.4 -40.3 14 0 7.3 4.4 2.5 0.0 0 0 1 5 5
1450.9 -3460.2 -43.5 45 0 7.7 9.3 2.5 2.5 2 1 1 3 3
1475.0 -5071.8 -39.2 119 0 8.6 21.9 8.0 2.5 2 1 2 4 4
1236.2 -3547.2 -43.8 25 0 6.0 10.0 2.5 0.0 0 1 1 4 4
944.3 -3411.8 -55.4 315 0 7.4 7.4 2.5 0.0 0 1 1 3 3
1332.7 -3603.5 -42.8 28 0 12.7 7.8 5.0 2.5 2 0 2 0 0
1437.7 -3289.3 -43.7 287 0 9.5 13.0 2.5 2.5 2 1 1 1 1
1600.7 -4906.5 -39.0 301 0 6.7 20.4 8.0 0.0 0 1 2 2 2
1243.1 -3610.7 -43.7 21 0 10.4 8.3 5.0 0.0 0 0 2 3 3
1205.0 -3616.9 -44.9 25 0 9.7 8.4 5.0 2.5 2 0 2 1 1
1015.4 -3409.5 -47.7 25 0 8.0 10.8 5.0 2.5 2 1 2 4 4
1353.1 -3526.3 -43.1 287 0 6.0 5.3 2.5 0.0 0 0 1 4 4
1496.7 -3362.0 -43.5 308 0 28.9 11.6 2.5 2.5 4 0 1 5 5
1562.3 -3342.2 -43.3 300 0 21.3 13.8 2.5 2.5 2 0 1 5 5
1124.5 -3504.0 -44.3 18 0 6.8 7.6 2.5 0.0 0 1 1 3 3
1364.3 -3489.7 -43.5 203 0 11.5 6.3 2.5 0.0 0 0 1 0 0
1539.9 -3281.0 -43.5 303 0 12.8 7.0 2.5 2.5 2 0 1 3 3
1023.8 -3502.5 -56.5 113 0 12.1 8.4 5.0 2.5 4 0 2 2 2
1251.9 -4833.1 -41.7 322 0 7.4 32.9 2.5 2.5 2 1 1 5 5
1169.3 -3409.7 -45.5 280 0 9.3 12.5 5.0 2.5 2 1 2 1 1
1419.4 -3475.5 -43.5 45 0 8.3 11.6 2.5 2.5 2 1 1 0 0
973.1 -3437.9 -44.2 304 0 5.7 11.9 2.5 0.0 0 1 1 5 5
1320.5 -4755.0 -41.9 335 0 15.8 6.7 5.0 2.5 2 0 2 3 3
1209.7 -3409.0 -47.1 274 0 8.7 7.3 2.5 0.0 0 0 1 2 2
1444.4 -3423.5 -43.6 117 0 18.7 9.4 2.5 2.5 2 0 1 2 2
1517.5 -3334.1 -43.4 216 0 9.6 12.6 2.5 2.5 2 1 1 0 0
1018.5 -3425.2 -45.4 187 0 8.8 11.8 5.0 2.5 4 1 2 2 2
1283.1 -4830.6 -41.2 169 0 6.6 22.2 5.0 2.5 2 1 2 2 2
1261.9 -3453.8 -43.9 21 0 8.1 9.0 5.0 2.5 2 1 2 2 2
1488.8 -3313.8 -43.6 35 0 8.9 8.7 2.5 2.5 2 0 1 2 2
1101.2 -5245.8 -41.7 265 0 9.9 9.6 5.0 2.5 2 0 2 3 3
1115.7 -5126.1 -40.8 260 0 13.9 10.5 2.5 2.5 2 0 1 5 5
1176.0 -4272.2 -43.6 25 0 19.7 10.6 2.5 2.5 2 0 1 5 5
1094.2 -5130.8 -41.0 263 0 9.4 6.3 2.5 0.0 0 0 1 0 0
1174.4 -5243.1 -40.9 246 0 6.4 8.1 2.5 0.0 0 1 1 1 1
1178.8 -4186.9 -43.3 359 0 8.8 10.9 2.5 2.5 2 1 1 1 1
1179.0 -5312.4 -41.4 162 0 10.7 19.9 2.5 2.5 2 1 1 2 2
1178.1 -4129.7 -44.2 337 0 11.0 13.5 2.5 2.5 2 1 1 5 5
1127.4 -4350.4 -43.8 109 0 18.5 9.8 2.5 2.5 2 0 1 3 3
1149.1 -4022.8 -45.7 269 0 9.8 15.0 2.5 2.5 2 1 1 2 2
1171.8 -4246.5 -43.4 13 0 12.1 9.3 2.5 2.5 2 0 1 2 2
1118.0 -4120.5 -45.7 171 0 16.6 11.6 2.5 2.5 4 0 1 5 5
1206.2 -5672.9 -42.3 9 0 7.2 7.2 2.5 0.0 0 1 1 3 3
1200.3 -4204.4 -43.4 1 0 12.4 8.9 2.5 2.5 4 0 1 4 4
1125.1 -4257.5 -43.8 183 0 16.4 9.6 2.5 2.5 2 0 1 5 5
936.6 -5870.8 -45.4 220 0 10.7 12.0 5.0 2.5 2 1 2 0 0
1173.8 -4109.9 -44.4 344 0 9.1 6.2 2.5 0.0 0 0 1 1 1
843.4 -4782.4 -44.6 325 0 7.9 12.4 2.5 2.5 2 1 1 3 3
921.6 -5570.3 -49.4 357 0 15.9 10.3 5.0 2.5 2 0 2 1 1
1118.0 -4031.3 -48.0 183 0 16.7 12.5 2.5 2.5 2 0 1 3 3
1047.1 -4530.4 -48.4 59 0 9.8 15.1 2.5 2.5 2 1 1 5 5
1083.7 -4351.8 -50.2 299 0 11.4 9.8 5.0 2.5 2 0 2 3 3
965.2 -5411.8 -44.2 191 0 12.8 15.1 2.5 2.5 2 1 1 4 4
1123.9 -4154.4 -43.3 171 0 17.7 12.5 2.5 2.5 2 0 1 2 2
1104.1 -4430.5 -44.4 25 0 15.3 11.9 5.0 2.5 2 0 2 0 0
1098.0 -4285.0 -44.1 20 0 11.5 11.3 5.0 2.5 2 0 2 4 4
983.5 -5720.7 -45.0 75 0 8.0 16.4 5.0 2.5 2 1 2 1 1
1067.3 -5258.8 -42.2 359 0 10.9 15.0 2.5 2.5 2 1 1 0 0
1113.6 -4286.4 -43.9 196 0 17.6 11.4 2.5 0.0 0 0 1 2 2
1105.5 -4149.1 -43.4 4 0 12.0 8.3 5.0 2.5 2 0 2 5 5
964.3 -5848.2 -45.4 231 0 9.3 9.1 5.0 2.5 2 0 2 4 4
1067.5 -5385.8 -43.3 179 0 22.8 12.8 2.5 2.5 2 0 1 3 3
961.6 -4766.0 -43.8 227 0 12.0 8.2 2.5 0.0 0 0 1 1 1
1098.1 -4050.5 -53.9 3 0 11.4 11.5 5.0 2.5 2 1 2 4 4
1108.0 -4368.7 -46.2 295 0 7.8 14.5 5.0 2.5 2 1 2 4 4
1130.6 -5358.4 -42.5 251 0 9.6 17.0 2.5 2.5 2 1 1 0 0
1054.3 -4498.1 -47.9 213 0 18.5 10.1 2.5 2.5 2 0 1 1 1
1088.5 -4301.6 -44.2 26 0 12.4 11.4 5.0 2.5 2 0 2 1 1
1003.1 -5432.3 -44.5 2 0 8.8 9.0 2.5 2.5 2 1 1 1 1
1124.9 -5263.9 -41.6 343 0 9.7 8.9 5.0 2.5 2 0 2 0 0
1129.5 -4372.9 -43.9 295 0 9.8 18.8 5.0 2.5 4 1 2 1 1
1105.3 -4180.0 -43.3 353 0 12.6 10.4 5.0 2.5 2 0 2 0 0
1071.4 -5283.0 -42.3 358 0 15.6 6.8 2.5 0.0 0 0 1 3 3
1139.5 -5122.4 -40.6 259 0 14.2 10.0 2.5 2.5 2 0 1 0 0
1095.6 -4068.7 -53.9 2 0 14.9 8.7 5.0 2.5 2 0 2 2 2
1088.8 -5342.1 -42.6 354 0 11.8 10.6 2.5 2.5 4 0 1 5 5
1069.4 -5224.9 -41.8 93 0 10.0 15.9 2.5 2.5 2 1 1 1 1
1127.3 -5206.4 -41.2 84 0 13.5 10.5 2.5 2.5 2 0 1 2 2
1131.3 -5391.0 -42.6 74 0 4.8 12.2 2.5 0.0 0 1 1 2 2
1203.1 -5226.1 -40.6 275 0 8.8 9.0 2.5 2.5 2 1 1 3 3
1148.7 -5279.6 -41.5 346 0 6.1 11.7 5.0 2.5 4 1 2 4 4
1182.0 -5340.6 -41.7 252 0 13.7 16.9 2.5 2.5 2 1 1 3 3
1106.1 -5210.4 -41.4 83 0 12.7 9.5 2.5 2.5 2 0 1 5 5
1082.7 -5136.8 -41.1 252 0 6.9 5.9 2.5 0.0 0 0 1 0 0
1203.5 -4228.5 -43.4 3 0 9.3 8.6 2.5 2.5 2 0 1 5 5
1160.2 -5236.8 -41.1 257 0 11.6 7.6 2.5 2.5 2 0 1 0 0
1186.3 -4147.9 -43.3 336 0 10.8 10.8 2.5 2.5 2 1 1 1 1
1152.6 -5354.8 -42.1 252 0 12.6 10.4 2.5 2.5 2 0 1 2 2
1161.6 -4067.8 -48.4 356 0 17.5 14.0 2.5 2.5 2 0 1 3 3
1152.5 -4319.9 -43.7 31 0 16.5 9.6 2.5 2.5 2 0 1 4 4
1114.4 -4097.1 -47.4 175 0 12.3 11.6 2.5 2.5 2 0 1 3 3
1199.0 -4249.1 -43.4 31 0 13.1 10.4 2.5 2.5 4 0 1 1 1
1279.1 -5729.4 -41.6 241 0 9.5 14.4 5.0 2.5 4 1 2 3 3
1127.7 -4236.7 -43.4 188 0 14.8 9.0 2.5 2.5 2 0 1 4 4
1193.5 -4168.1 -43.3 339 0 14.6 11.6 2.5 2.5 2 0 1 4 4
974.9 -5743.7 -47.9 347 0 12.1 9.1 5.0 2.5 2 0 2 2 2
1100.2 -4319.3 -44.0 207 0 14.4 11.1 2.5 2.5 4 0 1 2 2
1168.8 -4096.2 -44.6 343 0 9.2 11.2 2.5 2.5 4 1 1 1 1
929.2 -5549.7 -48.1 1 0 11.2 10.7 5.0 2.5 2 0 2 2 2
1023.6 -4544.9 -49.0 49 0 9.2 15.6 2.5 2.5 2 1 1 5 5
1114.8 -4061.1 -51.5 183 0 14.2 12.0 2.5 2.5 2 0 1 5 5
1056.8 -4365.0 -51.8 190 0 16.7 7.2 5.0 2.5 2 0 2 0 0
958.7 -5445.7 -45.6 194 0 7.4 10.4 2.5 2.5 2 1 1 2 2
1077.1 -4472.3 -44.8 118 0 10.9 24.8 5.0 2.5 2 1 2 0 0
1299.2 -5756.3 -41.5 56 0 8.9 9.8 5.0 2.5 2 1 2 3 3
1104.0 -4263.0 -43.9 16 0 11.9 12.0 5.0 2.5 2 1 2 0 0
945.0 -5701.1 -45.4 254 0 11.9 10.2 5.0 0.0 0 0 2 1 1
1109.4 -4302.0 -44.0 203 0 7.9 12.5 2.5 2.5 2 1 1 4 4
1099.7 -4111.2 -46.3 358 0 11.6 9.5 5.0 2.5 2 0 2 1 1
1058.9 -5417.7 -43.4 98 0 5.7 8.1 2.5 0.0 0 1 1 1 1
919.7 -5523.8 -47.9 356 0 4.9 8.2 2.5 0.0 0 1 1 5 5
1099.2 -4030.0 -48.9 4 0 9.3 11.5 5.0 2.5 4 1 2 1 1
1110.0 -5369.3 -42.9 278 0 13.1 17.3 2.5 2.5 4 1 1 5 5
924.9 -5355.2 -44.4 273 0 5.0 18.1 5.0 2.5 2 1 2 1 1
1059.7 -4447.5 -45.0 120 0 10.2 7.6 5.0 2.5 2 0 2 2 2
1080.7 -4320.6 -44.3 26 0 11.1 10.5 5.0 2.5 2 0 2 5 5
1109.7 -5301.6 -42.0 161 0 17.1 11.2 5.0 2.5 2 0 2 3 3
1035.5 -5252.5 -42.5 270 0 10.5 19.7 2.5 2.5 2 1 1 4 4
1109.2 -4223.0 -43.4 7 0 9.9 12.8 5.0 2.5 2 1 2 0 0
1148.6 -5328.9 -41.9 71 0 13.7 7.0 5.0 2.5 4 0 2 5 5
1079.9 -5312.2 -42.5 359 0 16.9 10.8 2.5 2.5 2 0 1 0 0
1163.1 -5133.1 -40.4 217 0 9.9 11.9 2.5 2.5 2 1 1 3 3
1096.9 -4090.2 -50.2 359 0 12.9 10.4 5.0 2.5 2 0 2 1 1
1104.4 -5282.0 -41.8 149 0 9.6 10.2 5.0 2.5 2 1 2 5 5
1129.0 -5408.2 -42.8 37 0 3.6 5.7 2.5 0.0 0 1 1 1 1
1133.9 -5247.8 -41.5 359 0 8.2 12.3 5.0 2.5 2 1 2 4 4
1178.3 -3827.9 -44.7 356 0 11.8 9.7 5.0 2.5 2 0 2 0 0
1122.8 -5332.8 -42.1 76 0 8.0 16.6 5.0 2.5 2 1 2 1 1
1177.2 -5291.1 -41.2 163 0 8.9 16.0 2.5 2.5 2 1 1 2 2
1162.1 -5320.5 -41.7 342 0 7.6 6.6 2.5 0.0 0 0 1 4 4
1119.7 -4322.8 -43.8 204 0 6.1 14.3 2.5 2.5 2 1 1 2 2
2471.4 -3931.3 -32.8 194 0 6.6 10.3 2.5 0.0 0 1 1 5 5
2471.4 -3914.2 -32.9 197 0 12.8 28.8 5.0 2.5 4 1 2 5 5
1491.6 -2630.7 -39.2 196 0 11.9 18.9 2.5 2.5 2 1 1 5 5
1020.6 -3756.1 -49.5 9 0 4.6 5.2 2.5 0.0 0 0 1 2 2
1015.1 -3757.5 -49.1 279 0 3.7 7.5 2.5 0.0 0 0 1 3 3
1007.2 -3741.9 -50.8 281 0 3.5 7.0 2.5 0.0 0 1 1 3 3
1018.1 -3744.8 -51.0 13 0 11.1 7.1 5.0 2.5 2 0 2 2 2
1496.4 -6869.0 -19.4 334 0 8.6 11.9 2.5 0.0 0 1 1 3 3
-1319.6 -4924.6 -37.2 200 0 14.5 15.1 2.5 0.0 0 1 1 2 2
2494.2 -6528.3 -26.0 341 0 6.6 20.2 5.0 2.5 2 1 2 1 1
2513.9 -6521.0 -26.2 117 0 6.0 7.7 2.5 0.0 0 1 1 3 3
2453.0 -6489.2 -26.6 330 0 10.2 5.1 2.5 0.0 0 0 1 2 2
2456.8 -6516.5 -26.1 272 0 5.4 7.0 2.5 0.0 0 1 1 5 5
2472.9 -6488.0 -26.6 244 0 7.4 18.5 5.0 2.5 4 1 2 4 4
1904.7 -5836.8 -34.5 217 0 7.1 8.6 2.5 0.0 0 1 1 4 4
1924.0 -5832.3 -34.4 312 0 9.3 9.5 5.0 2.5 4 1 2 3 3
1333.1 -5624.6 -41.0 202 0 8.2 16.1 2.5 2.5 2 1 1 4 4
1288.6 -5713.4 -41.5 331 0 6.6 9.8 2.5 0.0 0 1 1 0 0
1233.9 -5750.2 -42.1 235 0 6.0 7.0 2.5 0.0 0 1 1 0 0
1137.1 -5636.6 -42.9 81 0 12.6 14.1 5.0 2.5 4 1 2 4 4
-553.8 -4049.3 -39.8 298 0 16.2 7.3 5.0 2.5 4 0 2 5 5
-310.7 -4294.8 -43.9 300 0 20.9 6.1 5.0 2.5 2 0 2 2 2
-295.1 -4301.6 -48.7 299 0 6.7 5.8 2.5 0.0 0 0 1 4 4
-643.0 -5144.2 -43.9 166 0 15.5 10.7 5.0 2.5 2 0 2 5 5
-5811.6 9825.4 55.4 132 0 6.7 5.2 2.5 0.0 0 0 1 4 4
1957.8 -2195.2 -36.1 295 0 9.2 5.9 2.5 0.0 0 0 1 4 4
1860.5 -2079.8 -34.5 42 0 20.0 14.8 5.0 2.5 2 0 2 2 2
1900.3 -2131.6 -35.5 130 0 16.1 20.6 2.5 2.5 2 1 1 2 2
2131.3 -2281.5 -36.6 209 0 7.2 13.2 5.0 2.5 2 1 2 5 5
2399.5 -3807.5 -36.2 101 0 9.5 23.6 5.0 2.5 4 1 2 0 0
1057.8 -2572.9 -48.3 177 0 7.2 14.4 5.0 2.5 2 1 2 3 3
-594.8 -5828.7 -46.9 101 0 6.5 10.4 2.5 0.0 0 1 1 0 0
-47.9 -6141.7 -49.6 303 0 35.5 9.3 2.5 0.0 0 0 1 2 2
-30.7 -6118.8 -48.6 37 0 8.6 17.9 2.5 2.5 2 1 1 2 2
81.0 -6276.7 -45.5 305 0 8.7 14.1 2.5 2.5 4 1 1 5 5
101.1 -6298.8 -45.2 304 0 6.4 10.2 2.5 0.0 0 1 1 2 2
84.2 -6321.6 -45.0 124 0 7.6 5.8 2.5 0.0 0 0 1 2 2
1071.8 -2537.0 -47.8 354 0 9.8 3.6 2.5 0.0 0 0 1 2 2
1153.4 -4435.8 -44.1 301 0 6.3 3.3 2.5 0.0 0 0 1 5 5
911.3 -5692.9 -45.6 56 0 7.8 8.5 2.5 0.0 0 1 1 5 5
896.6 -5575.6 -50.2 185 0 10.4 10.0 5.0 2.5 4 0 2 5 5
886.9 -5712.5 -46.3 60 0 10.7 9.1 5.0 2.5 2 0 2 2 2
1061.5 -5688.1 -43.8 134 0 10.3 4.7 2.5 0.0 0 0 1 1 1
1032.5 -5647.1 -44.0 81 0 7.6 8.0 2.5 0.0 0 1 1 1 1
1058.9 -5648.0 -43.8 76 0 9.2 8.6 5.0 2.5 2 0 2 4 4
1053.4 -5629.7 -43.8 255 0 7.9 7.6 2.5 0.0 0 0 1 1 1
1065.6 -5642.3 -43.7 74 0 3.5 5.1 2.5 0.0 0 1 1 0 0
1075.3 -5625.4 -43.6 247 0 4.7 4.9 2.5 0.0 0 1 1 4 4
1088.1 -5686.2 -43.6 43 0 8.6 6.7 2.5 0.0 0 0 1 3 3
802.8 -5762.7 -53.4 43 0 10.2 8.7 5.0 2.5 2 0 2 5 5
801.7 -5738.0 -52.4 149 0 5.4 10.8 2.5 0.0 0 1 1 2 2
846.7 -5758.8 -51.5 219 0 3.9 3.2 2.5 0.0 0 0 1 5 5
979.6 -5725.9 -45.2 1 0 4.7 6.5 2.5 0.0 0 1 1 1 1
962.0 -5763.2 -47.6 141 0 5.1 4.3 2.5 0.0 0 0 1 5 5
1027.2 -5815.4 -44.6 221 0 6.4 12.1 5.0 2.5 2 1 2 0 0
1030.2 -5835.3 -44.4 34 0 10.9 6.6 5.0 2.5 2 0 2 5 5
1010.1 -5823.0 -45.0 218 0 4.9 4.8 2.5 0.0 0 0 1 3 3
1013.5 -5819.4 -44.9 219 0 3.4 4.3 2.5 0.0 0 1 1 2 2
992.7 -5846.6 -44.9 326 0 6.8 7.9 2.5 0.0 0 1 1 2 2
996.1 -5854.4 -44.6 50 0 5.6 3.9 2.5 0.0 0 0 1 3 3
935.8 -5891.9 -44.6 216 0 5.2 11.3 2.5 0.0 0 1 1 3 3
890.7 -5923.8 -44.1 256 0 4.3 9.9 2.5 0.0 0 1 1 3 3
917.0 -5942.8 -42.9 221 0 7.8 7.3 2.5 0.0 0 0 1 5 5
945.6 -5960.7 -42.6 336 0 4.5 10.6 5.0 2.5 2 1 2 0 0
825.6 -5954.6 -43.7 241 0 8.8 10.7 5.0 2.5 2 1 2 4 4
850.5 -5984.7 -43.2 148 0 6.8 4.4 2.5 0.0 0 0 1 5 5
864.2 -5973.5 -43.2 54 0 5.4 7.2 2.5 0.0 0 1 1 4 4
709.0 -5941.5 -46.3 209 0 6.3 4.0 2.5 0.0 0 0 1 1 1
708.5 -5964.3 -45.1 211 0 10.0 12.1 5.0 2.5 2 1 2 2 2
722.5 -5961.5 -44.8 218 0 3.8 5.3 2.5 0.0 0 1 1 5 5
720.0 -5929.6 -46.9 208 0 11.1 7.2 5.0 2.5 2 0 2 5 5
735.3 -6000.5 -44.2 58 0 5.4 5.2 2.5 0.0 0 0 1 1 1
780.4 -5981.6 -44.0 47 0 7.2 7.0 2.5 0.0 0 0 1 5 5
765.5 -5952.9 -44.7 321 0 6.4 8.0 2.5 0.0 0 1 1 4 4
756.6 -5945.0 -45.4 316 0 7.9 8.2 2.5 0.0 0 1 1 5 5
767.6 -5851.9 -50.4 221 0 7.4 8.7 2.5 0.0 0 1 1 3 3
779.8 -5867.0 -49.7 49 0 5.5 5.6 2.5 0.0 0 1 1 5 5
809.6 -5880.7 -48.7 81 0 12.8 14.6 2.5 2.5 2 1 1 2 2
