-6045.7 1452.7 -67.3 139 0 4.1 6.3 2.5 0.0 0 1 1 1 1
-5976.1 1404.6 -61.1 305 0 3.9 4.7 2.5 0.0 0 1 1 2 2
-6013.4 1390.1 -62.0 135 0 5.3 4.5 2.5 0.0 0 0 1 4 4
-5991.3 1394.7 -61.7 39 0 7.8 6.3 2.5 0.0 0 0 1 4 4
-5765.8 1392.4 -55.2 220 0 4.3 3.9 2.5 0.0 0 0 1 3 3
-5804.3 1389.9 -55.7 103 0 6.0 11.1 2.5 0.0 0 1 1 1 1
-5779.2 1418.2 -56.2 12 0 6.2 4.8 2.5 0.0 0 0 1 4 4
-5822.4 1555.7 -65.1 126 0 6.5 5.4 2.5 0.0 0 0 1 5 5
-5870.6 1549.4 -66.3 127 0 8.4 10.3 5.0 2.5 2 1 2 5 5
-5705.1 1590.6 -63.3 54 0 5.1 5.0 2.5 0.0 0 0 1 1 1
-781.0 -11099.4 12.3 30 0 6.8 6.7 2.5 0.0 0 0 1 5 5
-823.3 -10856.5 19.7 4 0 4.7 6.3 2.5 0.0 0 1 1 2 2
-929.2 -10894.5 21.1 225 0 13.6 6.3 5.0 2.5 4 0 2 3 3
-874.8 -10907.6 19.1 135 0 8.5 6.6 2.5 0.0 0 0 1 5 5
-844.5 -10972.3 12.5 273 0 4.6 5.1 2.5 0.0 0 1 1 5 5
-751.8 -11000.1 8.2 149 0 5.0 6.5 2.5 0.0 0 1 1 2 2
-748.2 -10978.0 8.6 324 0 5.5 5.3 2.5 0.0 0 0 1 3 3
-800.9 -10952.8 12.6 127 0 4.4 4.8 2.5 0.0 0 1 1 4 4
-807.1 -10949.2 13.1 128 0 4.5 5.5 2.5 0.0 0 1 1 3 3
-812.4 -10975.5 10.7 299 0 8.8 6.9 2.5 0.0 0 0 1 0 0
-830.7 -10997.1 11.6 37 0 8.1 8.8 5.0 2.5 2 1 2 1 1
-852.0 -11007.0 12.8 46 0 13.6 7.3 5.0 2.5 2 0 2 1 1
-830.0 -10937.7 15.1 28 0 4.8 7.1 2.5 0.0 0 1 1 0 0
-809.7 -10906.3 16.8 35 0 6.2 6.9 2.5 0.0 0 1 1 2 2
-817.2 -10900.3 17.6 38 0 6.7 5.1 2.5 0.0 0 0 1 0 0
-824.5 -10893.2 18.2 308 0 3.1 5.1 2.5 0.0 0 1 1 4 4
-849.5 -10888.7 19.2 236 0 10.4 7.7 5.0 2.5 2 0 2 4 4
-832.6 -11078.4 14.4 141 0 5.9 8.8 2.5 0.0 0 1 1 1 1
-815.7 -11133.9 12.4 54 0 5.2 5.8 2.5 0.0 0 1 1 4 4
-750.0 -11097.3 10.8 197 0 4.5 5.9 2.5 0.0 0 1 1 1 1
196.5 -1854.0 63.4 229 0 12.7 7.6 2.5 2.5 4 0 1 0 0
164.8 -1877.5 63.9 318 0 7.8 7.1 2.5 0.0 0 0 1 0 0
196.3 -1874.2 63.3 143 0 3.7 11.0 2.5 0.0 0 1 1 5 5
132.6 -1941.5 64.0 46 0 3.9 3.5 2.5 0.0 0 0 1 5 5
417.2 -1794.1 60.4 186 0 3.5 4.5 2.5 0.0 0 1 1 0 0
506.0 -1729.8 60.3 48 0 3.1 3.5 2.5 0.0 0 1 1 1 1
587.0 -1393.8 60.2 330 0 3.2 3.7 2.5 0.0 0 1 1 0 0
438.3 -1256.6 63.4 330 0 3.0 3.3 2.5 0.0 0 1 1 0 0
