-6811.9 1902.0 -26.7 46 0 9.2 23.2 2.5 0.0 0 1 1 3 3
-6843.8 1915.8 -28.0 231 0 11.1 5.0 2.5 0.0 0 0 1 4 4
-6854.2 1901.1 -26.7 234 0 8.5 10.4 2.5 2.5 2 1 1 1 1
3224.6 -7055.3 32.8 332 0 9.0 10.7 5.0 0.0 0 1 2 5 5
3208.9 -7085.7 32.5 58 0 7.7 20.8 5.0 2.5 2 1 2 3 3
3430.9 -6958.3 33.8 227 0 5.4 9.1 2.5 0.0 0 1 1 5 5
3468.3 -6950.2 34.0 54 0 8.1 26.9 7.5 2.5 2 1 3 5 5
3959.2 -2961.3 -22.8 159 0 13.1 31.1 2.5 2.5 2 1 1 3 3
3976.8 -2903.8 -24.1 123 0 13.9 8.3 5.0 2.5 2 0 2 3 3
2570.1 -3908.6 -21.9 47 0 21.6 7.3 7.5 2.5 2 0 3 0 0
2493.9 -3921.0 -25.8 137 0 25.2 17.4 5.0 2.5 2 0 2 0 0
2543.6 -3942.3 -22.4 47 0 24.5 20.9 5.0 2.5 2 0 2 2 2
3275.8 -2924.8 -24.3 45 0 11.7 8.4 2.5 2.5 2 0 1 1 1
3269.9 -2888.4 -24.3 320 0 6.3 28.8 2.5 2.5 2 1 1 3 3
3217.7 -2953.9 -24.3 155 0 11.2 8.0 2.5 2.5 2 0 1 5 5
3199.9 -2954.0 -24.2 68 0 6.7 12.5 2.5 2.5 2 1 1 1 1
3170.0 -3001.7 -25.0 305 0 5.1 8.0 2.5 0.0 0 1 1 2 2
3135.8 -2983.8 -25.1 300 0 5.2 13.9 5.0 2.5 2 1 2 5 5
3121.6 -2971.3 -24.8 305 0 5.3 9.8 2.5 0.0 0 1 1 4 4
3013.3 -2962.8 -25.2 122 0 7.2 8.9 2.5 0.0 0 1 1 2 2
3096.6 -3101.1 -26.0 127 0 12.0 8.8 2.5 2.5 2 0 1 3 3
3063.4 -3107.3 -26.2 314 0 6.4 15.3 2.5 2.5 4 1 1 4 4
3094.3 -3200.4 -25.3 39 0 5.5 13.5 5.0 2.5 2 1 2 4 4
3190.3 -3159.0 -24.9 141 0 6.3 11.3 2.5 2.5 2 1 1 2 2
3204.6 -3129.5 -24.8 316 0 7.6 8.2 2.5 0.0 0 1 1 3 3
3348.3 -3333.8 -23.4 150 0 10.3 6.4 2.5 0.0 0 0 1 5 5
3344.9 -3255.6 -23.8 150 0 8.6 13.0 5.0 2.5 4 1 2 4 4
3212.8 -3514.6 -22.1 119 0 5.8 10.3 2.5 0.0 0 1 1 2 2
3276.4 -3493.5 -22.2 29 0 10.3 5.8 2.5 0.0 0 0 1 2 2
3256.9 -3467.6 -22.8 299 0 5.8 10.3 2.5 0.0 0 1 1 5 5
3258.3 -3446.8 -23.3 119 0 5.8 10.3 2.5 0.0 0 1 1 3 3
3272.5 -3416.4 -23.5 209 0 10.3 5.8 2.5 0.0 0 0 1 2 2
3343.7 -3326.5 -23.4 151 0 4.8 6.8 2.5 0.0 0 0 1 2 2
3960.2 -2268.6 -28.6 326 0 19.3 8.9 5.0 2.5 2 0 2 2 2
3937.5 -2243.0 -29.7 236 0 8.9 19.3 5.0 2.5 2 1 2 1 1
3883.5 -2241.1 -33.6 43 0 9.4 8.4 5.0 2.5 2 0 2 0 0
3869.8 -2258.2 -33.5 44 0 6.5 6.8 2.5 0.0 0 1 1 5 5
3846.4 -2280.9 -33.5 56 0 11.5 5.5 2.5 0.0 0 0 1 1 1
3786.3 -2339.3 -35.7 57 0 7.1 8.3 2.5 0.0 0 1 1 2 2
3820.4 -2329.2 -34.6 233 0 7.9 10.5 2.5 2.5 2 1 1 0 0
3807.9 -2320.8 -34.9 54 0 10.0 8.5 5.0 2.5 2 0 2 5 5
3896.2 -2354.6 -31.2 241 0 6.4 6.4 2.5 0.0 0 1 1 4 4
3864.8 -2423.6 -31.7 118 0 12.9 9.9 5.0 2.5 2 0 2 5 5
3902.9 -2488.7 -30.3 144 0 7.7 10.0 5.0 2.5 2 1 2 1 1
3922.3 -2425.4 -30.0 324 0 8.8 8.5 5.0 2.5 2 0 2 1 1
3888.3 -2438.9 -30.8 144 0 7.0 12.6 5.0 2.5 2 1 2 1 1
3884.7 -2469.6 -30.9 324 0 7.1 10.4 5.0 2.5 4 1 2 5 5
3849.8 -2431.0 -32.5 328 0 6.9 27.7 5.0 2.5 2 1 2 3 3
3638.7 -2544.9 -31.2 143 0 8.5 11.0 5.0 2.5 2 1 2 2 2
3639.1 -2506.6 -31.7 233 0 7.0 15.7 5.0 2.5 2 1 2 5 5
3675.4 -2453.1 -33.8 233 0 11.6 8.0 5.0 2.5 4 0 2 4 4
3687.6 -2512.6 -32.6 53 0 9.2 7.0 2.5 0.0 0 0 1 4 4
3655.3 -2477.0 -33.2 233 0 17.0 9.4 5.0 2.5 2 0 2 4 4
3667.2 -2492.8 -32.9 233 0 17.0 9.4 5.0 2.5 2 0 2 2 2
3705.1 -2490.6 -33.1 57 0 18.2 6.7 5.0 2.5 2 0 2 0 0
3751.0 -2466.9 -33.8 333 0 8.2 10.2 5.0 0.0 0 1 2 1 1
3748.7 -2422.2 -34.8 345 0 7.5 10.2 5.0 2.5 2 1 2 2 2
3699.2 -2413.8 -35.7 78 0 8.7 10.4 5.0 2.5 2 1 2 1 1
3707.3 -2390.1 -36.8 75 0 9.2 26.0 5.0 2.5 2 1 2 2 2
3626.8 -2343.1 -38.1 270 0 7.0 8.2 2.5 0.0 0 1 1 1 1
3662.6 -2361.8 -37.3 335 0 6.0 15.7 5.0 2.5 2 1 2 2 2
3665.8 -2423.1 -34.7 54 0 15.3 10.3 5.0 2.5 2 0 2 0 0
3649.4 -2396.9 -36.1 54 0 17.4 8.1 5.0 2.5 2 0 2 5 5
3617.7 -2390.5 -36.0 144 0 8.8 12.2 5.0 0.0 0 1 2 4 4
3615.0 -2407.1 -34.4 234 0 10.7 8.5 5.0 2.5 2 0 2 1 1
3594.9 -2457.0 -32.7 59 0 7.0 16.3 5.0 2.5 2 1 2 2 2
3574.4 -2421.3 -33.1 253 0 6.9 10.3 5.0 0.0 0 1 2 0 0
3559.4 -2418.4 -33.0 247 0 5.9 6.1 2.5 0.0 0 1 1 0 0
3533.4 -2425.3 -32.3 256 0 18.7 8.0 5.0 2.5 2 0 2 4 4
3548.8 -2464.9 -31.1 143 0 8.6 10.3 5.0 2.5 4 1 2 2 2
3534.7 -2482.6 -29.4 320 0 8.6 11.2 2.5 0.0 0 0 1 5 5
3527.5 -2474.2 -29.1 319 0 13.6 11.3 2.5 2.5 2 0 1 1 1
3495.9 -2504.9 -28.8 139 0 9.7 23.1 2.5 2.5 2 1 1 5 5
3555.6 -2591.1 -27.9 226 0 11.7 5.7 2.5 0.0 0 0 1 3 3
3619.3 -2537.4 -30.6 308 0 10.8 33.0 2.5 2.5 2 1 1 0 0
3548.2 -2533.7 -29.6 228 0 14.5 5.5 5.0 2.5 2 0 2 0 0
3540.0 -2546.9 -28.9 228 0 6.5 7.2 2.5 0.0 0 1 1 4 4
3493.3 -2589.8 -26.7 228 0 4.9 7.1 2.5 0.0 0 1 1 2 2
3505.9 -2571.9 -27.2 228 0 8.6 5.2 2.5 0.0 0 0 1 3 3
3539.8 -2579.9 -27.7 48 0 8.6 5.9 2.5 0.0 0 0 1 3 3
3526.1 -2594.8 -27.2 48 0 11.3 8.9 5.0 2.5 4 0 2 3 3
3449.9 -2633.8 -25.6 219 0 9.7 9.9 2.5 2.5 2 1 1 2 2
3420.0 -2620.5 -25.1 39 0 7.4 18.6 5.0 2.5 4 1 2 1 1
3415.7 -2633.8 -25.0 39 0 14.8 11.5 5.0 2.5 2 0 2 0 0
3445.5 -2589.5 -25.8 309 0 11.2 16.4 5.0 2.5 2 1 2 2 2
3477.0 -2615.3 -25.9 309 0 7.1 16.7 2.5 2.5 2 1 1 3 3
3499.1 -2613.3 -26.5 138 0 7.2 10.4 5.0 2.5 2 1 2 0 0
3518.9 -2629.9 -26.8 219 0 10.5 8.4 2.5 2.5 2 0 1 0 0
3510.2 -2641.5 -26.5 219 0 4.3 10.6 2.5 0.0 0 1 1 3 3
3497.0 -2656.0 -26.3 219 0 12.4 7.4 2.5 2.5 2 0 1 3 3
3507.1 -2695.1 -26.0 37 0 24.1 7.8 2.5 2.5 2 0 1 0 0
3463.3 -2741.3 -25.0 37 0 13.6 6.8 2.5 2.5 2 0 1 4 4
3449.0 -2673.9 -25.8 125 0 7.2 13.8 2.5 2.5 2 1 1 5 5
3437.4 -2722.8 -25.0 217 0 15.6 6.8 2.5 0.0 0 0 1 5 5
3430.9 -2704.9 -25.1 35 0 9.7 8.4 2.5 2.5 2 0 1 0 0
3408.8 -2734.5 -24.3 35 0 13.8 8.6 2.5 2.5 2 0 1 1 1
3360.8 -2746.0 -24.2 26 0 10.5 5.7 2.5 0.0 0 0 1 1 1
3378.2 -2690.7 -24.6 206 0 10.4 8.6 5.0 2.5 2 0 2 4 4
3368.7 -2709.5 -24.2 206 0 10.4 8.6 5.0 2.5 2 0 2 2 2
3357.6 -2732.8 -24.2 206 0 10.4 8.6 5.0 2.5 4 0 2 0 0
4014.9 -1662.2 -38.9 244 0 7.9 16.9 2.5 2.5 2 1 1 1 1
3957.7 -1698.6 -36.9 219 0 10.2 11.5 2.5 2.5 4 1 1 0 0
4088.9 -1552.1 -40.3 47 0 12.2 7.8 7.5 2.5 2 0 3 4 4
4196.6 -1892.9 -22.9 154 0 9.0 5.4 2.5 0.0 0 0 1 3 3
4204.2 -1872.2 -23.3 244 0 8.4 7.1 2.5 0.0 0 0 1 4 4
4238.7 -1882.1 -22.3 334 0 8.0 8.6 5.0 2.5 2 1 2 4 4
4223.6 -1907.1 -21.3 154 0 6.8 9.2 2.5 0.0 0 1 1 4 4
4028.3 -1915.9 -35.2 50 0 8.4 5.8 2.5 0.0 0 0 1 1 1
3921.8 -2010.3 -37.7 49 0 6.5 9.1 2.5 0.0 0 1 1 4 4
3947.8 -1975.7 -37.8 327 0 5.2 19.7 2.5 2.5 2 1 1 3 3
3890.0 -2034.8 -39.0 52 0 12.3 14.4 2.5 2.5 2 1 1 3 3
3995.0 -2178.7 -33.1 241 0 11.4 11.1 2.5 2.5 4 0 1 3 3
4041.9 -2197.3 -27.7 243 0 13.8 8.7 5.0 2.5 2 0 2 2 2
4079.2 -2149.6 -26.6 63 0 10.9 7.8 2.5 2.5 4 0 1 4 4
4102.9 -2127.1 -24.4 60 0 9.4 7.6 2.5 2.5 2 0 1 3 3
4133.3 -2107.2 -20.7 59 0 10.5 8.1 2.5 2.5 2 0 1 2 2
4157.6 -2089.2 -21.5 58 0 13.1 9.3 2.5 2.5 2 0 1 4 4
4159.2 -2058.8 -22.0 240 0 12.9 6.6 2.5 2.5 4 0 1 4 4
4241.1 -2043.1 -21.3 64 0 9.2 18.2 7.5 2.5 2 1 3 0 0
4427.1 -2235.3 -25.7 291 0 9.4 8.1 2.5 2.5 2 0 1 4 4
4479.1 -2257.1 -25.7 298 0 8.6 7.9 2.5 0.0 0 0 1 5 5
4771.0 -1974.6 -4.2 129 0 8.8 6.6 2.5 0.0 0 0 1 0 0
4793.8 -1949.4 -4.2 318 0 11.2 7.5 5.0 2.5 4 0 2 1 1
5504.5 -938.0 -40.3 58 0 5.4 9.8 2.5 0.0 0 1 1 5 5
5428.0 -991.1 -39.6 139 0 8.9 7.6 2.5 0.0 0 0 1 1 1
5375.0 -965.1 -40.4 311 0 7.1 10.7 5.0 2.5 2 1 2 2 2
5359.2 -979.0 -40.5 221 0 5.3 12.0 2.5 0.0 0 1 1 5 5
5336.2 -1033.0 -39.9 46 0 6.8 5.2 2.5 0.0 0 0 1 0 0
5316.5 -1039.2 -40.1 139 0 6.8 9.9 2.5 0.0 0 1 1 1 1
5297.5 -1069.8 -40.1 53 0 9.5 6.8 2.5 0.0 0 0 1 1 1
5277.8 -1107.5 -39.9 219 0 8.4 6.8 2.5 0.0 0 0 1 1 1
5403.9 -1080.3 -39.4 8 0 8.3 6.0 2.5 0.0 0 0 1 4 4
5387.2 -1185.4 -37.2 220 0 7.1 5.6 2.5 0.0 0 0 1 0 0
5332.9 -1251.5 -33.6 229 0 11.7 5.5 2.5 0.0 0 0 1 1 1
5349.9 -1225.7 -35.5 231 0 6.2 7.7 2.5 0.0 0 1 1 0 0
5253.8 -1211.6 -32.3 145 0 10.0 6.6 2.5 0.0 0 0 1 3 3
5226.6 -1235.4 -30.3 319 0 9.1 9.1 5.0 2.5 2 1 2 3 3
5212.7 -1252.6 -29.5 42 0 7.1 5.9 2.5 0.0 0 0 1 5 5
5192.0 -1240.1 -31.2 231 0 4.9 6.9 2.5 0.0 0 1 1 4 4
5179.8 -1280.7 -28.0 138 0 5.5 16.0 5.0 2.5 2 1 2 3 3
4749.6 -1529.3 -30.8 150 0 4.1 8.7 2.5 0.0 0 1 1 2 2
5111.2 -1565.3 -11.0 219 0 7.8 10.5 5.0 2.5 2 1 2 0 0
5092.0 -1631.0 -8.2 37 0 14.0 17.6 5.0 2.5 2 1 2 1 1
5056.5 -1636.8 -6.3 219 0 9.8 8.7 5.0 2.5 2 0 2 2 2
5086.0 -1652.8 -7.7 40 0 19.4 5.1 5.0 2.5 2 0 2 5 5
