1869.7 2821.2 -59.8 188 0 14.6 7.4 5.0 0.0 0 0 2 0 0
1801.1 2793.0 -59.5 291 0 6.5 8.8 2.5 0.0 0 1 1 5 5
1788.4 2793.4 -59.5 290 0 8.0 10.4 2.5 2.5 2 1 1 5 5
1967.5 2742.9 -60.1 337 0 15.3 10.3 2.5 0.0 0 0 1 0 0
1944.1 2758.3 -60.0 335 0 7.1 10.0 2.5 2.5 2 1 1 5 5
1951.7 2711.7 -59.9 157 0 7.7 27.4 2.5 2.5 2 1 1 4 4
1918.5 2887.2 -60.2 8 0 9.1 15.4 5.0 2.5 2 1 2 2 2
2040.6 2634.9 -59.7 232 0 4.4 5.9 2.5 0.0 0 1 1 5 5
2060.9 2647.1 -60.1 52 0 6.4 11.3 7.5 2.5 2 1 3 2 2
1873.7 2877.3 -60.1 191 0 4.0 6.8 2.5 0.0 0 1 1 0 0
1848.6 2889.2 -60.2 100 0 18.6 7.7 5.0 2.5 2 0 2 2 2
1876.0 2935.4 -60.2 196 0 8.6 11.8 5.0 2.5 2 1 2 3 3
1852.8 2943.9 -60.2 311 0 4.7 4.3 2.5 0.0 0 0 1 1 1
1847.0 2806.1 -59.7 9 0 16.2 8.7 5.0 2.5 2 0 2 3 3
1817.6 2822.9 -59.8 99 0 8.1 14.4 5.0 2.5 2 1 2 0 0
1839.7 2835.9 -59.8 11 0 8.3 7.3 2.5 0.0 0 0 1 5 5
1810.6 2851.2 -59.9 193 0 7.9 4.9 2.5 0.0 0 0 1 5 5
1795.0 2818.2 -59.7 82 0 7.6 6.1 2.5 0.0 0 0 1 2 2
1832.0 2876.3 -60.1 7 0 7.0 7.6 2.5 0.0 0 1 1 4 4
223.2 514.5 63.7 281 0 52.7 20.0 2.5 2.5 2 0 1 1 1
5958.4 80.3 -66.5 16 0 8.6 7.1 2.5 2.5 6 0 1 4 4
5631.9 2288.9 55.7 44 0 4.2 3.7 2.5 0.0 0 0 1 0 0
6202.1 -3990.8 -58.1 174 0 13.3 7.6 5.0 2.5 2 0 2 5 5
6209.7 -3990.4 -58.6 172 0 13.8 6.6 5.0 2.5 2 0 2 2 2
6194.8 -3972.6 -57.4 170 0 8.4 11.2 5.0 2.5 2 1 2 5 5
6566.3 -3490.0 -55.1 259 0 9.3 29.0 5.0 2.5 2 1 2 4 4
