-6590.8 9748.2 -11.9 135 0 9.3 20.5 2.5 0.0 0 1 1 4 4
-6514.0 9864.4 -14.2 315 0 8.9 12.4 2.5 2.5 2 1 1 0 0
-6500.4 9869.0 -13.8 135 0 7.3 17.4 2.5 0.0 0 1 1 0 0
-6452.5 9890.0 -12.8 317 0 12.0 10.3 2.5 2.5 2 0 1 5 5
-6364.3 10054.3 -16.4 234 0 8.4 9.9 2.5 2.5 2 1 1 4 4
-6384.5 10010.8 -14.8 324 0 15.4 7.4 2.5 2.5 2 0 1 0 0
-6350.5 9797.6 -4.4 174 0 12.8 8.3 2.5 2.5 2 0 1 0 0
-6525.9 9780.0 -10.8 43 0 27.5 8.5 2.5 2.5 2 0 1 1 1
-6533.2 9722.1 -7.3 223 0 7.1 10.9 5.0 2.5 2 1 2 1 1
-6451.2 9797.4 -7.2 223 0 12.8 8.3 2.5 2.5 2 0 1 3 3
-6433.4 9822.6 -8.6 223 0 9.7 18.6 2.5 2.5 2 1 1 3 3
-6409.2 9848.1 -9.1 223 0 31.1 10.5 2.5 2.5 2 0 1 3 3
-6308.3 9937.8 -9.6 223 0 11.4 7.9 5.0 0.0 0 0 2 1 1
-6355.9 9825.4 -5.5 133 0 7.9 10.7 2.5 2.5 4 1 1 3 3
-6341.0 9906.4 -8.8 223 0 7.8 9.7 5.0 2.5 2 1 2 0 0
-6249.7 9949.9 -9.3 45 0 11.3 19.4 5.0 2.5 2 1 2 1 1
-6029.7 10189.8 -11.9 137 0 9.2 9.4 5.0 2.5 2 1 2 3 3
-6022.1 10214.1 -12.8 227 0 13.6 9.9 5.0 2.5 2 0 2 0 0
-6012.7 10269.8 -13.6 47 0 7.2 21.6 2.5 2.5 2 1 1 3 3
-6030.3 10303.3 -13.6 317 0 7.5 14.4 2.5 2.5 2 1 1 2 2
-6026.2 10255.4 -15.1 47 0 12.1 10.0 2.5 2.5 4 0 1 3 3
-6092.5 10198.5 -14.6 47 0 8.9 5.1 2.5 0.0 0 0 1 2 2
-6089.0 10307.2 -15.7 227 0 9.5 8.5 2.5 2.5 2 0 1 3 3
-6044.7 10241.0 -15.7 47 0 15.7 8.6 2.5 2.5 2 0 1 5 5
-6063.5 10224.8 -15.5 47 0 7.3 11.1 2.5 2.5 2 1 1 5 5
-6124.4 10217.4 -16.7 142 0 9.4 6.2 2.5 0.0 0 0 1 4 4
-6166.2 10242.8 -19.6 226 0 11.7 12.2 2.5 2.5 2 1 1 5 5
-5207.1 10499.9 -2.8 81 0 19.1 8.1 5.0 2.5 2 0 2 5 5
-5254.6 10517.0 -3.4 164 0 4.5 10.2 2.5 0.0 0 1 1 3 3
-5174.5 10527.6 -2.7 248 0 7.2 9.8 5.0 2.5 2 1 2 1 1
-5126.4 10536.9 -2.6 342 0 7.2 17.3 5.0 0.0 0 1 2 1 1
-5153.1 10515.0 -2.6 71 0 5.8 14.9 5.0 2.5 2 1 2 2 2
-5174.0 10499.1 -2.4 75 0 17.8 8.0 5.0 2.5 2 0 2 1 1
-5694.9 10377.2 -12.6 76 0 12.6 7.2 2.5 2.5 2 0 1 0 0
-5650.9 10400.1 -11.6 69 0 7.9 13.6 2.5 2.5 2 1 1 4 4
-5670.7 10392.7 -12.5 69 0 5.4 16.4 2.5 2.5 2 1 1 5 5
-5806.2 10455.8 -19.5 69 0 7.4 8.2 2.5 0.0 0 1 1 4 4
-5802.2 10440.7 -18.7 339 0 6.0 6.6 2.5 0.0 0 1 1 0 0
-5718.3 10400.1 -14.9 159 0 12.2 8.4 2.5 2.5 4 0 1 5 5
-5774.3 10403.9 -17.0 340 0 11.2 11.7 2.5 2.5 2 1 1 2 2
-5888.1 10349.3 -17.7 254 0 8.1 14.1 5.0 2.5 2 1 2 0 0
-5820.9 10289.4 -12.3 74 0 9.4 12.5 5.0 2.5 2 1 2 0 0
-5938.8 10312.2 -17.3 64 0 10.5 11.1 5.0 2.5 4 1 2 4 4
