-6623.0 2950.8 -28.5 112 0 3.5 4.8 2.5 0.0 0 1 1 1 1
-6546.5 2957.8 -30.4 314 0 3.2 4.6 2.5 0.0 0 1 1 5 5
-6559.4 2949.2 -30.1 309 0 6.1 8.3 2.5 0.0 0 1 1 1 1
-6499.7 3046.1 -30.2 39 0 8.3 20.3 2.5 0.0 0 1 1 4 4
-6508.7 3135.6 -30.5 304 0 3.1 5.5 2.5 0.0 0 1 1 2 2
-6531.4 3130.6 -30.3 220 0 10.2 9.3 2.5 2.5 2 0 1 5 5
-6487.0 3116.1 -30.7 306 0 6.7 19.4 2.5 2.5 2 1 1 5 5
-6297.1 3443.1 -31.9 260 0 4.5 4.5 2.5 0.0 0 1 1 5 5
-6229.5 3427.0 -32.4 156 0 5.8 12.6 2.5 2.5 2 1 1 5 5
-6246.2 3474.6 -31.8 336 0 5.3 7.7 2.5 0.0 0 1 1 1 1
-6237.9 3466.3 -32.2 246 0 7.6 21.6 7.5 2.5 2 1 3 5 5
-3077.0 10915.0 -6.0 313 0 5.2 6.3 2.5 0.0 0 1 1 0 0
-3113.2 10934.0 -1.3 50 0 12.5 4.5 2.5 0.0 0 0 1 5 5
-3188.3 10893.7 7.7 142 0 6.4 4.5 2.5 0.0 0 0 1 5 5
-3149.4 10920.3 2.4 234 0 7.1 10.3 5.0 2.5 2 1 2 0 0
-3160.0 10887.5 3.4 143 0 9.1 9.3 5.0 2.5 2 1 2 2 2
-3112.1 10911.1 -2.4 236 0 10.7 7.9 7.5 2.5 2 0 3 3 3
-3111.0 10813.3 -7.0 138 0 8.3 7.7 2.5 0.0 0 0 1 0 0
-3066.9 10700.4 -16.2 14 0 6.4 8.4 2.5 0.0 0 1 1 4 4
-3141.2 10688.4 -9.6 202 0 5.7 3.9 2.5 0.0 0 0 1 2 2
-3108.9 10646.4 -13.0 107 0 10.1 6.6 2.5 0.0 0 0 1 5 5
-3087.9 10660.8 -13.7 20 0 15.9 7.4 5.0 2.5 2 0 2 1 1
-3042.4 10809.2 -13.8 117 0 6.3 6.2 2.5 0.0 0 0 1 0 0
-3021.0 10871.6 -16.0 33 0 4.1 5.0 2.5 0.0 0 1 1 2 2
-3034.6 10888.1 -13.6 221 0 5.7 6.6 2.5 0.0 0 1 1 2 2
-3005.8 10879.5 -18.0 36 0 6.9 8.6 7.5 2.5 2 1 3 5 5
-3007.2 10921.7 -15.0 305 0 7.3 12.5 5.0 2.5 2 1 2 3 3
-6777.1 1370.8 -38.2 120 0 7.1 25.5 5.0 2.5 2 1 2 1 1
-6758.6 1349.5 -38.0 114 0 9.4 8.3 2.5 0.0 0 0 1 1 1
5718.8 1195.2 38.7 65 0 10.9 27.1 5.0 2.5 2 1 2 1 1
5447.2 989.3 51.5 35 0 8.5 7.5 2.5 0.0 0 0 1 4 4
5444.2 1026.4 51.1 217 0 9.4 7.1 2.5 0.0 0 0 1 2 2
5551.3 1367.1 36.9 38 0 4.9 5.6 2.5 0.0 0 1 1 4 4
5516.5 1332.8 40.2 83 0 5.2 5.7 2.5 0.0 0 1 1 4 4
6847.8 197.7 46.1 131 0 9.2 7.6 5.0 2.5 2 0 2 2 2
6964.3 271.0 48.7 20 0 13.1 6.4 5.0 2.5 2 0 2 1 1
6881.0 189.9 46.2 48 0 13.6 7.9 5.0 2.5 2 0 2 2 2
6441.2 -87.0 47.7 94 0 4.1 3.5 2.5 0.0 0 0 1 3 3
6481.3 378.7 45.0 102 0 6.4 9.9 2.5 0.0 0 1 1 2 2
6525.1 -15.6 45.9 182 0 10.1 6.9 2.5 0.0 0 0 1 5 5
6534.5 -58.2 45.9 92 0 7.3 21.0 5.0 2.5 2 1 2 2 2
6504.9 -45.7 46.0 183 0 8.2 3.5 2.5 0.0 0 0 1 0 0
6558.1 -45.9 45.9 16 0 4.7 4.2 2.5 0.0 0 0 1 3 3
6704.8 298.2 45.7 304 0 5.1 4.8 2.5 0.0 0 0 1 0 0
6621.0 237.1 45.1 219 0 8.3 10.3 5.0 2.5 2 1 2 1 1
6654.3 279.1 45.3 226 0 6.6 14.0 5.0 2.5 2 1 2 1 1
6547.8 230.6 44.9 304 0 6.4 16.4 5.0 2.5 2 1 2 5 5
6681.1 253.8 45.3 46 0 4.0 9.9 2.5 0.0 0 1 1 5 5
6402.7 352.2 44.2 280 0 8.0 7.8 2.5 0.0 0 0 1 5 5
6356.9 356.9 43.8 281 0 6.8 6.0 2.5 0.0 0 0 1 3 3
6421.5 384.3 44.5 103 0 5.7 7.4 2.5 0.0 0 1 1 4 4
6435.6 313.6 44.3 14 0 5.1 3.5 2.5 0.0 0 0 1 2 2
6378.2 333.3 43.9 16 0 8.8 5.6 2.5 0.0 0 0 1 0 0
6328.0 368.6 43.7 283 0 5.2 6.5 2.5 0.0 0 1 1 3 3
6273.1 -340.5 47.3 201 0 5.9 9.4 2.5 0.0 0 1 1 0 0
6332.0 147.2 45.3 132 0 4.5 5.7 2.5 0.0 0 1 1 2 2
6379.1 143.4 45.2 225 0 19.6 6.6 5.0 2.5 2 0 2 4 4
6376.4 161.9 45.2 47 0 7.4 6.7 2.5 0.0 0 0 1 0 0
2232.6 8855.3 -60.5 179 0 6.0 6.4 2.5 0.0 0 1 1 3 3
831.2 8345.5 -54.4 222 0 9.5 17.5 5.0 2.5 2 1 2 2 2
866.2 8330.7 -54.1 309 0 5.5 5.1 2.5 0.0 0 0 1 5 5
868.7 8221.6 -53.1 315 0 10.5 8.6 2.5 2.5 2 0 1 5 5
899.4 8285.7 -53.4 327 0 7.3 5.9 2.5 0.0 0 0 1 5 5
855.9 8329.3 -54.1 312 0 8.6 14.4 7.5 2.5 2 1 3 2 2
836.8 8199.9 -53.0 136 0 26.8 8.1 7.5 2.5 2 0 3 4 4
837.7 8228.0 -53.1 225 0 8.9 5.4 2.5 0.0 0 0 1 3 3
932.9 8282.7 -53.6 331 0 7.0 27.4 5.0 2.5 2 1 2 5 5
940.8 8233.5 -53.5 46 0 5.1 3.4 2.5 0.0 0 0 1 2 2
912.6 8254.5 -53.5 231 0 11.8 12.6 5.0 2.5 2 1 2 0 0
974.4 8304.8 -54.0 319 0 7.9 12.5 7.5 2.5 4 1 3 5 5
1086.1 8106.6 -54.9 37 0 8.2 4.8 2.5 0.0 0 0 1 1 1
1023.6 8197.9 -54.3 215 0 9.3 14.3 5.0 2.5 2 1 2 3 3
1049.4 8219.8 -54.8 214 0 8.9 31.7 5.0 2.5 4 1 2 0 0
1077.6 8163.3 -54.5 100 0 7.2 8.0 2.5 0.0 0 1 1 4 4
1058.3 8134.2 -54.5 221 0 7.8 7.1 2.5 0.0 0 0 1 4 4
1033.9 8223.4 -54.6 30 0 5.5 6.9 2.5 0.0 0 1 1 2 2
1055.5 8195.2 -54.5 33 0 6.7 5.0 2.5 0.0 0 0 1 4 4
1176.2 8218.7 -56.3 269 0 6.7 5.6 2.5 0.0 0 0 1 1 1
1221.3 8228.4 -57.2 268 0 10.3 5.5 2.5 0.0 0 0 1 5 5
1188.2 8221.4 -56.6 270 0 9.8 12.4 5.0 2.5 2 1 2 0 0
1236.7 8207.8 -56.7 359 0 6.2 14.5 5.0 2.5 2 1 2 5 5
1360.9 7435.6 -49.6 336 0 3.2 3.3 2.5 0.0 0 1 1 3 3
1607.5 6784.4 -40.9 154 0 4.2 5.1 2.5 0.0 0 1 1 5 5
1344.2 7423.6 -49.6 158 0 8.3 10.0 2.5 0.0 0 1 1 2 2
1370.9 7416.8 -49.3 334 0 10.3 7.6 2.5 2.5 2 0 1 5 5
1394.9 7371.0 -48.6 335 0 7.3 10.1 2.5 2.5 2 1 1 3 3
1329.7 7442.3 -50.1 155 0 7.3 15.4 2.5 2.5 2 1 1 0 0
1310.1 7350.5 -49.3 156 0 5.5 7.8 2.5 0.0 0 1 1 1 1
1320.4 7325.9 -49.1 157 0 16.5 6.7 5.0 2.5 2 0 2 0 0
1310.0 7338.8 -49.3 155 0 3.7 6.5 2.5 0.0 0 1 1 0 0
1436.2 7314.8 -47.8 72 0 6.4 21.0 2.5 2.5 2 1 1 2 2
1323.8 7312.1 -48.8 157 0 4.9 8.2 2.5 0.0 0 1 1 3 3
1339.1 7344.2 -49.2 336 0 11.5 9.0 5.0 2.5 2 0 2 0 0
1408.2 7311.8 -47.9 74 0 7.2 10.3 2.5 2.5 4 1 1 0 0
1430.5 7209.8 -46.8 148 0 5.0 5.0 2.5 0.0 0 0 1 1 1
1351.3 7313.1 -48.7 340 0 12.0 7.8 5.0 2.5 2 0 2 4 4
1380.6 6622.7 -42.1 305 0 8.3 23.5 2.5 2.5 2 1 1 1 1
1417.5 6577.8 -41.8 40 0 9.3 7.6 2.5 2.5 4 0 1 3 3
1373.6 6575.8 -42.0 120 0 6.8 10.4 2.5 2.5 2 1 1 3 3
1396.5 6603.1 -41.9 209 0 6.7 13.0 2.5 2.5 2 1 1 2 2
4649.0 -422.0 43.7 211 0 9.7 5.9 2.5 0.0 0 0 1 5 5
4315.3 -248.2 48.0 177 0 3.6 5.4 2.5 0.0 0 1 1 5 5
3562.5 1815.5 -13.6 134 0 5.3 4.5 2.5 0.0 0 0 1 5 5
4057.3 1283.3 32.4 181 0 7.9 9.3 5.0 2.5 2 1 2 4 4
3981.8 1364.7 24.6 328 0 4.0 3.9 2.5 0.0 0 0 1 3 3
4044.1 1220.0 38.4 270 0 5.3 8.5 2.5 0.0 0 1 1 4 4
4062.0 1197.9 40.7 90 0 6.5 4.1 2.5 0.0 0 0 1 5 5
4035.7 1262.3 34.5 272 0 6.7 16.1 5.0 2.5 2 1 2 5 5
3917.5 1458.3 18.3 315 0 6.3 4.9 2.5 0.0 0 0 1 1 1
5124.5 1602.3 32.3 15 0 7.4 15.6 2.5 2.5 2 1 1 3 3
5065.7 1633.6 37.0 195 0 5.3 5.4 2.5 0.0 0 1 1 5 5
5077.8 1827.4 28.7 355 0 5.5 8.8 2.5 0.0 0 1 1 0 0
5081.3 1766.4 30.4 358 0 8.8 29.0 5.0 2.5 2 1 2 3 3
5069.6 1621.9 36.9 194 0 5.3 4.2 2.5 0.0 0 0 1 4 4
5036.0 1730.4 35.2 167 0 5.8 6.4 2.5 0.0 0 1 1 3 3
5121.2 1687.2 32.2 85 0 6.3 16.0 5.0 2.5 2 1 2 2 2
5072.4 1878.4 27.0 350 0 10.5 5.9 2.5 0.0 0 0 1 0 0
5024.0 1763.8 33.6 78 0 5.7 10.5 2.5 0.0 0 1 1 5 5
5051.7 1726.7 34.2 72 0 6.4 15.7 5.0 2.5 2 1 2 2 2
5003.4 1769.9 34.8 76 0 5.3 6.3 2.5 0.0 0 1 1 1 1
5037.9 1811.0 31.5 267 0 7.6 10.3 5.0 2.5 2 1 2 3 3
5094.4 1704.6 33.0 172 0 6.5 9.8 2.5 0.0 0 1 1 3 3
5095.7 1636.6 34.4 283 0 6.8 11.4 2.5 0.0 0 1 1 1 1
5137.3 1844.0 23.9 354 0 4.7 3.8 2.5 0.0 0 0 1 2 2
4978.2 1789.2 35.0 258 0 5.5 7.5 2.5 0.0 0 1 1 0 0
4945.7 1808.9 34.4 170 0 5.0 8.4 2.5 0.0 0 1 1 5 5
4903.1 1754.0 39.1 164 0 4.6 5.4 2.5 0.0 0 1 1 2 2
5102.8 1535.5 33.1 286 0 6.6 21.8 2.5 2.5 2 1 1 4 4
5079.4 1553.3 35.6 198 0 4.1 7.9 2.5 0.0 0 1 1 5 5
5076.2 1517.6 35.0 196 0 6.8 13.6 7.5 2.5 2 1 3 2 2
5066.8 1533.7 36.8 198 0 15.6 6.0 7.5 2.5 4 0 3 0 0
5731.1 1774.3 23.0 169 0 14.6 7.6 5.0 2.5 2 0 2 3 3
5814.3 1754.7 23.4 355 0 8.6 7.9 2.5 0.0 0 0 1 2 2
5743.4 1794.7 23.0 258 0 13.1 6.2 5.0 2.5 2 0 2 1 1
5768.8 1720.6 23.4 81 0 27.9 11.0 5.0 2.5 2 0 2 0 0
5799.7 1754.1 23.3 359 0 11.4 7.4 5.0 2.5 2 0 2 3 3
5748.2 1716.0 23.5 79 0 4.4 5.6 2.5 0.0 0 1 1 0 0
5787.8 1864.4 23.2 106 0 6.1 8.5 2.5 0.0 0 1 1 5 5
5697.0 1884.7 21.6 340 0 14.8 9.1 5.0 2.5 2 0 2 1 1
5676.0 1946.6 20.4 104 0 6.3 8.0 2.5 0.0 0 1 1 5 5
5779.0 1941.6 21.6 359 0 6.4 6.3 2.5 0.0 0 0 1 5 5
5748.7 1947.3 21.2 106 0 8.1 10.8 2.5 2.5 2 1 1 4 4
5760.9 1971.3 21.0 267 0 5.2 6.4 2.5 0.0 0 1 1 0 0
5759.2 1945.0 21.2 104 0 6.6 10.2 2.5 0.0 0 1 1 0 0
5723.5 1930.4 21.2 191 0 7.5 10.2 2.5 2.5 2 1 1 2 2
5545.7 2114.3 16.0 228 0 5.7 8.1 2.5 0.0 0 1 1 1 1
5568.3 2175.8 15.6 34 0 8.0 9.2 2.5 2.5 2 1 1 1 1
5543.5 2198.7 15.4 329 0 4.6 6.7 2.5 0.0 0 1 1 4 4
5724.6 1502.8 25.9 185 0 10.3 9.1 2.5 2.5 2 0 1 1 1
5726.5 1570.3 24.7 274 0 11.1 9.3 2.5 2.5 2 0 1 0 0
5704.3 1525.2 26.1 275 0 10.1 8.9 2.5 2.5 2 0 1 4 4
5764.1 714.6 49.2 162 0 5.2 5.2 2.5 0.0 0 1 1 1 1
5753.0 726.1 49.0 342 0 14.1 6.0 2.5 2.5 2 0 1 4 4
5781.4 803.4 48.3 57 0 7.7 26.2 2.5 2.5 2 1 1 1 1
5737.2 791.2 49.4 153 0 10.8 8.4 2.5 2.5 2 0 1 1 1
5762.2 761.9 49.4 332 0 9.5 6.9 2.5 0.0 0 0 1 2 2
5758.5 743.2 49.1 164 0 6.8 4.2 2.5 0.0 0 0 1 1 1
5018.2 2373.8 2.4 309 0 5.1 7.2 2.5 0.0 0 1 1 4 4
5588.0 1808.7 22.4 335 0 8.8 21.3 5.0 2.5 2 1 2 0 0
5466.5 1808.0 22.8 273 0 7.1 5.8 2.5 0.0 0 0 1 2 2
5542.0 1799.6 22.8 359 0 7.0 4.3 2.5 0.0 0 0 1 1 1
5613.6 1630.1 25.3 121 0 5.0 6.3 2.5 0.0 0 1 1 1 1
5600.7 1716.7 23.7 235 0 8.3 16.9 5.0 2.5 2 1 2 4 4
5452.0 1378.0 39.4 197 0 6.9 8.8 2.5 0.0 0 1 1 2 2
5615.3 1672.7 24.6 130 0 6.4 6.3 2.5 0.0 0 0 1 1 1
5506.4 1865.8 20.7 23 0 6.8 10.0 2.5 0.0 0 1 1 0 0
5480.7 1841.2 21.6 210 0 9.0 5.9 2.5 0.0 0 0 1 5 5
5488.1 1803.6 22.9 261 0 5.2 3.5 2.5 0.0 0 0 1 0 0
5620.5 1611.3 26.0 280 0 9.6 9.3 5.0 2.5 2 0 2 1 1
5612.9 1565.9 26.9 35 0 15.3 7.2 5.0 2.5 2 0 2 0 0
5580.6 1631.0 25.2 308 0 7.6 20.9 5.0 2.5 2 1 2 2 2
5556.2 1750.2 22.6 169 0 7.9 10.1 5.0 2.5 2 1 2 1 1
5590.8 1552.6 28.3 309 0 5.1 15.9 5.0 2.5 2 1 2 4 4
5452.0 1408.5 36.8 29 0 3.0 5.1 2.5 0.0 0 1 1 2 2
5457.0 1396.6 38.0 306 0 8.9 6.5 2.5 0.0 0 0 1 0 0
5612.1 1731.3 23.6 242 0 8.5 6.0 2.5 0.0 0 0 1 1 1
5443.0 1413.2 36.2 33 0 4.8 5.9 2.5 0.0 0 1 1 2 2
5578.9 1776.3 22.5 245 0 8.1 10.0 5.0 2.5 2 1 2 0 0
5587.6 1574.6 26.8 119 0 3.2 7.2 2.5 0.0 0 1 1 1 1
5500.9 1908.1 18.6 2 0 6.1 6.1 2.5 0.0 0 0 1 5 5
5593.4 1660.2 24.7 161 0 4.9 5.5 2.5 0.0 0 1 1 3 3
5635.8 1638.8 25.4 267 0 8.3 13.3 5.0 0.0 0 1 2 4 4
5541.9 1883.1 20.0 352 0 6.1 4.8 2.5 0.0 0 0 1 0 0
5497.1 1802.5 22.8 166 0 6.3 6.5 2.5 0.0 0 1 1 5 5
5515.2 1844.5 21.6 297 0 8.0 27.5 5.0 2.5 2 1 2 0 0
5649.2 1464.5 28.6 0 0 7.9 14.6 5.0 2.5 4 1 2 3 3
5610.4 1452.9 30.0 270 0 3.7 10.4 2.5 0.0 0 1 1 3 3
5519.0 1551.4 28.7 8 0 4.9 5.0 2.5 0.0 0 1 1 2 2
5524.3 1638.2 24.6 193 0 6.0 5.1 2.5 0.0 0 0 1 4 4
5530.6 1621.2 25.0 209 0 4.7 5.4 2.5 0.0 0 1 1 4 4
5560.3 1651.0 24.5 15 0 14.8 6.8 5.0 2.5 4 0 2 0 0
1625.9 6891.6 -42.3 336 0 5.9 5.9 2.5 0.0 0 0 1 3 3
1404.5 7071.8 -45.8 57 0 6.4 5.2 2.5 0.0 0 0 1 4 4
1641.7 7065.7 -43.2 71 0 5.7 6.8 2.5 0.0 0 1 1 1 1
1431.9 6883.0 -43.8 43 0 9.5 9.4 5.0 2.5 2 0 2 4 4
1582.5 7008.7 -43.4 249 0 4.3 8.7 2.5 0.0 0 1 1 0 0
1634.5 6954.9 -42.2 311 0 4.0 6.4 2.5 0.0 0 1 1 5 5
1562.8 6986.6 -43.5 164 0 10.0 8.3 2.5 2.5 2 0 1 5 5
1568.5 6952.7 -43.0 175 0 15.8 8.3 2.5 2.5 2 0 1 4 4
1574.8 6889.9 -42.6 159 0 11.0 12.0 2.5 2.5 2 1 1 2 2
1489.8 6994.6 -43.9 142 0 6.0 16.3 5.0 2.5 2 1 2 3 3
1501.0 6968.2 -43.7 55 0 8.2 17.0 5.0 2.5 2 1 2 5 5
1423.1 7076.5 -45.9 60 0 7.0 12.8 5.0 2.5 2 1 2 0 0
1408.8 7091.7 -46.0 148 0 7.1 7.7 2.5 0.0 0 1 1 0 0
1457.1 7171.1 -45.8 153 0 5.7 5.3 2.5 0.0 0 0 1 3 3
1474.6 7137.7 -45.5 157 0 9.3 9.1 2.5 2.5 2 0 1 3 3
1506.6 7099.0 -45.1 150 0 6.8 6.5 2.5 0.0 0 0 1 3 3
1515.7 7141.5 -45.1 335 0 5.9 8.4 2.5 0.0 0 1 1 5 5
1520.1 7110.6 -45.2 332 0 7.2 6.4 2.5 0.0 0 0 1 0 0
1534.7 7096.7 -44.8 323 0 8.8 4.4 2.5 0.0 0 0 1 3 3
1596.5 7068.4 -43.9 70 0 9.3 13.5 2.5 2.5 2 1 1 5 5
1602.9 7087.4 -44.1 73 0 7.9 19.0 2.5 2.5 2 1 1 3 3
1608.9 7132.7 -44.1 254 0 8.2 6.6 2.5 0.0 0 0 1 0 0
1616.0 7117.1 -44.0 254 0 7.4 6.5 2.5 0.0 0 0 1 0 0
1620.9 7064.4 -43.5 70 0 7.9 8.6 2.5 0.0 0 1 1 2 2
1644.8 7091.9 -43.5 137 0 8.0 10.1 2.5 2.5 4 1 1 4 4
1682.0 7087.5 -43.1 47 0 12.9 11.5 2.5 2.5 2 0 1 1 1
-3037.0 10911.9 -11.2 313 0 7.0 7.0 2.5 0.0 0 0 1 0 0
-3050.1 10831.9 -12.0 112 0 9.6 5.9 2.5 0.0 0 0 1 1 1
-3026.4 10850.8 -16.0 15 0 5.6 3.2 2.5 0.0 0 0 1 2 2
-3121.2 10834.5 -3.2 134 0 4.1 12.6 2.5 0.0 0 1 1 4 4
-3096.7 10678.7 -13.0 13 0 15.8 7.2 5.0 2.5 2 0 2 5 5
-3077.4 10717.0 -15.2 18 0 6.1 7.5 2.5 0.0 0 1 1 4 4
-3130.2 10693.3 -10.8 196 0 11.0 8.1 5.0 2.5 2 0 2 4 4
-3238.5 10517.6 -3.6 200 0 6.4 10.4 2.5 0.0 0 1 1 5 5
-3203.3 10515.2 -5.9 298 0 3.9 11.2 2.5 0.0 0 1 1 2 2
-3269.8 10619.4 0.9 211 0 5.8 15.2 7.5 2.5 2 1 3 3 3
-3258.9 10651.1 0.9 304 0 4.5 10.7 2.5 2.5 4 1 1 4 4
