-4503.5 -9187.7 -6.6 228 0 8.9 16.8 2.5 0.0 0 1 1 5 5
-4350.3 -9224.4 -9.7 107 0 8.9 4.5 2.5 0.0 0 0 1 4 4
-4330.3 -9214.8 -9.7 27 0 4.3 8.4 2.5 0.0 0 1 1 3 3
-4337.6 -9190.2 -8.1 273 0 11.0 6.2 2.5 0.0 0 0 1 1 1
-4334.3 -9178.2 -7.8 181 0 5.3 9.4 2.5 0.0 0 1 1 3 3
