11.3 1868.4 -41.0 237 0 12.6 10.1 2.5 2.5 2 0 1 5 5
42.1 1884.9 -41.4 237 0 11.6 9.6 2.5 0.0 0 0 1 5 5
86.0 1905.0 -41.7 235 0 4.8 7.0 2.5 0.0 0 1 1 2 2
-53.9 1854.2 -39.1 57 0 8.8 10.3 2.5 2.5 2 1 1 4 4
-29.0 1882.7 -39.5 327 0 4.1 17.6 2.5 2.5 2 1 1 3 3
-1237.7 952.2 -34.0 41 0 7.7 6.4 2.5 0.0 0 0 1 2 2
-1217.9 896.2 -34.7 238 0 7.2 11.9 5.0 2.5 2 1 2 0 0
-1111.3 962.6 -35.7 221 0 10.1 5.4 2.5 0.0 0 0 1 0 0
-1182.8 937.5 -35.1 240 0 17.9 15.7 5.0 2.5 2 0 2 5 5
-1134.8 1024.2 -35.3 125 0 5.8 6.9 2.5 0.0 0 1 1 3 3
-1142.7 1048.2 -35.0 208 0 20.5 10.0 5.0 2.5 2 0 2 2 2
-1076.2 1040.3 -36.5 158 0 8.8 11.5 5.0 2.5 2 1 2 0 0
-1121.5 1160.6 -31.4 66 0 9.2 7.8 5.0 2.5 2 0 2 0 0
-1145.4 1153.9 -32.0 246 0 8.6 16.3 5.0 2.5 2 1 2 2 2
-1092.9 1138.7 -34.0 246 0 7.2 19.2 2.5 2.5 2 1 1 1 1
-1061.1 1192.3 -33.3 233 0 6.1 11.3 2.5 0.0 0 1 1 5 5
-1010.8 1229.7 -34.6 230 0 9.4 6.2 2.5 0.0 0 0 1 2 2
-1040.2 1206.3 -34.0 226 0 14.1 8.7 2.5 2.5 2 0 1 1 1
-947.5 1244.8 -34.8 65 0 6.4 7.9 2.5 0.0 0 1 1 5 5
-959.1 1270.8 -32.2 241 0 3.3 6.0 2.5 0.0 0 1 1 3 3
-963.8 1268.8 -32.3 244 0 3.2 6.7 2.5 0.0 0 1 1 4 4
-986.3 1256.5 -34.3 238 0 13.7 9.4 2.5 2.5 4 0 1 5 5
-866.5 1313.1 -33.1 245 0 12.5 8.8 5.0 2.5 2 0 2 3 3
-693.9 1349.0 -38.0 164 0 8.5 7.8 2.5 0.0 0 0 1 4 4
-144.5 1760.9 -38.7 237 0 16.8 8.1 2.5 2.5 2 0 1 0 0
-11.9 1846.7 -40.6 237 0 10.5 8.0 2.5 2.5 2 0 1 0 0
72.2 1904.6 -41.6 238 0 11.7 10.1 2.5 2.5 2 0 1 0 0
221.1 2059.4 -42.3 263 0 11.2 10.9 5.0 2.5 2 0 2 5 5
201.1 2004.8 -42.3 349 0 11.9 34.2 5.0 2.5 4 1 2 1 1
3927.6 2383.9 -40.0 267 0 12.2 16.6 5.0 2.5 2 1 2 4 4
3926.2 2397.4 -40.8 88 0 10.5 32.0 2.5 2.5 2 1 1 0 0
3821.1 2595.1 -41.6 290 0 6.6 12.5 5.0 2.5 2 1 2 2 2
3811.7 2566.5 -40.4 106 0 6.8 12.8 5.0 2.5 2 1 2 4 4
3645.5 2336.0 -35.7 57 0 15.1 8.2 5.0 2.5 2 0 2 4 4
3623.8 2321.4 -35.3 60 0 12.7 7.8 5.0 2.5 2 0 2 1 1
3540.7 2279.3 -33.9 339 0 7.0 13.3 2.5 0.0 0 1 1 3 3
3500.4 2269.4 -33.5 252 0 12.7 7.5 2.5 2.5 2 0 1 1 1
3794.7 2324.8 -36.9 50 0 37.2 35.7 5.0 0.0 0 0 2 0 0
5681.1 -8252.6 28.6 41 0 46.6 17.6 5.0 2.5 2 0 2 2 2
5507.1 -8338.3 27.0 221 0 49.7 22.8 5.0 2.5 2 0 2 2 2
5555.2 -8346.5 27.8 130 0 20.5 48.6 5.0 2.5 2 1 2 0 0
5652.6 -8312.6 28.3 41 0 20.1 42.3 5.0 2.5 2 1 2 2 2
5569.6 -8273.9 27.3 221 0 32.6 17.9 5.0 2.5 4 0 2 1 1
5626.3 -8210.6 27.4 221 0 36.3 16.5 5.0 2.5 2 0 2 5 5
5666.9 -8215.0 28.0 310 0 18.4 41.5 5.0 2.5 2 1 2 1 1
6417.3 -6233.0 33.6 186 0 10.5 15.2 5.0 0.0 0 1 2 5 5
4786.8 -7997.4 38.8 304 0 11.3 19.4 5.0 2.5 2 1 2 0 0
4819.1 -7929.7 38.4 306 0 14.4 11.1 5.0 2.5 2 0 2 2 2
6353.1 -6300.8 35.4 276 0 4.9 8.6 2.5 0.0 0 1 1 4 4
1551.5 2363.8 -46.2 81 0 7.2 7.6 2.5 0.0 0 1 1 3 3
1624.8 2361.9 -46.2 74 0 9.9 9.1 7.5 2.5 2 0 3 4 4
1661.8 2377.6 -46.0 67 0 9.7 9.0 5.0 2.5 2 0 2 5 5
1589.2 2388.2 -46.1 340 0 6.7 15.3 5.0 2.5 2 1 2 1 1
-1110.1 943.7 -35.6 142 0 6.9 7.7 2.5 0.0 0 1 1 1 1
