-6879.4 -810.9 5.2 118 0 5.7 4.6 2.5 0.0 0 0 1 3 3
-6954.8 -915.2 4.6 219 0 4.3 3.9 2.5 0.0 0 0 1 0 0
-6916.5 -872.7 5.0 211 0 8.8 7.3 2.5 0.0 0 0 1 4 4
-6927.3 -860.9 4.1 30 0 8.8 24.0 2.5 2.5 2 1 1 1 1
-4509.9 2140.1 10.9 126 0 8.0 7.0 2.5 0.0 0 0 1 1 1
-4523.6 2154.1 11.4 219 0 9.3 11.7 2.5 2.5 2 1 1 5 5
-4481.0 2184.1 10.9 312 0 6.5 15.6 2.5 2.5 2 1 1 3 3
-4490.4 2124.5 9.7 125 0 6.0 24.7 2.5 2.5 2 1 1 4 4
-4522.7 1986.2 5.5 31 0 17.1 7.9 5.0 2.5 2 0 2 1 1
-4575.4 2043.9 11.0 122 0 10.3 24.3 5.0 2.5 2 1 2 2 2
-4558.4 2007.0 7.7 215 0 12.3 7.7 5.0 2.5 2 0 2 4 4
-4315.0 915.7 7.5 227 0 6.1 10.6 2.5 0.0 0 1 1 4 4
-4307.2 922.9 7.3 227 0 9.8 5.7 2.5 0.0 0 0 1 3 3
-4327.9 929.9 6.6 304 0 7.8 9.0 2.5 0.0 0 1 1 1 1
-4405.1 987.5 2.2 35 0 8.3 21.6 5.0 2.5 2 1 2 4 4
-4490.9 902.3 4.4 49 0 25.2 8.3 5.0 2.5 2 0 2 5 5
-4513.7 928.9 3.3 315 0 8.8 5.1 2.5 0.0 0 0 1 5 5
-4545.8 912.6 3.2 136 0 6.6 14.5 5.0 2.5 2 1 2 1 1
-4537.9 888.0 4.0 48 0 7.3 12.5 5.0 2.5 2 1 2 5 5
-4659.2 736.3 6.4 56 0 4.9 7.2 2.5 0.0 0 1 1 2 2
-4668.3 708.9 6.9 143 0 7.2 5.5 2.5 0.0 0 0 1 3 3
-4675.8 751.8 6.0 236 0 6.8 7.2 2.5 0.0 0 1 1 5 5
-5134.3 926.0 2.5 35 0 4.5 7.9 2.5 0.0 0 1 1 5 5
-5135.6 946.0 1.9 309 0 5.5 8.0 2.5 0.0 0 1 1 2 2
-5185.0 859.4 4.0 98 0 5.7 11.6 2.5 0.0 0 1 1 3 3
-5141.2 871.8 3.3 289 0 9.4 8.2 2.5 2.5 4 0 1 4 4
-4876.7 1497.5 0.9 134 0 4.9 9.0 2.5 0.0 0 1 1 3 3
-4962.7 1373.0 -0.0 49 0 6.6 5.8 2.5 0.0 0 0 1 0 0
-4972.9 1384.2 1.3 322 0 5.9 7.8 2.5 0.0 0 1 1 1 1
-5029.5 1421.9 11.3 237 0 8.2 13.7 2.5 2.5 2 1 1 1 1
-5079.3 1341.3 9.5 141 0 5.2 6.8 2.5 0.0 0 1 1 0 0
-5069.1 1367.7 8.8 219 0 11.4 5.4 2.5 0.0 0 0 1 2 2
-5108.4 1307.9 8.1 232 0 9.0 8.7 2.5 2.5 2 0 1 0 0
-5082.3 1280.2 1.2 322 0 10.1 21.3 2.5 2.5 2 1 1 4 4
-5128.5 1280.8 6.4 324 0 6.9 9.4 2.5 0.0 0 1 1 4 4
-5245.7 1169.9 9.2 61 0 9.8 4.7 2.5 0.0 0 0 1 1 1
-5226.1 1183.2 9.1 62 0 7.1 9.2 2.5 0.0 0 1 1 4 4
3760.2 2234.4 -14.9 327 0 7.2 11.6 2.5 2.5 2 1 1 1 1
3718.9 2215.7 -13.8 144 0 8.8 7.6 2.5 0.0 0 0 1 0 0
