5848.9 -5297.7 -13.1 182 0 44.0 11.4 2.5 2.5 2 0 1 4 4
5811.0 -5341.2 -6.3 91 0 14.7 31.7 2.5 0.0 0 1 1 1 1
5742.1 -5056.5 4.3 180 0 10.0 8.1 5.0 0.0 0 0 2 3 3
5806.4 -5398.5 -11.2 358 0 12.2 11.5 5.0 0.0 0 0 2 1 1
5780.6 -5240.5 -0.8 179 0 22.5 11.9 5.0 2.5 2 0 2 2 2
5758.0 -5295.8 1.1 178 0 22.9 9.6 2.5 2.5 2 0 1 1 1
5861.9 -5180.3 -14.6 91 0 37.9 70.2 5.0 0.0 0 1 2 2 2
5802.9 -5358.6 -5.6 281 0 9.9 11.5 5.0 2.5 2 1 2 5 5
5743.3 -5026.9 3.0 180 0 12.5 11.0 5.0 2.5 2 0 2 0 0
5892.6 -5376.4 -28.4 170 0 16.3 11.5 2.5 2.5 2 0 1 3 3
5752.2 -5522.4 -15.0 186 0 12.4 11.4 5.0 2.5 2 0 2 2 2
5749.0 -5552.8 -17.1 188 0 11.5 9.7 5.0 0.0 0 0 2 0 0
5850.2 -5248.3 -12.8 182 0 40.0 11.2 2.5 2.5 2 0 1 4 4
5651.7 -5154.5 24.5 90 0 11.9 9.1 2.5 2.5 2 0 1 5 5
5606.2 -5083.6 33.5 169 0 16.4 12.9 2.5 2.5 2 0 1 1 1
5716.1 -5028.1 9.2 358 0 11.2 9.1 2.5 2.5 2 0 1 0 0
5727.8 -4991.0 6.1 360 0 7.8 10.8 2.5 2.5 2 1 1 2 2
5775.3 -4996.8 -1.2 89 0 7.1 7.2 2.5 0.0 0 1 1 3 3
5837.1 -5400.2 -19.4 182 0 7.2 11.8 5.0 2.5 2 1 2 5 5
5837.4 -5372.6 -15.6 180 0 7.6 11.8 5.0 2.5 2 1 2 4 4
4788.5 -5205.5 100.8 102 0 10.7 10.1 5.0 2.5 2 0 2 4 4
5746.9 -5071.6 4.7 179 0 6.1 5.4 2.5 0.0 0 0 1 0 0
5748.7 -4984.2 1.4 180 0 12.8 9.7 5.0 2.5 2 0 2 0 0
5750.4 -4953.1 1.2 182 0 11.3 9.1 5.0 2.5 2 0 2 1 1
5716.3 -4953.0 8.7 360 0 6.6 9.7 2.5 2.5 2 1 1 4 4
5718.2 -4924.3 8.1 1 0 7.3 18.0 2.5 2.5 2 1 1 5 5
5719.9 -4902.6 8.1 0 0 6.8 18.8 2.5 2.5 2 1 1 5 5
5707.7 -4878.5 10.8 360 0 9.8 6.3 2.5 0.0 0 0 1 4 4
5726.6 -4839.6 7.9 359 0 20.6 20.1 2.5 2.5 4 0 1 1 1
5744.7 -4901.2 0.6 178 0 7.1 12.9 5.0 0.0 0 1 2 3 3
5778.8 -4919.0 -1.9 1 0 13.7 5.8 5.0 2.5 2 0 2 1 1
5775.7 -4938.4 -1.9 358 0 4.9 13.3 2.5 0.0 0 1 1 2 2
5904.6 -5617.6 -40.2 27 0 7.9 7.7 2.5 0.0 0 0 1 2 2
5799.2 -5154.6 -3.3 88 0 8.6 10.4 5.0 2.5 2 1 2 0 0
5750.7 -5152.9 2.9 179 0 8.4 7.0 2.5 0.0 0 0 1 1 1
5750.0 -4870.3 2.0 180 0 9.2 8.2 5.0 2.5 2 0 2 1 1
5747.9 -4837.1 1.1 179 0 15.4 10.2 5.0 0.0 0 0 2 5 5
5748.5 -4802.8 3.9 180 0 16.1 10.5 5.0 2.5 4 0 2 0 0
5746.8 -4773.5 3.2 174 0 10.4 8.3 5.0 2.5 2 0 2 5 5
5739.1 -4736.2 1.5 168 0 13.6 9.6 5.0 2.5 2 0 2 3 3
5745.0 -4755.6 -0.0 171 0 6.7 6.4 2.5 0.0 0 0 1 1 1
5730.8 -4706.3 3.2 164 0 16.2 9.1 5.0 2.5 2 0 2 5 5
5716.0 -4767.7 11.5 357 0 7.8 12.0 2.5 2.5 4 1 1 4 4
5682.9 -4774.1 16.3 80 0 9.8 30.9 2.5 2.5 2 1 1 5 5
5662.8 -4770.8 19.7 84 0 7.1 6.8 2.5 0.0 0 0 1 1 1
5690.7 -4807.3 15.1 264 0 9.0 13.6 2.5 0.0 0 1 1 3 3
5698.2 -4826.1 13.8 265 0 5.9 6.5 2.5 0.0 0 1 1 1 1
5687.8 -4609.0 14.6 159 0 9.7 8.6 5.0 2.5 4 0 2 4 4
5682.5 -4576.9 14.3 157 0 14.9 11.1 5.0 2.5 2 0 2 2 2
5718.9 -4576.8 6.9 68 0 5.6 8.2 2.5 0.0 0 1 1 2 2
5639.6 -4496.9 21.8 163 0 10.2 9.3 5.0 2.5 2 0 2 3 3
5610.0 -4510.8 27.4 334 0 10.1 9.8 2.5 2.5 2 0 1 3 3
5630.8 -4549.1 25.4 336 0 7.7 10.8 2.5 2.5 2 1 1 4 4
5644.7 -4563.3 24.2 338 0 8.6 7.8 2.5 0.0 0 0 1 5 5
5656.2 -4587.6 23.0 336 0 10.5 10.6 2.5 0.0 0 1 1 2 2
5665.7 -4621.6 22.4 345 0 9.2 35.6 2.5 2.5 2 1 1 2 2
5677.8 -4669.0 20.3 346 0 8.5 8.1 2.5 2.5 2 0 1 2 2
5652.8 -4669.7 24.9 348 0 10.6 13.6 2.5 2.5 2 1 1 2 2
5639.5 -4681.7 27.8 351 0 4.8 5.8 2.5 0.0 0 1 1 4 4
5668.1 -4655.7 21.8 344 0 4.6 7.0 2.5 0.0 0 1 1 3 3
5663.6 -4649.4 22.5 340 0 6.4 4.6 2.5 0.0 0 0 1 3 3
5612.6 -4639.7 31.5 342 0 10.6 13.0 2.5 2.5 2 1 1 0 0
5640.0 -5119.8 28.5 279 0 7.7 10.6 2.5 2.5 2 1 1 5 5
5871.2 -5404.2 -23.4 95 0 5.4 7.4 2.5 0.0 0 1 1 3 3
5680.4 -5252.7 12.7 85 0 9.8 8.8 5.0 2.5 2 0 2 2 2
5694.3 -5226.8 12.4 359 0 5.5 15.3 5.0 2.5 2 1 2 1 1
5640.0 -5234.6 20.1 87 0 13.3 11.1 5.0 2.5 2 0 2 2 2
5618.6 -5222.8 25.3 175 0 7.5 10.2 5.0 2.5 2 1 2 2 2
5629.6 -5241.2 20.9 89 0 6.0 7.5 2.5 0.0 0 1 1 3 3
5618.3 -5213.0 25.9 175 0 5.4 12.4 2.5 0.0 0 1 1 0 0
5615.1 -5177.0 28.8 173 0 11.9 11.9 5.0 2.5 2 0 2 4 4
5636.6 -5203.4 24.3 176 0 5.9 4.7 2.5 0.0 0 0 1 1 1
5578.4 -5148.6 36.4 273 0 8.8 11.9 5.0 2.5 2 1 2 5 5
5580.6 -5254.4 26.8 84 0 7.8 13.6 5.0 2.5 2 1 2 1 1
5718.2 -5293.5 6.2 90 0 8.5 10.1 5.0 2.5 2 1 2 0 0
5718.4 -5316.6 4.5 270 0 8.4 9.7 5.0 2.5 4 1 2 2 2
5687.5 -5305.6 10.0 350 0 17.2 11.1 5.0 2.5 2 0 2 4 4
5718.0 -5351.7 2.4 269 0 13.9 8.9 5.0 2.5 4 0 2 4 4
5706.6 -5340.1 5.4 88 0 6.9 7.5 2.5 0.0 0 1 1 4 4
5692.9 -5332.6 7.6 89 0 9.6 5.4 2.5 0.0 0 0 1 5 5
5683.3 -5355.1 8.0 2 0 8.2 8.8 5.0 2.5 2 1 2 3 3
5632.6 -5351.5 13.6 181 0 12.0 11.4 5.0 2.5 4 0 2 2 2
5649.7 -5366.0 11.8 84 0 7.5 3.6 2.5 0.0 0 0 1 1 1
5598.7 -5062.0 35.8 171 0 5.5 14.8 2.5 2.5 2 1 1 1 1
5588.8 -5039.7 38.6 172 0 10.4 10.4 2.5 2.5 2 0 1 2 2
5582.9 -4996.8 37.8 173 0 8.6 10.3 2.5 2.5 2 1 1 1 1
5600.8 -4959.2 28.8 175 0 7.5 25.0 2.5 2.5 2 1 1 3 3
5583.4 -4960.7 37.1 175 0 6.7 4.5 2.5 0.0 0 0 1 4 4
5561.4 -4944.0 40.0 162 0 8.1 5.4 2.5 2.5 2 0 1 1 1
5556.8 -4926.9 39.3 169 0 4.9 7.4 2.5 0.0 0 1 1 3 3
5579.7 -4923.7 36.1 352 0 9.1 6.3 2.5 0.0 0 0 1 4 4
5540.9 -4908.0 41.5 172 0 19.0 9.7 2.5 2.5 2 0 1 5 5
5535.6 -4870.4 42.6 170 0 15.1 9.9 2.5 0.0 0 0 1 5 5
5533.5 -4832.3 44.6 261 0 10.5 14.5 2.5 2.5 2 1 1 2 2
5586.8 -4902.7 31.9 168 0 30.2 12.3 2.5 2.5 2 0 1 2 2
5577.4 -4862.7 33.6 166 0 29.9 12.0 2.5 2.5 2 0 1 3 3
5624.0 -4792.9 26.4 81 0 12.0 16.8 2.5 2.5 2 1 1 5 5
5589.3 -4798.1 32.1 84 0 12.1 16.6 2.5 2.5 2 1 1 5 5
5578.2 -4777.1 33.8 85 0 7.5 10.3 2.5 2.5 2 1 1 5 5
5536.0 -4779.8 40.5 176 0 9.3 6.2 2.5 0.0 0 0 1 3 3
5539.1 -4739.0 40.0 167 0 4.9 16.9 2.5 2.5 2 1 1 3 3
5527.3 -4747.2 41.9 169 0 6.9 11.1 2.5 2.5 2 1 1 1 1
5517.7 -4719.2 42.4 167 0 8.7 11.1 2.5 2.5 2 1 1 5 5
5543.5 -4707.8 40.4 257 0 8.8 10.2 2.5 2.5 2 1 1 2 2
5533.1 -4683.7 40.6 169 0 16.0 12.8 2.5 2.5 2 0 1 1 1
5504.2 -4658.2 44.4 334 0 13.5 11.6 2.5 2.5 2 0 1 1 1
5453.5 -4602.5 48.1 155 0 12.4 14.8 2.5 2.5 2 1 1 5 5
5479.0 -4626.8 47.9 62 0 7.9 6.3 2.5 0.0 0 0 1 4 4
5537.5 -5000.5 46.4 83 0 7.6 9.8 5.0 2.5 2 1 2 3 3
5527.4 -4981.6 47.2 260 0 5.8 8.0 2.5 0.0 0 1 1 1 1
5544.9 -5008.2 45.3 261 0 16.1 24.1 2.5 2.5 2 1 1 4 4
5521.0 -5015.1 48.3 261 0 9.3 7.7 2.5 2.5 2 0 1 5 5
5471.8 -5006.0 52.8 171 0 9.1 12.4 5.0 2.5 2 1 2 0 0
5501.5 -5070.6 51.0 354 0 35.6 9.6 2.5 2.5 2 0 1 4 4
5540.6 -5061.2 46.6 83 0 8.4 20.2 2.5 2.5 2 1 1 0 0
5532.5 -5076.0 46.8 265 0 8.8 12.8 2.5 2.5 2 1 1 0 0
5523.5 -5087.8 47.6 263 0 5.3 8.4 2.5 0.0 0 1 1 5 5
5554.6 -5074.0 45.4 268 0 4.5 4.3 2.5 0.0 0 0 1 0 0
5550.1 -5134.4 42.8 93 0 10.3 20.3 2.5 2.5 2 1 1 0 0
5446.5 -5019.8 57.0 354 0 24.9 10.1 2.5 2.5 2 0 1 3 3
5457.5 -5068.1 55.5 170 0 11.1 9.2 2.5 0.0 0 0 1 1 1
5418.9 -5122.1 59.8 261 0 9.3 16.3 2.5 2.5 2 1 1 5 5
5436.4 -4950.0 55.9 173 0 11.3 10.6 2.5 2.5 4 0 1 1 1
5404.9 -4945.2 60.4 267 0 8.3 24.0 2.5 2.5 4 1 1 0 0
5390.2 -5195.3 62.4 169 0 10.7 11.8 2.5 2.5 2 1 1 5 5
5470.3 -5246.3 47.1 178 0 10.5 8.9 5.0 0.0 0 0 2 1 1
5455.8 -5298.0 47.2 180 0 10.1 11.1 7.5 2.5 4 1 3 0 0
5937.4 -5797.5 -54.6 21 0 12.6 18.6 5.0 2.5 4 1 2 1 1
5908.4 -5738.3 -44.8 39 0 9.3 6.4 2.5 0.0 0 0 1 4 4
5914.7 -5716.4 -45.3 310 0 3.5 4.3 2.5 0.0 0 1 1 3 3
5839.4 -5710.2 -35.9 200 0 10.8 11.9 5.0 2.5 2 1 2 2 2
5859.1 -5768.1 -44.2 29 0 10.9 7.2 5.0 2.5 4 0 2 0 0
5823.1 -5731.7 -38.3 219 0 15.3 13.9 5.0 2.5 4 0 2 4 4
5818.2 -5823.6 -46.8 37 0 11.9 6.2 5.0 2.5 2 0 2 5 5
5776.3 -5783.0 -41.6 211 0 15.7 8.9 5.0 2.5 2 0 2 5 5
5759.0 -5803.2 -42.1 217 0 13.1 9.8 5.0 2.5 2 0 2 4 4
5754.0 -5826.4 -40.7 306 0 10.0 21.1 5.0 2.5 2 1 2 3 3
5715.6 -5835.7 -35.7 290 0 14.6 10.5 5.0 2.5 2 0 2 5 5
5730.5 -5839.4 -37.1 291 0 7.6 8.4 2.5 0.0 0 1 1 3 3
5675.4 -5857.4 -33.8 193 0 14.9 13.2 5.0 0.0 0 0 2 0 0
5698.5 -5875.3 -36.7 103 0 7.3 8.5 2.5 0.0 0 1 1 0 0
5688.8 -5895.2 -38.9 198 0 15.5 16.4 5.0 2.5 2 1 2 4 4
5651.3 -5923.2 -39.4 198 0 40.1 16.4 5.0 2.5 4 0 2 4 4
5781.5 -5838.3 -44.4 23 0 6.0 12.6 5.0 2.5 2 1 2 3 3
5763.7 -5567.4 -19.1 100 0 7.6 8.9 2.5 0.0 0 1 1 0 0
5743.6 -5594.6 -20.7 191 0 15.0 12.2 5.0 2.5 2 0 2 0 0
5737.7 -5625.5 -21.0 194 0 16.0 8.8 5.0 2.5 2 0 2 4 4
5769.5 -5621.4 -24.1 108 0 10.0 6.5 2.5 0.0 0 0 1 5 5
5811.1 -5628.1 -28.8 20 0 5.5 6.3 2.5 0.0 0 1 1 2 2
5794.7 -5651.1 -28.5 110 0 11.8 8.4 5.0 2.5 2 0 2 4 4
5741.5 -5650.4 -22.7 286 0 19.7 23.5 5.0 2.5 4 1 2 2 2
5787.5 -5723.6 -32.8 214 0 11.9 9.8 5.0 2.5 2 0 2 0 0
5779.5 -5719.4 -29.7 36 0 8.5 8.3 5.0 2.5 2 0 2 4 4
5712.4 -5705.1 -25.7 196 0 9.8 25.7 5.0 2.5 2 1 2 5 5
5706.8 -5722.4 -25.7 194 0 12.3 10.4 5.0 2.5 2 0 2 5 5
5721.8 -5734.5 -29.9 197 0 9.1 10.8 5.0 2.5 2 1 2 3 3
5700.5 -5750.2 -28.8 195 0 15.3 9.6 5.0 2.5 2 0 2 1 1
5690.4 -5793.2 -31.3 196 0 9.7 13.2 5.0 2.5 2 1 2 0 0
5710.6 -5791.7 -32.8 107 0 7.4 9.1 2.5 0.0 0 1 1 0 0
5739.7 -5762.7 -33.6 39 0 8.5 4.4 2.5 0.0 0 0 1 4 4
5760.9 -5770.9 -37.1 33 0 10.7 8.6 5.0 2.5 2 0 2 1 1
5651.6 -5982.4 -43.3 203 0 14.9 7.8 5.0 2.5 2 0 2 1 1
5632.2 -5967.7 -40.6 201 0 11.7 8.2 5.0 2.5 2 0 2 1 1
5620.5 -5998.2 -43.4 210 0 9.1 12.3 5.0 2.5 2 1 2 4 4
5639.1 -5994.6 -43.3 303 0 7.5 5.5 2.5 0.0 0 0 1 4 4
5633.2 -6034.9 -47.0 22 0 23.1 8.9 5.0 2.5 2 0 2 2 2
5617.8 -6055.3 -47.1 26 0 8.6 5.7 2.5 0.0 0 0 1 2 2
5577.3 -6043.7 -44.3 205 0 12.1 8.5 5.0 2.5 2 0 2 2 2
5570.8 -6102.9 -48.5 38 0 12.5 9.8 5.0 2.5 2 0 2 3 3
5536.7 -6105.9 -47.1 129 0 8.3 13.6 5.0 2.5 2 1 2 0 0
5503.0 -6189.1 -54.7 36 0 11.7 10.2 5.0 2.5 2 0 2 2 2
5504.7 -6148.6 -51.5 218 0 40.2 8.4 5.0 2.5 2 0 2 3 3
5516.1 -6077.7 -41.9 38 0 38.2 10.4 5.0 2.5 2 0 2 3 3
5544.5 -6046.5 -42.6 39 0 20.9 11.5 5.0 2.5 2 0 2 4 4
5406.8 -6246.0 -55.1 222 0 12.9 10.4 5.0 2.5 4 0 2 1 1
5404.3 -6215.0 -50.5 43 0 17.7 13.2 5.0 0.0 0 0 2 5 5
5453.5 -6291.3 -59.6 124 0 9.7 11.0 7.5 2.5 2 1 3 1 1
5513.8 -6242.2 -60.6 121 0 7.7 7.2 2.5 0.0 0 0 1 2 2
5573.6 -6008.5 -39.3 35 0 14.6 8.9 5.0 2.5 2 0 2 5 5
5560.1 -5983.4 -35.5 200 0 14.4 6.6 5.0 2.5 2 0 2 0 0
5579.3 -5964.3 -37.4 197 0 12.0 7.4 5.0 0.0 0 0 2 5 5
5607.5 -5946.9 -35.8 28 0 15.2 9.3 5.0 0.0 0 0 2 5 5
5615.2 -5920.8 -32.2 9 0 15.2 10.7 5.0 2.5 2 0 2 0 0
5624.3 -5828.8 -24.8 278 0 16.6 10.5 5.0 2.5 2 0 2 0 0
5603.2 -5822.4 -21.1 281 0 9.9 7.0 2.5 0.0 0 0 1 3 3
5582.8 -5850.0 -21.5 190 0 17.2 8.0 5.0 2.5 2 0 2 3 3
5580.7 -5872.3 -22.0 187 0 7.0 8.3 2.5 0.0 0 1 1 3 3
5592.1 -5873.5 -23.4 188 0 6.9 8.8 2.5 0.0 0 1 1 4 4
5605.9 -5852.3 -24.7 189 0 7.8 5.9 2.5 0.0 0 0 1 3 3
5604.2 -5863.1 -24.5 188 0 11.4 7.6 5.0 0.0 0 0 2 0 0
5603.5 -5874.6 -24.4 189 0 4.4 4.0 2.5 0.0 0 0 1 5 5
5646.6 -5788.7 -23.3 194 0 16.2 13.8 5.0 2.5 2 0 2 0 0
5652.4 -5733.7 -15.6 95 0 14.9 10.7 5.0 2.5 2 0 2 5 5
5616.4 -5706.1 -8.2 184 0 11.5 9.9 5.0 2.5 2 0 2 1 1
5674.6 -5698.7 -14.7 5 0 10.6 13.4 5.0 2.5 2 1 2 0 0
5667.4 -5675.3 -11.0 280 0 5.4 5.0 2.5 0.0 0 0 1 3 3
5648.6 -5650.7 -5.6 286 0 12.5 13.4 5.0 2.5 2 1 2 3 3
5632.9 -5605.0 2.3 90 0 9.5 8.3 5.0 2.5 4 0 2 5 5
5616.9 -5642.5 2.5 191 0 10.5 5.2 2.5 0.0 0 0 1 2 2
5639.4 -5615.5 -0.2 185 0 4.9 5.7 2.5 0.0 0 1 1 4 4
5687.0 -5643.0 -12.9 103 0 12.8 14.9 5.0 2.5 4 1 2 0 0
5718.5 -5607.8 -15.7 8 0 6.8 12.0 5.0 2.5 2 1 2 4 4
5702.9 -5598.1 -11.5 12 0 6.7 11.5 5.0 2.5 2 1 2 0 0
5589.0 -5529.8 14.3 181 0 10.5 6.5 2.5 0.0 0 0 1 1 1
5678.6 -5495.4 1.1 7 0 15.7 10.4 5.0 2.5 2 0 2 1 1
5696.9 -5527.3 -4.5 7 0 9.4 14.5 5.0 2.5 2 1 2 5 5
5710.4 -5559.7 -11.9 95 0 10.8 13.0 5.0 0.0 0 1 2 4 4
5725.4 -5531.9 -11.2 94 0 11.3 18.2 5.0 2.5 2 1 2 3 3
5732.4 -5467.5 -6.2 270 0 8.1 10.9 5.0 2.5 2 1 2 2 2
5724.0 -5498.5 -5.8 7 0 8.6 7.3 2.5 0.0 0 0 1 0 0
3500.3 -6425.9 -15.9 32 0 13.0 9.5 2.5 2.5 4 0 1 0 0
3518.7 -6417.3 -15.6 304 0 7.6 13.2 2.5 2.5 2 1 1 5 5
5509.9 -4302.7 19.2 86 0 10.6 12.8 5.0 2.5 2 1 2 2 2
5481.8 -4272.1 18.8 181 0 6.1 15.8 5.0 0.0 0 1 2 4 4
5531.5 -3997.6 -7.8 171 0 7.4 8.2 5.0 2.5 2 1 2 4 4
5509.8 -3903.4 -12.6 164 0 7.3 10.5 5.0 2.5 2 1 2 5 5
5553.6 -3907.6 -12.6 160 0 32.6 9.4 5.0 2.5 2 0 2 0 0
5576.0 -3923.3 -10.0 340 0 8.8 5.4 2.5 0.0 0 0 1 1 1
5520.1 -4044.1 0.9 344 0 9.0 11.9 5.0 2.5 2 1 2 2 2
5509.7 -4001.5 -6.1 341 0 5.8 6.1 2.5 0.0 0 1 1 0 0
5432.9 -3973.4 -4.9 250 0 10.1 17.0 5.0 2.5 2 1 2 1 1
5458.0 -3970.9 -5.2 253 0 9.3 8.6 5.0 2.5 2 0 2 4 4
5478.9 -3959.1 -7.7 73 0 6.9 7.2 2.5 0.0 0 1 1 1 1
5351.4 -4001.5 -2.3 169 0 7.2 39.8 5.0 2.5 2 1 2 5 5
5318.9 -3983.0 -4.3 166 0 7.3 4.4 2.5 0.0 0 0 1 3 3
5358.9 -4029.8 1.5 88 0 8.4 12.1 5.0 2.5 2 1 2 0 0
5358.3 -4125.8 20.5 168 0 9.1 10.1 5.0 2.5 4 1 2 2 2
5362.3 -4188.9 27.0 170 0 6.9 6.7 2.5 2.5 2 0 1 1 1
5401.9 -4188.4 24.1 348 0 27.7 8.0 2.5 2.5 2 0 1 4 4
5356.8 -4215.9 28.8 167 0 10.0 8.1 2.5 2.5 2 0 1 1 1
5382.1 -4325.8 38.3 166 0 10.3 7.2 2.5 2.5 2 0 1 4 4
5417.9 -4318.5 33.2 350 0 12.2 7.0 2.5 2.5 2 0 1 3 3
5410.2 -4468.3 45.5 169 0 7.3 8.1 2.5 0.0 0 1 1 5 5
5435.5 -4538.0 49.2 168 0 16.2 10.4 2.5 2.5 2 0 1 4 4
5471.9 -4550.3 44.8 79 0 10.3 13.0 2.5 2.5 2 1 1 2 2
5346.8 -4536.7 58.7 266 0 11.1 9.3 5.0 2.5 2 0 2 3 3
5390.2 -4500.3 52.2 354 0 10.6 15.4 5.0 0.0 0 1 2 5 5
6885.7 -10076.0 -85.2 105 0 7.1 9.5 2.5 0.0 0 1 1 1 1
5512.1 -4887.2 47.0 340 0 19.9 6.9 2.5 2.5 2 0 1 5 5
5531.7 -4943.3 45.3 356 0 10.0 7.0 2.5 2.5 2 0 1 5 5
5472.4 -4877.9 51.3 257 0 13.8 9.0 2.5 2.5 2 0 1 0 0
5465.2 -4864.7 52.4 259 0 9.8 8.6 2.5 2.5 2 0 1 4 4
5456.5 -4840.1 52.1 78 0 19.2 7.0 2.5 2.5 2 0 1 5 5
5389.8 -4854.9 60.0 167 0 13.4 8.3 2.5 2.5 2 0 1 2 2
5382.1 -4864.8 61.3 165 0 6.3 6.3 2.5 0.0 0 1 1 0 0
5385.9 -4830.4 60.3 73 0 9.6 21.7 2.5 2.5 2 1 1 0 0
5410.9 -4824.1 57.4 253 0 9.1 6.9 2.5 2.5 2 0 1 3 3
5429.1 -4778.6 55.2 76 0 10.2 13.1 2.5 0.0 0 1 1 1 1
5455.3 -4721.0 50.3 254 0 9.5 13.4 2.5 2.5 2 1 1 0 0
5444.0 -4687.8 51.2 71 0 8.9 11.2 2.5 2.5 2 1 1 2 2
5466.5 -4675.8 48.8 343 0 8.8 8.3 2.5 2.5 4 0 1 4 4
5390.7 -4655.3 57.4 339 0 15.8 7.5 2.5 2.5 4 0 1 4 4
5379.5 -4624.6 57.8 248 0 17.2 8.7 2.5 2.5 2 0 1 4 4
5416.3 -4640.5 54.2 73 0 12.9 9.1 2.5 2.5 2 0 1 3 3
5278.0 -4751.7 73.8 78 0 11.3 11.1 2.5 2.5 2 0 1 2 2
5264.1 -4745.8 75.8 77 0 5.0 6.5 2.5 0.0 0 1 1 0 0
5367.3 -4455.4 51.3 262 0 8.8 23.5 5.0 0.0 0 1 2 5 5
5248.9 -4482.7 60.9 179 0 13.6 13.3 5.0 2.5 2 0 2 2 2
5336.7 -4440.3 49.9 83 0 9.8 13.2 5.0 2.5 2 1 2 3 3
5361.3 -4393.2 47.2 353 0 8.8 10.7 5.0 2.5 2 1 2 3 3
5256.6 -4359.8 49.0 170 0 10.9 11.0 5.0 2.5 2 1 2 1 1
5249.0 -4358.5 49.8 167 0 6.2 5.7 2.5 0.0 0 0 1 2 2
5339.8 -4303.4 39.5 78 0 9.2 13.7 5.0 2.5 2 1 2 4 4
5268.6 -4316.0 44.7 0 0 17.0 9.3 5.0 2.5 2 0 2 3 3
5270.8 -4275.4 40.3 180 0 18.1 9.0 5.0 2.5 2 0 2 3 3
5220.5 -4287.6 45.3 257 0 12.5 10.4 5.0 2.5 2 0 2 1 1
5336.1 -4228.8 31.9 349 0 7.3 10.9 5.0 2.5 2 1 2 5 5
5318.6 -4196.3 29.9 7 0 9.2 12.6 5.0 2.5 2 1 2 4 4
5296.1 -4050.5 5.4 274 0 9.2 10.1 5.0 2.5 2 1 2 5 5
5266.5 -4094.2 10.4 179 0 8.3 29.7 5.0 2.5 4 1 2 3 3
5275.9 -4115.8 12.8 84 0 8.4 13.6 5.0 2.5 2 1 2 0 0
5267.4 -4154.1 23.5 264 0 9.6 18.4 5.0 2.5 2 1 2 4 4
5253.3 -4127.4 15.8 186 0 5.5 7.9 2.5 0.0 0 1 1 2 2
5244.4 -4126.5 14.7 185 0 5.4 5.7 2.5 0.0 0 1 1 1 1
4370.8 -6135.8 30.0 8 0 7.5 18.1 5.0 2.5 2 1 2 5 5
4349.3 -6146.0 25.8 291 0 9.8 14.6 5.0 2.5 2 1 2 0 0
6655.6 4581.6 -84.6 274 0 9.8 9.9 2.5 2.5 2 1 1 0 0
6684.7 4576.4 -85.1 273 0 10.5 8.4 5.0 2.5 4 0 2 2 2
4604.3 -4351.0 -7.1 133 0 4.4 6.6 2.5 0.0 0 1 1 1 1
4617.1 -4342.5 -7.5 313 0 4.7 7.0 2.5 0.0 0 1 1 3 3
4708.7 -3449.0 -45.9 39 0 33.9 10.2 5.0 2.5 2 0 2 5 5
4543.7 -3399.8 -42.2 145 0 11.6 10.1 5.0 2.5 2 0 2 5 5
4499.9 -3397.2 -41.5 325 0 11.1 9.3 2.5 2.5 2 0 1 1 1
4471.8 -3407.4 -41.5 144 0 5.8 8.5 2.5 0.0 0 1 1 5 5
4498.2 -3349.3 -41.2 142 0 10.3 16.5 5.0 2.5 2 1 2 3 3
4518.7 -3262.8 -39.7 230 0 19.4 10.1 5.0 0.0 0 0 2 2 2
4564.8 -3218.9 -39.3 223 0 13.1 10.1 5.0 2.5 4 0 2 2 2
4551.5 -3237.2 -39.8 221 0 11.3 8.7 5.0 2.5 2 0 2 0 0
4707.7 -3069.4 -35.5 227 0 15.3 20.1 2.5 0.0 0 1 1 0 0
4567.3 -3521.9 -44.0 239 0 7.7 6.6 2.5 0.0 0 0 1 0 0
4257.0 -3208.2 -35.4 172 0 8.9 41.3 5.0 0.0 0 1 2 2 2
4239.6 -3207.8 -35.9 84 0 8.3 9.6 5.0 2.5 2 1 2 3 3
4253.7 -3166.5 -32.6 264 0 6.9 8.4 2.5 0.0 0 1 1 2 2
4283.6 -3155.3 -30.5 263 0 13.9 8.9 5.0 2.5 2 0 2 2 2
4318.3 -3144.1 -28.3 251 0 9.3 10.6 5.0 2.5 2 1 2 0 0
4008.9 -3087.0 -31.4 112 0 11.8 13.3 5.0 2.5 2 1 2 1 1
4085.8 -3115.4 -31.8 104 0 18.5 9.5 5.0 2.5 2 0 2 0 0
4056.4 -3106.2 -31.8 106 0 8.3 9.5 5.0 0.0 0 1 2 1 1
4138.6 -3121.4 -30.9 119 0 10.6 8.7 5.0 2.5 2 0 2 3 3
4117.6 -3098.2 -29.6 204 0 5.8 6.9 2.5 0.0 0 1 1 3 3
4153.2 -3081.6 -29.3 304 0 12.0 24.9 5.0 2.5 2 1 2 4 4
3996.1 -3016.4 -26.4 23 0 10.3 26.0 2.5 2.5 2 1 1 4 4
3963.8 -3065.4 -29.1 109 0 7.3 14.4 2.5 2.5 4 1 1 4 4
3873.7 -3047.3 -26.9 276 0 11.8 10.3 5.0 2.5 2 0 2 3 3
3879.2 -3019.3 -27.2 95 0 11.6 8.7 5.0 2.5 4 0 2 0 0
-1044.6 -6923.9 -13.3 181 0 15.9 21.2 2.5 2.5 2 1 1 0 0
-1011.0 -6905.6 -13.8 19 0 8.0 12.2 2.5 2.5 2 1 1 0 0
-986.6 -6876.7 -16.2 13 0 13.1 9.3 2.5 2.5 2 0 1 2 2
6898.6 -10156.3 -82.1 269 0 9.4 8.8 5.0 0.0 0 0 2 4 4
6949.2 -9934.0 -88.2 1 0 8.0 11.5 5.0 2.5 2 1 2 0 0
4230.3 -6485.4 -25.1 249 0 24.8 19.4 3.5 2.5 2 0 1 4 4
4319.3 -6454.7 -23.2 254 0 10.6 16.9 4.0 2.5 2 0 1 4 4
4313.7 -6493.9 -26.1 74 0 11.4 5.2 2.5 0.0 0 0 1 2 2
4329.1 -6476.8 -25.4 344 0 14.0 25.3 4.0 2.5 2 0 1 3 3
4204.4 -5973.1 45.2 93 0 7.1 6.3 2.5 0.0 0 0 1 0 0
4229.8 -6065.3 39.9 349 0 3.4 4.8 2.5 0.0 0 1 1 2 2
-6644.6 -10134.7 34.7 95 0 20.9 27.6 5.0 2.5 2 1 2 3 3
-6410.3 -10790.8 -7.4 304 0 13.6 39.9 5.0 2.5 2 1 2 3 3
5142.1 -6469.2 -59.9 228 0 25.9 15.0 5.0 2.5 4 0 2 0 0
3099.6 -7368.6 -41.6 219 0 12.0 8.5 2.5 2.5 2 0 1 5 5
3147.9 -7373.0 -41.9 308 0 10.5 33.9 2.5 2.5 2 1 1 4 4
3104.7 -7407.8 -41.9 127 0 10.0 7.1 2.5 2.5 2 0 1 1 1
3117.1 -7418.5 -42.1 128 0 8.6 6.2 2.5 0.0 0 0 1 4 4
2737.5 -7687.8 -42.7 225 0 8.7 13.8 5.0 2.5 2 1 2 4 4
2600.7 -7993.4 -43.0 34 0 8.4 36.6 5.0 2.5 2 1 2 1 1
2575.2 -7949.9 -42.8 127 0 11.4 12.8 5.0 2.5 2 1 2 5 5
2550.9 -7958.5 -42.7 304 0 10.4 8.4 5.0 2.5 2 0 2 3 3
2584.0 -7900.3 -43.1 214 0 6.9 9.1 2.5 0.0 0 1 1 1 1
1874.4 -8966.0 -43.9 209 0 8.6 35.2 5.0 2.5 2 1 2 1 1
1890.2 -8938.4 -44.3 119 0 7.3 10.8 5.0 2.5 4 1 2 2 2
1752.2 -8963.4 -44.8 49 0 10.7 9.3 2.5 2.5 2 0 1 2 2
1782.3 -9031.3 -43.0 311 0 8.6 18.7 5.0 0.0 0 1 2 2 2
1746.2 -9051.2 -43.1 222 0 8.2 9.5 5.0 2.5 2 1 2 3 3
1710.3 -9117.8 -42.2 130 0 9.9 22.6 5.0 2.5 2 1 2 1 1
1769.0 -9192.9 -41.0 128 0 9.5 37.5 5.0 0.0 0 1 2 0 0
1742.3 -9168.2 -40.9 310 0 22.9 13.7 2.5 2.5 2 0 1 1 1
1802.3 -9204.0 -40.2 131 0 11.3 14.7 5.0 2.5 2 1 2 3 3
1802.4 -9226.4 -38.3 132 0 7.5 11.8 5.0 2.5 2 1 2 2 2
1760.7 -9168.5 -41.0 129 0 7.3 9.2 2.5 0.0 0 1 1 3 3
1825.0 -9166.1 -41.0 315 0 6.9 11.9 5.0 0.0 0 1 2 2 2
1668.8 -9329.7 -34.5 40 0 9.0 8.7 5.0 2.5 2 0 2 3 3
1635.9 -9274.8 -35.1 126 0 6.5 15.2 5.0 2.5 2 1 2 0 0
1619.9 -9293.0 -34.2 307 0 36.0 9.8 5.0 0.0 0 0 2 2 2
1497.0 -9350.5 -30.7 123 0 9.8 10.0 2.5 2.5 2 1 1 2 2
1462.3 -9380.2 -29.0 127 0 26.7 7.0 2.5 0.0 0 0 1 1 1
1541.5 -9502.3 -26.6 285 0 8.2 17.1 2.5 0.0 0 1 1 5 5
1487.9 -9456.8 -27.0 282 0 8.9 7.5 2.5 0.0 0 0 1 5 5
1502.3 -9392.5 -29.6 117 0 8.9 6.8 2.5 0.0 0 0 1 3 3
1545.5 -9389.2 -30.3 31 0 8.1 7.6 2.5 0.0 0 0 1 4 4
1720.8 -9150.2 -41.0 309 0 8.7 5.5 2.5 0.0 0 0 1 4 4
1766.2 -9224.0 -37.5 306 0 6.7 8.5 2.5 0.0 0 1 1 1 1
1709.1 -9141.0 -41.0 312 0 5.7 3.5 2.5 0.0 0 0 1 3 3
1757.3 -9197.3 -38.7 302 0 4.9 4.6 2.5 0.0 0 0 1 0 0
-192.2 -9767.7 -18.4 121 0 9.0 9.1 5.0 2.5 2 1 2 1 1
-203.8 -9720.5 -16.5 215 0 23.6 6.8 5.0 2.5 2 0 2 2 2
-181.7 -9694.3 -17.2 304 0 5.8 6.9 2.5 0.0 0 1 1 0 0
-352.5 -9724.7 -13.3 122 0 11.8 12.9 5.0 2.5 2 1 2 3 3
-362.4 -9735.6 -12.7 304 0 8.8 8.4 5.0 2.5 2 0 2 2 2
-293.7 -9616.3 -16.9 309 0 8.5 29.8 2.5 2.5 2 1 1 4 4
-336.4 -9587.8 -18.0 223 0 10.2 7.6 2.5 2.5 2 0 1 3 3
-486.4 -9743.1 -14.5 101 0 16.4 11.5 5.0 2.5 4 0 2 2 2
3102.3 -6229.8 -25.9 216 0 7.9 6.7 2.5 0.0 0 0 1 3 3
3057.6 -6252.9 -33.0 34 0 8.7 9.4 5.0 2.5 2 1 2 2 2
3111.9 -6214.5 -24.7 132 0 18.0 6.5 5.0 2.5 2 0 2 3 3
3273.4 -6585.0 -36.5 197 0 6.9 6.0 2.5 0.0 0 0 1 5 5
3281.1 -6546.1 -33.6 24 0 13.0 5.5 2.5 2.5 2 0 1 4 4
3831.2 -6693.8 -21.9 122 0 8.7 6.4 2.5 0.0 0 0 1 1 1
3935.8 -6787.2 -29.6 24 0 8.0 12.1 2.5 2.5 2 1 1 2 2
3987.3 -6761.2 -32.0 295 0 9.7 11.3 2.5 2.5 2 1 1 2 2
3949.9 -6768.5 -30.3 135 0 8.5 10.7 2.5 2.5 2 1 1 4 4
3928.1 -6747.2 -28.6 213 0 12.1 6.7 2.5 2.5 2 0 1 5 5
4175.8 -6775.7 -41.2 243 0 10.1 7.0 5.0 2.5 2 0 2 1 1
4169.0 -6730.8 -40.4 248 0 10.6 8.9 2.5 0.0 0 0 1 3 3
4252.5 -6801.8 -43.3 67 0 15.0 15.8 5.0 2.5 2 1 2 2 2
4219.9 -6758.4 -42.0 154 0 8.3 11.7 5.0 2.5 2 1 2 1 1
4257.3 -6699.2 -42.0 63 0 9.0 8.8 2.5 2.5 2 0 1 3 3
4283.6 -6683.1 -42.5 335 0 9.5 16.0 2.5 2.5 2 1 1 2 2
4205.9 -6763.2 -41.6 339 0 7.9 11.9 5.0 2.5 2 1 2 2 2
4226.4 -6783.3 -42.5 153 0 9.8 5.0 2.5 0.0 0 0 1 5 5
4306.2 -6647.3 -42.2 344 0 8.3 7.0 2.5 0.0 0 0 1 5 5
4287.9 -6665.1 -42.4 72 0 5.4 6.5 2.5 0.0 0 1 1 5 5
4243.3 -6683.9 -41.7 251 0 3.8 4.8 2.5 0.0 0 1 1 3 3
4233.1 -6687.5 -41.5 243 0 5.9 6.1 2.5 0.0 0 1 1 4 4
4521.8 -6538.2 -36.2 70 0 13.0 39.2 4.0 2.5 2 1 1 1 1
4526.1 -6433.8 -28.7 250 0 40.5 28.8 3.5 0.0 0 0 1 2 2
4607.8 -6524.8 -40.6 338 0 34.3 11.9 3.5 2.5 4 0 1 3 3
4571.9 -6546.8 -40.3 158 0 11.0 12.9 3.5 2.5 2 1 1 2 2
4535.0 -6532.7 -36.2 72 0 6.2 23.6 4.0 2.5 2 1 1 3 3
4481.5 -6438.8 -25.6 242 0 14.1 6.9 4.0 2.5 2 0 1 2 2
4180.2 -6522.9 -27.4 12 0 30.0 8.5 8.0 0.0 0 0 2 0 0
4366.2 -6166.9 23.3 209 0 8.4 14.3 5.0 2.5 2 1 2 4 4
4656.9 -6641.3 -50.1 161 0 42.8 42.6 4.0 0.0 0 0 1 1 1
4669.8 -6675.4 -51.1 162 0 13.7 51.6 4.0 2.5 2 1 1 4 4
4616.6 -6607.7 -46.8 164 0 8.0 22.6 4.0 0.0 0 1 1 4 4
4680.1 -6709.1 -52.2 252 0 23.3 16.9 4.0 2.5 2 0 1 1 1
4520.2 -6806.8 -50.0 70 0 23.7 20.4 4.0 2.5 4 0 1 5 5
4587.3 -6767.3 -50.9 67 0 10.4 27.7 3.5 2.5 2 1 1 4 4
4731.5 -6489.3 -41.5 165 0 3.3 5.1 2.5 0.0 0 1 1 0 0
4766.4 -6469.4 -40.9 343 0 4.8 7.4 2.5 0.0 0 1 1 5 5
4460.5 -6596.4 -42.1 156 0 7.4 10.0 5.0 2.5 2 1 2 3 3
4448.7 -6584.4 -41.0 63 0 4.6 7.0 2.5 0.0 0 1 1 5 5
4786.9 -6447.3 -40.2 249 0 15.1 8.3 5.0 0.0 0 0 2 1 1
4802.9 -6481.4 -44.4 72 0 10.4 8.1 5.0 2.5 2 0 2 3 3
4876.7 -6459.7 -48.1 342 0 10.4 7.2 5.0 2.5 4 0 2 2 2
4886.5 -6504.3 -53.5 345 0 7.5 8.6 2.5 0.0 0 1 1 5 5
4950.9 -6486.0 -55.3 164 0 8.3 9.4 5.0 2.5 2 1 2 0 0
4941.9 -6519.3 -55.6 74 0 4.3 16.5 5.0 2.5 2 1 2 3 3
4887.5 -6532.5 -54.9 73 0 7.2 6.4 2.5 0.0 0 0 1 5 5
4936.4 -6448.0 -51.9 341 0 7.7 12.7 5.0 2.5 2 1 2 3 3
4969.3 -6438.4 -54.8 163 0 9.2 8.4 5.0 2.5 2 0 2 1 1
4963.1 -6410.2 -54.4 250 0 9.7 6.5 2.5 0.0 0 0 1 5 5
4994.8 -6472.9 -56.8 161 0 7.9 9.2 5.0 0.0 0 1 2 2 2
5058.3 -6451.6 -58.3 257 0 10.9 7.6 5.0 2.5 2 0 2 1 1
5047.8 -6515.8 -58.5 52 0 10.7 11.2 5.0 2.5 4 1 2 2 2
5068.1 -6493.6 -58.6 138 0 7.7 11.5 5.0 2.5 2 1 2 5 5
5000.8 -6492.9 -57.3 237 0 4.2 7.0 2.5 0.0 0 1 1 1 1
4894.3 -6448.7 -48.7 151 0 8.8 4.3 2.5 0.0 0 0 1 5 5
5429.2 -6166.3 -45.5 219 0 13.1 6.3 5.0 2.5 2 0 2 3 3
5469.0 -6147.3 -46.8 42 0 10.6 9.2 5.0 2.5 4 0 2 3 3
5804.3 -5276.9 -5.7 88 0 11.3 7.0 2.5 2.5 2 0 1 0 0
5719.0 -5003.8 8.1 359 0 4.8 8.5 2.5 0.0 0 1 1 3 3
5708.0 -4890.0 10.6 360 0 7.3 7.5 2.5 0.0 0 1 1 4 4
-3663.3 7051.0 -92.8 36 0 10.6 13.3 5.0 2.5 2 1 2 3 3
-3680.8 7018.5 -93.0 39 0 6.9 6.8 5.0 2.5 2 0 2 4 4
-3684.1 7031.1 -92.5 36 0 9.8 5.6 5.0 2.5 2 0 2 3 3
-3635.9 7089.7 -91.7 39 0 13.0 11.6 5.0 2.5 4 0 2 4 4
-3805.6 7094.7 -83.9 60 0 17.2 11.9 5.0 2.5 2 0 2 4 4
-3768.0 6932.5 -90.1 40 0 13.5 9.9 2.5 0.0 0 0 1 5 5
-3758.3 6981.9 -91.8 219 0 11.0 11.1 2.5 2.5 4 1 1 3 3
-3800.1 6900.6 -88.6 132 0 9.9 9.8 2.5 2.5 2 0 1 4 4
-3818.1 6905.7 -88.2 132 0 11.9 6.0 2.5 0.0 0 0 1 0 0
-3821.7 6872.1 -84.5 309 0 11.0 13.1 5.0 2.5 2 1 2 2 2
-3769.7 6853.0 -88.0 131 0 13.3 15.8 5.0 2.5 2 1 2 5 5
-3757.4 6803.5 -86.5 308 0 14.7 9.2 5.0 2.5 2 0 2 4 4
-3734.4 6812.2 -89.5 133 0 5.5 12.3 5.0 2.5 2 1 2 4 4
-3691.7 6816.1 -93.2 36 0 11.9 17.5 5.0 2.5 2 1 2 5 5
-3706.5 6761.8 -91.0 311 0 12.1 8.9 5.0 2.5 2 0 2 0 0
-3609.9 6782.6 -93.9 36 0 8.3 7.8 2.5 0.0 0 0 1 0 0
-3619.8 6771.0 -93.6 37 0 6.2 5.5 2.5 0.0 0 0 1 1 1
-3647.6 6885.2 -94.0 39 0 13.3 31.9 8.0 2.5 2 1 2 5 5
-3631.9 6876.1 -94.2 39 0 8.8 6.9 8.0 2.5 2 0 2 5 5
-3620.3 6890.3 -93.7 37 0 19.6 8.3 8.0 2.5 2 0 2 2 2
-3775.0 6588.3 -88.4 216 0 8.1 26.1 2.5 2.5 4 1 1 1 1
-3790.6 6541.6 -86.3 39 0 9.0 9.7 2.5 2.5 2 1 1 5 5
-3500.8 6677.4 -104.9 39 0 11.9 8.7 5.0 2.5 2 0 2 4 4
-3495.5 6746.8 -101.7 206 0 11.4 6.9 5.0 2.5 2 0 2 0 0
-3444.2 6677.1 -108.6 201 0 8.5 8.5 5.0 2.5 2 1 2 4 4
-3404.9 6707.6 -108.7 216 0 10.0 12.2 5.0 2.5 2 1 2 5 5
-3412.7 6743.7 -105.0 32 0 10.4 6.2 2.5 0.0 0 0 1 5 5
-3399.6 6762.1 -104.5 120 0 9.9 7.9 5.0 2.5 2 0 2 5 5
-3386.4 6737.4 -106.5 127 0 5.1 13.0 5.0 0.0 0 1 2 3 3
-3445.8 6807.7 -100.1 216 0 5.7 9.5 2.5 0.0 0 1 1 2 2
-3445.0 6819.4 -103.6 123 0 6.9 6.7 2.5 0.0 0 0 1 3 3
-3935.0 7003.7 -81.4 39 0 11.6 10.8 2.5 2.5 2 0 1 0 0
-3915.0 7006.9 -84.8 222 0 9.6 5.6 2.5 0.0 0 0 1 0 0
-3902.8 7040.2 -82.5 37 0 7.2 11.1 2.5 0.0 0 1 1 0 0
-3925.7 7032.7 -79.5 35 0 8.3 5.4 2.5 0.0 0 0 1 2 2
-3981.7 7020.2 -74.2 121 0 8.4 8.9 2.5 2.5 2 1 1 1 1
-3952.5 7045.6 -76.9 301 0 20.5 9.4 2.5 2.5 2 0 1 4 4
-3944.2 7051.2 -77.7 302 0 11.3 7.2 2.5 2.5 2 0 1 5 5
-3930.9 6721.9 -81.9 38 0 11.2 22.7 5.0 2.5 2 1 2 4 4
-3964.8 6748.2 -81.7 218 0 7.0 8.4 2.5 0.0 0 1 1 4 4
-3919.4 6784.4 -81.9 303 0 8.7 10.6 5.0 2.5 2 1 2 4 4
-3902.0 6756.1 -81.3 35 0 8.3 9.7 5.0 2.5 2 1 2 5 5
-3237.5 6844.9 -109.2 46 0 4.7 8.2 2.5 0.0 0 1 1 4 4
-3489.3 6392.2 -106.0 306 0 8.0 8.4 2.5 0.0 0 1 1 1 1
-3465.6 6395.2 -106.4 304 0 9.9 6.8 2.5 0.0 0 0 1 3 3
-3468.2 6378.6 -106.5 307 0 5.7 8.7 2.5 0.0 0 1 1 2 2
-3461.2 6368.5 -106.8 31 0 7.3 6.5 2.5 0.0 0 0 1 3 3
-3523.9 6377.7 -105.8 230 0 7.7 8.1 2.5 0.0 0 1 1 3 3
-3524.1 6363.3 -106.0 44 0 5.8 7.6 2.5 0.0 0 1 1 5 5
-3579.8 6227.3 -108.2 216 0 10.4 5.8 2.5 0.0 0 0 1 4 4
-3576.1 6247.2 -108.2 217 0 10.3 8.9 5.0 2.5 2 0 2 5 5
-3599.1 6284.4 -107.9 308 0 8.5 23.2 2.5 2.5 2 1 1 4 4
-3605.9 6288.9 -107.3 31 0 6.2 5.5 2.5 0.0 0 0 1 1 1
-3633.2 6267.3 -107.9 221 0 7.8 7.6 2.5 0.0 0 0 1 2 2
-3629.4 6241.9 -108.1 134 0 5.0 8.5 2.5 0.0 0 1 1 0 0
-3646.3 6178.8 -107.4 48 0 8.6 6.8 2.5 0.0 0 0 1 3 3
-3660.2 6188.7 -107.3 229 0 5.0 5.8 2.5 0.0 0 1 1 0 0
-3667.9 6181.9 -107.3 228 0 5.9 6.2 2.5 0.0 0 1 1 2 2
-3464.5 7382.5 -86.5 220 0 9.5 7.0 2.5 0.0 0 0 1 3 3
-3425.0 7400.4 -89.4 313 0 4.5 5.8 2.5 0.0 0 1 1 0 0
-3364.0 7465.2 -90.4 49 0 5.9 7.4 2.5 0.0 0 1 1 0 0
-3314.1 7482.4 -92.5 220 0 11.6 12.6 2.5 2.5 2 1 1 5 5
-3275.0 7476.9 -93.3 40 0 10.8 7.5 2.5 2.5 2 0 1 1 1
-3271.6 7489.5 -92.8 44 0 4.5 6.4 2.5 0.0 0 1 1 2 2
-3341.2 7529.0 -89.1 135 0 5.0 9.7 2.5 0.0 0 1 1 2 2
