-929.9 -308.7 -154.5 329 0 7.2 9.2 2.5 0.0 0 1 1 0 0
4495.5 -9806.2 -7.6 203 0 9.7 8.9 2.5 2.5 2 0 1 0 0
4602.2 -9943.1 -11.0 358 0 34.7 20.1 8.0 2.5 2 0 2 4 4
4538.4 -9880.4 -6.6 202 0 17.4 10.3 5.0 2.5 2 0 2 3 3
4604.8 -9842.3 -15.2 0 0 10.0 7.8 2.5 2.5 2 0 1 4 4
4610.4 -9730.7 -19.7 359 0 12.8 9.7 2.5 2.5 2 0 1 4 4
4562.1 -9742.9 -16.3 22 0 12.4 8.5 2.5 2.5 4 0 1 1 1
4552.9 -9775.8 -13.0 28 0 9.6 8.1 2.5 2.5 2 0 1 0 0
4540.1 -9809.0 -8.9 21 0 16.3 11.7 2.5 0.0 0 0 1 4 4
4451.3 -9946.1 2.1 106 0 7.8 14.2 2.5 2.5 4 1 1 0 0
4471.7 -9960.5 0.9 14 0 6.4 10.0 2.5 0.0 0 1 1 1 1
4489.3 -10022.3 3.3 134 0 12.1 7.5 5.0 2.5 2 0 2 0 0
4471.8 -10047.9 5.7 221 0 11.2 9.4 5.0 2.5 2 0 2 4 4
4461.2 -10083.4 7.2 207 0 14.7 9.9 5.0 2.5 2 0 2 0 0
4424.8 -10039.9 11.0 227 0 7.0 6.8 2.5 0.0 0 0 1 5 5
4433.1 -10085.3 12.0 21 0 11.2 8.5 2.5 2.5 2 0 1 1 1
4409.3 -10146.2 24.2 22 0 10.7 23.6 2.5 2.5 2 1 1 3 3
4400.8 -10183.6 30.1 6 0 14.3 11.1 2.5 2.5 2 0 1 0 0
4360.7 -10076.3 17.3 125 0 11.3 13.1 2.5 2.5 2 1 1 4 4
4510.8 -9740.7 -14.8 212 0 9.0 10.3 2.5 2.5 2 1 1 1 1
4571.4 -9686.0 -23.6 23 0 12.8 7.2 2.5 2.5 2 0 1 4 4
4602.7 -9647.9 -28.0 19 0 10.8 8.4 2.5 2.5 4 0 1 4 4
4611.8 -9614.8 -30.6 16 0 10.9 8.7 2.5 2.5 2 0 1 0 0
4611.5 -9527.4 -33.5 286 0 10.9 17.9 2.5 2.5 2 1 1 4 4
5160.7 -9528.6 -53.1 30 0 10.5 5.7 2.5 0.0 0 0 1 0 0
4693.1 -9549.9 -36.7 191 0 10.7 10.7 2.5 2.5 2 0 1 3 3
4703.3 -9588.6 -34.1 190 0 15.6 8.5 2.5 2.5 2 0 1 5 5
4763.7 -9609.6 -35.5 98 0 11.0 19.4 2.5 2.5 2 1 1 4 4
4698.1 -9642.3 -31.2 278 0 10.3 16.1 2.5 2.5 2 1 1 4 4
4662.8 -9644.9 -29.4 277 0 9.9 8.8 2.5 2.5 2 0 1 4 4
4646.7 -9657.1 -27.9 189 0 6.0 8.1 2.5 0.0 0 1 1 2 2
4516.6 -9700.9 -20.2 215 0 7.9 9.8 2.5 2.5 4 1 1 2 2
4569.0 -9788.3 -12.9 199 0 10.4 10.7 2.5 2.5 2 1 1 1 1
4439.2 -9887.9 2.8 215 0 10.9 13.1 2.5 2.5 2 1 1 5 5
4432.2 -10347.4 23.8 327 0 17.2 10.5 2.5 2.5 2 0 1 5 5
4448.3 -10356.5 16.0 152 0 6.9 14.1 2.5 2.5 4 1 1 2 2
4721.3 -9486.0 -38.1 188 0 12.2 10.1 2.5 2.5 2 0 1 1 1
4754.5 -9452.1 -39.7 5 0 13.1 23.8 2.5 0.0 0 1 1 2 2
2435.1 -11249.4 152.5 93 0 7.7 6.2 2.5 0.0 0 0 1 3 3
155.3 1549.6 -155.0 91 0 6.7 10.4 2.5 0.0 0 1 1 1 1
153.4 1448.6 -155.2 193 0 8.4 4.5 2.5 0.0 0 0 1 5 5
2156.1 5510.0 -165.7 12 0 8.4 11.2 5.0 2.5 2 1 2 5 5
