-2815.5 -3653.8 -68.0 129 0 7.9 23.9 5.0 2.5 2 1 2 0 0
-2856.9 -3696.4 -68.8 219 0 19.9 8.1 5.0 2.5 2 0 2 2 2
-2200.9 -2713.1 -62.5 311 0 17.2 7.0 5.0 2.5 2 0 2 3 3
-2469.9 -2993.1 -63.3 268 0 15.5 32.0 7.0 2.5 2 1 2 2 2
-2238.5 -2760.2 -63.1 49 0 54.8 36.2 7.5 0.0 0 0 3 4 4
-2010.3 -2002.5 -61.9 135 0 88.4 44.7 7.0 0.0 0 0 2 0 0
-2449.8 -2404.0 -61.3 320 0 28.7 17.2 7.0 2.5 2 0 2 2 2
-2002.6 -2531.3 -61.9 130 0 15.0 58.8 5.0 2.5 2 1 2 5 5
-3421.1 -2435.5 -61.1 307 0 59.0 26.7 7.0 0.0 0 0 2 4 4
-1953.5 -2573.7 -62.0 130 0 17.0 40.2 5.0 2.5 2 1 2 5 5
-2280.9 -1440.6 -64.5 118 0 10.5 5.7 2.5 0.0 0 0 1 0 0
-2051.9 -1677.2 -63.7 334 0 6.0 10.1 2.5 0.0 0 1 1 3 3
-1787.4 1385.1 -99.1 23 0 8.8 4.9 2.5 0.0 0 0 1 3 3
-1748.1 -1377.8 -64.2 280 0 4.9 21.1 5.0 2.5 2 1 2 4 4
-1850.1 -2029.0 -62.1 135 0 11.3 23.9 5.0 0.0 0 1 2 2 2
-2122.1 -1460.2 -64.7 135 0 4.4 16.8 5.0 2.5 2 1 2 0 0
-1970.8 -1647.7 -63.7 250 0 9.2 36.3 2.5 2.5 2 1 1 3 3
-1977.6 -1815.4 -62.8 72 0 43.3 22.0 2.5 0.0 0 0 1 4 4
-1706.0 -1424.8 -64.0 12 0 4.2 41.5 5.0 2.5 2 1 2 1 1
-1861.7 -1949.6 -61.8 225 0 31.2 25.2 5.0 0.0 0 0 2 2 2
-2063.3 -1739.3 -63.1 163 0 16.6 17.0 5.0 2.5 2 1 2 1 1
-1855.0 1314.7 -99.4 26 0 18.1 9.1 2.5 2.5 2 0 1 2 2
-1821.6 1342.3 -99.2 128 0 8.7 8.4 2.5 2.5 2 0 1 0 0
-2106.4 -1476.8 -64.7 137 0 36.1 14.0 5.0 2.5 4 0 2 4 4
-1698.4 -1412.6 -63.9 9 0 17.4 36.3 5.0 0.0 0 1 2 5 5
-1875.4 -1983.3 -61.8 135 0 17.3 17.0 5.0 2.5 2 0 2 5 5
-1985.9 -1723.4 -63.5 161 0 13.2 26.4 2.5 2.5 2 1 1 0 0
-1810.0 -2060.9 -61.5 135 0 16.3 7.8 5.0 2.5 2 0 2 1 1
-2039.8 -1711.4 -63.3 339 0 7.7 9.7 5.0 2.5 2 1 2 5 5
-2073.2 -1628.4 -63.5 341 0 12.4 17.2 5.0 2.5 4 1 2 4 4
-1933.9 -1772.4 -63.2 70 0 17.1 35.3 2.5 2.5 2 1 1 0 0
-1796.7 1424.6 -99.3 290 0 6.2 8.3 2.5 0.0 0 1 1 0 0
-2285.6 -1408.1 -64.8 205 0 3.9 11.7 2.5 0.0 0 1 1 0 0
-2085.4 -1651.4 -63.4 157 0 8.8 4.4 2.5 0.0 0 0 1 1 1
-2110.2 -1586.6 -63.8 157 0 7.2 3.5 2.5 0.0 0 0 1 0 0
-1846.9 1271.3 -99.2 177 0 7.4 6.1 2.5 0.0 0 0 1 3 3
-2048.6 -1665.0 -63.5 339 0 6.5 5.3 2.5 0.0 0 0 1 2 2
-1988.1 -1656.5 -63.8 251 0 8.1 34.0 2.5 2.5 2 1 1 3 3
-1733.2 -2075.4 -62.4 47 0 30.6 39.1 5.0 0.0 0 1 2 1 1
-1716.6 -1393.8 -63.9 191 0 5.6 21.6 5.0 2.5 2 1 2 1 1
-2261.1 -1442.0 -64.3 112 0 12.9 9.6 2.5 2.5 2 0 1 0 0
-2062.6 -1645.9 -63.5 336 0 11.4 14.0 5.0 2.5 2 1 2 4 4
-1888.4 -1989.4 -61.8 135 0 18.8 10.4 5.0 0.0 0 0 2 5 5
-2949.2 -2822.9 -62.6 42 0 31.1 7.7 5.0 2.5 2 0 2 5 5
-2912.1 -2794.8 -62.3 216 0 33.3 12.7 7.5 2.5 2 0 3 5 5
-3059.4 -2872.7 -62.4 124 0 9.5 15.7 5.0 2.5 2 1 2 3 3
-2970.2 -2866.5 -62.6 216 0 35.7 13.1 7.5 2.5 2 0 3 1 1
-3013.0 -2816.2 -62.3 232 0 18.8 10.3 5.0 2.5 2 0 2 2 2
-2990.7 -2798.6 -62.1 230 0 15.7 12.1 5.0 2.5 4 0 2 1 1
-3004.6 -2958.1 -62.2 36 0 12.4 7.5 5.0 2.5 2 0 2 3 3
-2979.3 -2854.5 -62.6 43 0 36.8 5.9 5.0 2.5 4 0 2 5 5
-2999.6 -2902.1 -62.4 217 0 32.1 12.6 7.5 2.5 2 0 3 2 2
-2941.2 -2828.9 -62.7 218 0 32.9 14.2 7.5 2.5 2 0 3 2 2
-3034.4 -2834.9 -62.5 231 0 19.5 10.5 5.0 0.0 0 0 2 0 0
-3010.6 -2888.7 -62.4 43 0 33.9 7.4 5.0 2.5 2 0 2 4 4
-1850.3 -9039.1 93.0 122 0 8.1 13.8 2.5 2.5 2 1 1 2 2
-1669.9 -9178.8 84.0 248 0 12.1 15.8 2.5 2.5 2 1 1 0 0
-3580.3 -3308.8 -65.2 219 0 18.4 12.5 5.0 0.0 0 0 2 4 4
-3645.3 -3398.3 -66.0 312 0 11.6 18.4 14.0 0.0 0 1 4 5 5
-3712.3 -3309.5 -66.3 219 0 25.7 14.7 5.0 2.5 2 0 2 0 0
-3799.8 -3301.0 -69.6 126 0 15.2 18.6 5.0 2.5 2 1 2 1 1
-3673.4 -3836.7 -62.8 40 0 14.6 31.0 14.0 0.0 0 1 4 1 1
-3102.2 -2530.7 -61.5 306 0 29.9 19.9 4.0 2.5 2 0 1 4 4
-3663.8 -3011.4 -66.5 117 0 65.8 45.5 5.0 0.0 0 0 2 0 0
-3127.2 -2576.1 -61.5 126 0 24.3 9.6 2.5 2.5 2 0 1 3 3
-1766.2 -2330.3 -61.1 192 0 62.0 28.9 2.5 0.0 0 0 1 0 0
-3207.0 -3706.5 -67.1 129 0 17.7 27.8 2.5 2.5 2 1 1 3 3
-3221.4 -3611.0 -66.0 129 0 17.7 27.8 2.5 0.0 0 1 1 2 2
-2634.3 -3480.1 -65.3 329 0 4.2 5.5 2.5 0.0 0 1 1 2 2
-2561.8 -3472.5 -64.4 135 0 8.4 14.3 5.0 0.0 0 1 2 2 2
-2607.0 -3467.1 -65.0 278 0 14.8 11.8 5.0 0.0 0 0 2 0 0
-3027.4 -3478.0 -65.3 217 0 41.5 10.9 5.0 2.5 2 0 2 4 4
-3244.6 -3500.7 -64.8 309 0 58.6 17.6 10.5 3.5 2 0 3 3 3
-3855.0 -3447.0 -75.1 219 0 17.3 45.2 5.0 2.5 2 1 2 0 0
-4458.4 -4643.5 -88.0 18 0 10.2 10.7 8.0 2.5 2 1 2 2 2
-3690.2 -3282.3 -66.0 219 0 14.9 7.9 5.0 2.5 2 0 2 1 1
-3476.6 -3263.0 -63.2 37 0 35.2 12.8 5.0 2.5 4 0 2 2 2
-3387.4 -3109.4 -61.5 30 0 42.7 12.4 7.5 2.5 2 0 3 4 4
-3572.2 -3704.6 -62.7 219 0 58.8 11.7 14.0 3.5 2 0 4 2 2
-3758.6 -3514.3 -71.7 315 0 48.4 15.8 10.5 3.5 2 0 3 5 5
-4300.5 -4559.6 -87.0 232 0 15.7 7.7 8.0 2.5 2 0 2 4 4
-3463.0 -3232.6 -62.1 39 0 5.7 10.9 2.5 0.0 0 1 1 1 1
-3079.3 -3332.4 -63.6 219 0 24.9 10.6 2.5 2.5 4 0 1 3 3
-2560.9 -2320.6 -61.2 227 0 6.6 53.2 7.0 2.5 2 1 2 2 2
-3091.9 -3414.2 -64.3 309 0 12.0 42.3 2.5 2.5 2 1 1 4 4
-3580.3 -3618.4 -64.9 129 0 9.7 20.8 10.5 3.5 2 1 3 3 3
-3167.5 -3533.2 -65.1 39 0 14.6 24.6 2.5 2.5 2 1 1 1 1
-3604.0 -3521.5 -64.8 129 0 48.9 18.5 14.0 3.5 2 0 4 5 5
-2893.3 -3281.3 -63.4 31 0 7.3 14.4 5.0 2.5 2 1 2 4 4
-3335.7 -3581.1 -64.5 127 0 7.8 16.2 10.5 3.5 2 1 3 1 1
-2795.6 -3257.9 -63.1 100 0 29.2 11.9 5.0 2.5 2 0 2 1 1
-4274.9 -4403.6 -87.7 26 0 9.5 25.9 8.0 2.5 4 1 2 0 0
-2941.7 -3524.2 -66.1 125 0 55.3 16.2 2.5 2.5 2 0 1 3 3
-4154.2 -4465.8 -86.1 324 0 13.7 31.1 7.0 2.5 4 1 2 0 0
-3030.1 -3556.3 -66.1 129 0 12.5 32.1 2.5 2.5 2 1 1 1 1
-3006.3 -4212.8 -75.0 218 0 17.9 32.5 7.0 2.5 4 1 2 4 4
-4468.0 -4669.2 -87.9 10 0 6.9 9.7 2.5 0.0 0 1 1 2 2
-3833.6 -3545.4 -78.2 129 0 12.7 71.5 10.5 3.5 2 1 3 5 5
-3048.1 -3498.4 -65.5 309 0 42.0 12.4 2.5 2.5 2 0 1 5 5
-3042.9 -4339.4 -73.6 67 0 11.5 11.0 8.0 2.5 2 0 2 0 0
-3652.2 -3585.9 -65.5 129 0 49.5 16.9 14.0 3.5 2 0 4 2 2
-3396.5 -3159.1 -62.1 210 0 55.7 11.9 5.0 2.5 2 0 2 0 0
-3283.7 -4400.1 -77.1 40 0 30.6 19.3 8.0 2.5 4 0 2 5 5
-3247.6 -3622.4 -65.6 307 0 34.2 17.3 5.0 2.5 2 0 2 3 3
-2985.0 -3610.4 -67.0 308 0 26.2 14.0 2.5 2.5 2 0 1 5 5
-3555.6 -3287.9 -64.9 309 0 11.5 8.1 5.0 2.5 2 0 2 5 5
-2706.0 -3860.5 -68.2 219 0 28.0 12.8 12.0 2.5 2 0 3 2 2
-3157.7 -3523.9 -65.2 39 0 13.5 6.8 2.5 2.5 2 0 1 0 0
-2585.0 -2350.2 -61.2 228 0 55.9 48.8 7.0 0.0 0 0 2 1 1
-3134.2 -3489.7 -65.1 309 0 45.3 5.9 2.5 2.5 2 0 1 4 4
-2895.7 -3238.9 -62.8 271 0 36.0 17.0 5.0 2.5 2 0 2 1 1
-2844.6 -3282.5 -63.1 120 0 11.0 32.7 2.5 2.5 2 1 1 3 3
-3769.1 -3775.7 -71.8 131 0 26.6 13.3 10.5 0.0 0 0 3 3 3
-3419.0 -3329.1 -64.0 37 0 10.5 9.2 2.5 2.5 2 0 1 0 0
-3097.7 -3371.2 -63.7 38 0 16.6 10.8 2.5 2.5 2 0 1 1 1
-2711.5 -3723.3 -67.6 307 0 12.9 33.1 2.5 2.5 2 1 1 5 5
-2641.2 -3801.6 -66.8 37 0 32.7 14.9 12.0 2.5 2 0 3 2 2
-3335.1 -4579.5 -75.5 130 0 14.9 4.6 2.5 0.0 0 0 1 0 0
-3105.0 -3532.1 -65.4 128 0 9.2 23.0 2.5 2.5 4 1 1 0 0
-4094.7 -4536.9 -85.1 331 0 9.1 13.3 8.0 2.5 2 1 2 1 1
-4145.8 -4566.8 -85.9 58 0 13.0 65.1 8.0 2.5 2 1 2 4 4
-3321.7 -4510.9 -77.0 219 0 64.8 26.3 7.0 0.0 0 0 2 3 3
-2986.8 -3552.6 -66.6 218 0 52.6 14.9 2.5 2.5 2 0 1 5 5
-2976.7 -4207.8 -74.8 216 0 14.3 21.5 8.0 2.5 2 1 2 2 2
-3089.5 -4145.7 -75.6 218 0 46.9 16.2 4.0 2.5 2 0 1 3 3
-3089.9 -3703.2 -68.2 130 0 34.1 11.8 5.0 0.0 0 0 2 5 5
-3632.4 -3543.4 -65.0 39 0 51.1 16.9 14.0 3.5 2 0 4 0 0
-2680.8 -2691.8 -61.7 38 0 9.2 14.2 5.0 2.5 2 1 2 4 4
-3218.8 -3418.0 -63.8 309 0 8.0 27.3 2.5 2.5 2 1 1 0 0
-3847.6 -2126.8 -81.0 106 0 45.2 18.2 2.5 2.5 2 0 1 4 4
-3211.8 -3717.5 -67.3 307 0 35.1 15.4 14.0 3.5 2 0 4 1 1
-3352.7 -3609.0 -64.9 217 0 6.8 22.8 10.5 3.5 4 1 3 5 5
-3320.6 -3614.4 -65.1 127 0 32.4 15.3 10.5 3.5 2 0 3 3 3
-4237.9 -4424.5 -87.0 206 0 45.0 13.1 8.0 2.5 2 0 2 0 0
-4091.2 -4493.8 -85.4 21 0 9.4 14.4 8.0 2.5 2 1 2 4 4
-3374.1 -3526.4 -63.8 127 0 28.4 8.9 10.5 3.5 2 0 3 4 4
-2974.7 -3486.1 -65.7 308 0 12.1 43.5 2.5 0.0 0 1 1 0 0
-2925.8 -4204.3 -74.5 38 0 12.9 10.3 7.0 2.5 4 0 2 3 3
-2973.9 -4254.5 -74.4 130 0 7.6 43.2 7.0 2.5 2 1 2 5 5
-2933.2 -4269.7 -74.1 38 0 97.5 17.8 7.0 0.0 0 0 2 1 1
-3390.6 -3300.1 -63.6 127 0 25.3 7.1 2.5 2.5 2 0 1 1 1
-3888.9 -3520.9 -82.4 129 0 46.6 18.4 5.0 2.5 2 0 2 2 2
-2763.5 -3782.8 -67.9 218 0 17.8 9.1 2.5 2.5 2 0 1 2 2
-4452.3 -4628.0 -88.0 27 0 10.5 23.0 8.0 2.5 2 1 2 2 2
-3370.3 -3413.0 -63.3 37 0 17.1 13.9 14.0 3.5 2 0 4 3 3
-2644.6 -3744.3 -66.3 219 0 13.5 17.8 12.0 2.5 2 1 3 5 5
-3143.5 -4286.5 -75.7 37 0 31.4 21.3 8.0 0.0 0 0 2 5 5
-3252.8 -3669.2 -66.1 127 0 34.7 16.4 5.0 2.5 2 0 2 2 2
-3103.4 -3597.7 -66.8 128 0 11.9 59.2 2.5 2.5 2 1 1 2 2
-2905.3 -3580.9 -66.8 34 0 11.7 8.1 2.5 0.0 0 0 1 3 3
-3115.3 -3574.3 -66.2 42 0 16.0 29.9 2.5 2.5 2 1 1 2 2
-3311.2 -3340.2 -63.3 38 0 41.3 28.4 7.0 0.0 0 0 2 1 1
-2893.8 -4154.2 -74.0 39 0 42.6 18.0 8.0 2.5 2 0 2 0 0
-3356.0 -3558.6 -64.3 217 0 27.8 15.8 10.5 3.5 2 0 3 1 1
-3057.1 -3305.1 -63.3 217 0 22.0 10.5 2.5 2.5 2 0 1 1 1
-3413.7 -3505.4 -63.3 217 0 31.0 11.2 7.0 3.5 2 0 2 4 4
-4110.3 -4557.4 -85.3 331 0 7.3 18.2 7.0 2.5 2 1 2 0 0
-3285.9 -4473.5 -76.5 220 0 9.2 45.5 8.0 2.5 4 1 2 1 1
-2976.7 -4164.7 -74.7 219 0 16.0 42.3 7.0 2.5 2 1 2 0 0
-3527.2 -4183.0 -78.4 127 0 5.9 9.6 2.5 0.0 0 1 1 1 1
-4509.9 -4704.1 -88.0 189 0 27.4 10.2 7.0 0.0 0 0 2 3 3
-3442.6 -3503.3 -63.4 37 0 17.8 11.6 7.0 3.5 2 0 2 3 3
-3725.0 -3548.5 -70.7 309 0 18.1 9.8 10.5 3.5 2 0 3 2 2
-4299.2 -4596.4 -86.8 232 0 12.1 6.6 8.0 2.5 2 0 2 3 3
-3876.1 -3376.9 -83.2 309 0 46.2 10.1 2.5 2.5 2 0 1 0 0
-4431.7 -4604.2 -87.9 42 0 8.5 18.4 8.0 2.5 2 1 2 4 4
-3695.3 -3260.8 -64.1 129 0 14.5 6.8 5.0 2.5 2 0 2 2 2
-3213.8 -3412.0 -63.7 129 0 10.7 24.6 2.5 0.0 0 1 1 1 1
-3384.3 -4380.2 -78.5 217 0 28.6 20.3 7.0 2.5 2 0 2 3 3
-3766.2 -2080.6 -80.4 329 0 16.1 34.3 2.5 2.5 2 1 1 2 2
-2718.6 -2646.3 -61.5 218 0 21.8 11.3 5.0 2.5 4 0 2 3 3
-3200.0 -3462.4 -64.2 39 0 6.4 15.5 2.5 2.5 2 1 1 2 2
-3289.8 -3588.0 -65.0 307 0 23.8 11.7 10.5 3.5 2 0 3 0 0
-3595.9 -3625.5 -65.9 129 0 26.7 7.8 10.5 3.5 2 0 3 0 0
-4485.2 -4746.4 -87.7 67 0 18.8 15.4 7.0 2.5 2 0 2 1 1
-4261.3 -4386.8 -87.8 26 0 18.5 48.6 8.0 2.5 2 1 2 5 5
-2537.1 -3488.6 -64.4 23 0 9.9 13.5 5.0 2.5 2 1 2 2 2
-3411.9 -3333.7 -63.8 217 0 15.0 35.9 2.5 0.0 0 1 1 5 5
-2706.0 -3715.7 -67.1 128 0 10.2 33.5 5.0 2.5 2 1 2 5 5
-3532.4 -3651.3 -63.2 215 0 38.9 15.0 14.0 3.5 2 0 4 4 4
-3430.1 -3366.3 -63.7 217 0 16.2 30.6 14.0 0.0 0 1 4 0 0
-3435.7 -4551.7 -79.3 127 0 34.5 58.6 8.0 0.0 0 1 1 1 1
-2922.2 -3600.5 -66.9 35 0 19.6 11.3 2.5 2.5 2 0 1 2 2
-3860.4 -3374.8 -79.9 129 0 16.5 7.7 2.5 2.5 2 0 1 1 1
-3821.2 -3267.0 -68.6 39 0 48.1 16.0 5.0 0.0 0 0 2 0 0
-3411.5 -3201.6 -62.1 308 0 11.6 68.7 5.0 2.5 2 1 2 5 5
-3212.9 -3469.1 -64.3 39 0 15.3 6.7 2.5 2.5 2 0 1 1 1
-3372.0 -3716.9 -65.2 40 0 30.6 11.0 14.0 3.5 4 0 4 2 2
-3511.6 -3626.7 -63.5 228 0 27.0 14.7 14.0 3.5 2 0 4 3 3
-3386.3 -3541.4 -63.7 307 0 27.4 15.6 14.0 3.5 2 0 4 4 4
-3523.6 -3679.2 -63.5 218 0 17.7 36.5 14.0 3.5 2 1 4 0 0
-3299.6 -3491.9 -64.0 39 0 41.0 15.4 10.5 3.5 2 0 3 5 5
-3396.6 -3484.1 -63.3 217 0 18.9 8.9 7.0 3.5 2 0 2 2 2
-3436.6 -3981.0 -74.1 308 0 17.1 38.2 14.0 0.0 0 1 4 2 2
-3939.0 -3317.1 -81.8 309 0 56.5 10.2 2.5 2.5 2 0 1 1 1
-4420.3 -4590.9 -87.9 45 0 6.2 11.3 8.0 2.5 2 1 2 0 0
-4439.3 -4614.8 -87.9 38 0 7.0 17.7 7.0 2.5 2 1 2 3 3
-3120.0 -3693.6 -67.8 309 0 30.7 15.1 2.5 2.5 2 0 1 3 3
-3454.7 -3221.1 -62.0 39 0 16.0 5.6 5.0 2.5 2 0 2 4 4
-4458.6 -4563.4 -88.2 225 0 21.1 20.5 8.0 2.5 2 0 2 5 5
-3187.5 -3474.1 -64.4 129 0 8.7 11.1 2.5 2.5 4 1 1 4 4
-3275.7 -3583.7 -65.0 129 0 10.1 36.6 10.5 3.5 2 1 3 1 1
-4277.9 -4688.7 -86.7 53 0 19.5 11.7 8.0 2.5 2 0 2 0 0
-3165.8 -3497.3 -64.9 219 0 11.1 7.5 2.5 2.5 2 0 1 3 3
-4254.0 -4649.4 -86.8 51 0 38.5 8.5 7.0 2.5 2 0 2 0 0
-3533.7 -3614.6 -63.7 39 0 18.1 11.9 10.5 3.5 2 0 3 1 1
-3488.5 -3603.5 -63.9 219 0 14.4 57.2 14.0 3.5 2 1 4 0 0
-3159.1 -3538.8 -65.7 217 0 13.6 27.4 2.5 2.5 2 1 1 0 0
-2603.9 -3494.2 -65.0 278 0 12.5 7.9 5.0 2.5 2 0 2 0 0
-2873.4 -3283.4 -63.8 30 0 31.8 10.8 5.0 2.5 4 0 2 1 1
-3311.2 -3412.9 -63.4 219 0 22.7 10.3 7.0 2.5 4 0 2 1 1
-3631.1 -4065.2 -79.0 324 0 26.9 11.4 5.0 2.5 2 0 2 1 1
-2858.4 -4175.3 -74.1 38 0 71.6 15.6 8.0 2.5 2 0 2 3 3
-4264.6 -4636.3 -86.8 53 0 35.1 21.6 8.0 2.5 4 0 2 2 2
-3659.8 -4018.9 -77.1 56 0 7.5 16.3 10.5 3.5 2 1 3 5 5
-4070.1 -3063.3 -87.8 214 0 17.6 5.4 5.0 0.0 0 0 2 5 5
-4373.2 -4930.6 -87.0 350 0 5.9 5.8 2.5 0.0 0 0 1 5 5
-3975.0 -2990.7 -80.4 302 0 13.0 6.6 2.5 2.5 2 0 1 0 0
-3451.1 -1619.0 -76.3 107 0 9.0 23.0 5.0 2.5 2 1 2 4 4
-4711.9 -2631.7 -95.7 223 0 14.7 12.1 5.0 2.5 2 0 2 4 4
-3396.7 -2987.5 -61.4 36 0 6.3 11.4 5.0 2.5 2 1 2 2 2
-3440.9 -2869.1 -64.5 178 0 13.9 8.4 5.0 0.0 0 0 2 0 0
-3448.3 -2894.4 -63.1 179 0 14.7 11.7 5.0 2.5 2 0 2 0 0
-3447.5 -2918.8 -61.4 178 0 14.8 8.6 5.0 2.5 2 0 2 0 0
-3383.8 -2959.2 -61.5 33 0 13.6 11.1 5.0 2.5 4 0 2 1 1
-3361.8 -2919.2 -61.6 33 0 12.0 10.1 5.0 2.5 2 0 2 5 5
-3349.2 -2895.9 -61.6 31 0 12.5 9.4 5.0 0.0 0 0 2 3 3
-5023.2 -1073.0 -83.3 275 0 12.6 22.8 8.0 2.5 2 1 2 1 1
-4964.5 -1009.8 -81.3 94 0 15.9 22.0 8.0 2.5 2 1 2 0 0
-5078.4 -1086.1 -83.0 275 0 17.6 30.2 8.0 2.5 2 1 2 2 2
-5107.9 -1015.7 -81.6 273 0 8.0 35.5 8.0 2.5 2 1 2 0 0
-5134.5 -1037.7 -81.6 183 0 35.5 18.1 8.0 0.0 0 0 2 0 0
-5007.4 -998.0 -81.5 275 0 19.7 23.5 7.0 2.5 2 1 2 3 3
-5010.3 -1050.1 -82.0 94 0 12.9 26.4 7.0 2.5 2 1 2 0 0
-5776.2 -1786.1 -85.7 49 0 4.0 6.7 2.5 0.0 0 1 1 1 1
-4859.4 -1223.1 -94.5 314 0 8.3 5.0 2.5 0.0 0 0 1 4 4
-5778.3 -1959.2 -85.2 94 0 14.9 8.3 8.0 2.5 2 0 2 3 3
-5765.2 -1774.7 -86.0 46 0 4.1 5.9 2.5 0.0 0 1 1 5 5
-5753.9 -1764.2 -86.4 47 0 3.6 3.3 2.5 0.0 0 0 1 3 3
-5770.6 -1780.7 -85.9 52 0 6.6 8.0 2.5 0.0 0 1 1 3 3
-3198.8 -4034.7 -74.2 219 0 28.5 12.6 5.0 2.5 2 0 2 0 0
-2165.2 -4128.2 -67.9 69 0 28.6 11.5 2.5 2.5 2 0 1 3 3
-2070.1 -4094.2 -69.1 70 0 40.5 10.9 2.5 2.5 2 0 1 5 5
-1957.3 -4023.0 -69.5 234 0 18.4 10.3 5.0 2.5 2 0 2 3 3
-2242.1 -4074.7 -66.9 252 0 11.6 18.6 2.5 0.0 0 1 1 1 1
-1863.8 -3887.5 -68.3 223 0 18.2 72.9 2.5 2.5 4 1 1 2 2
-1750.6 -3967.0 -68.6 314 0 10.8 10.1 7.5 2.5 2 0 3 1 1
-1820.6 -3835.1 -66.4 219 0 34.2 88.4 5.0 0.0 0 1 2 1 1
-1958.4 -4005.6 -69.4 56 0 34.2 29.4 5.0 0.0 0 0 2 2 2
-1999.4 -4063.3 -69.6 340 0 11.6 39.0 2.5 2.5 2 1 1 2 2
-1870.5 -3976.5 -69.1 49 0 68.4 58.9 5.0 0.0 0 0 2 3 3
-2119.3 -4111.4 -68.5 70 0 30.3 12.2 2.5 2.5 2 0 1 1 1
-1928.0 -4087.8 -69.9 251 0 21.7 14.4 5.0 2.5 2 0 2 0 0
-1686.4 -3911.1 -67.3 44 0 7.2 11.4 2.5 2.5 2 1 1 4 4
-1725.4 -3952.2 -68.3 44 0 15.3 12.3 2.5 2.5 2 0 1 4 4
-1708.0 -3926.8 -67.9 42 0 6.5 6.5 2.5 0.0 0 0 1 4 4
-2099.2 -3728.0 -39.6 20 0 3.4 8.6 2.5 0.0 0 1 1 1 1
-1732.0 -4085.1 -64.2 239 0 7.0 15.9 4.0 2.5 2 1 1 5 5
-1747.9 -4091.2 -64.4 239 0 16.6 9.9 4.0 0.0 0 0 1 2 2
-2379.3 -2349.3 -61.4 218 0 14.9 13.9 2.5 2.5 2 0 1 3 3
-2362.1 -2341.6 -61.5 127 0 12.9 9.3 5.0 2.5 2 0 2 3 3
-2304.6 -2289.4 -61.6 226 0 6.5 8.1 2.5 0.0 0 1 1 4 4
-2312.6 -2297.1 -61.6 229 0 6.3 8.3 2.5 0.0 0 1 1 3 3
-2319.0 -2303.5 -61.5 232 0 6.9 8.7 2.5 0.0 0 1 1 0 0
-2327.3 -2312.6 -61.5 228 0 7.6 8.1 2.5 0.0 0 1 1 0 0
-2261.5 -2451.0 -61.5 28 0 13.2 13.3 7.5 2.5 2 1 3 2 2
-2235.3 -2440.5 -61.5 91 0 14.5 14.1 7.5 2.5 2 0 3 3 3
-2211.5 -2420.7 -61.5 90 0 13.6 13.9 7.5 2.5 2 1 3 1 1
-2200.0 -2435.3 -61.6 270 0 15.1 13.8 5.0 2.5 2 0 2 3 3
-2183.6 -2413.2 -61.6 90 0 14.3 13.8 7.5 2.5 2 0 3 1 1
-2169.7 -2427.8 -61.6 272 0 13.7 12.5 5.0 0.0 0 0 2 5 5
-2151.5 -2411.5 -61.6 132 0 13.8 12.9 7.5 2.5 2 0 3 4 4
-2132.9 -2436.5 -61.6 142 0 13.2 13.1 7.5 2.5 4 0 3 1 1
-2101.2 -2440.9 -61.6 322 0 13.5 14.2 7.5 2.5 2 1 3 5 5
-2120.6 -2479.4 -61.7 141 0 12.8 13.3 7.5 2.5 2 1 3 4 4
-2110.4 -2507.1 -61.8 227 0 31.1 11.8 5.0 2.5 2 0 2 0 0
-2138.5 -2459.0 -61.6 319 0 14.1 13.8 5.0 2.5 2 0 2 3 3
-2248.0 -2472.3 -61.6 199 0 14.5 14.5 5.0 2.5 2 0 2 5 5
-2264.8 -2497.2 -61.6 207 0 13.2 14.8 5.0 2.5 2 1 2 2 2
-2279.7 -2475.4 -61.5 21 0 14.1 14.0 7.5 2.5 2 0 3 3 3
-2299.0 -2504.9 -61.6 112 0 14.0 12.8 7.5 2.5 2 0 3 4 4
-2218.2 -2764.8 -63.1 87 0 4.3 4.1 2.5 0.0 0 0 1 3 3
-2295.8 -2281.7 -61.7 228 0 8.0 9.5 5.0 2.5 2 1 2 2 2
-3282.2 -3341.2 -63.0 218 0 22.7 9.3 2.5 2.5 2 0 1 4 4
-3672.4 -3415.7 -66.2 309 0 11.7 6.3 10.5 3.5 2 0 3 4 4
-3178.2 -3361.7 -63.4 307 0 7.5 12.4 2.5 2.5 2 1 1 2 2
-3229.5 -3279.8 -63.0 217 0 37.6 11.6 2.5 2.5 2 0 1 3 3
-3206.2 -3251.2 -62.9 218 0 13.1 9.3 2.5 2.5 2 0 1 2 2
-3331.5 -3366.3 -63.2 37 0 21.5 15.6 5.0 2.5 2 0 2 1 1
-3346.2 -3383.1 -63.2 38 0 17.3 12.0 5.0 2.5 2 0 2 0 0
683.7 -1164.3 -60.9 156 0 93.5 29.8 8.0 0.0 0 0 1 2 2
834.6 -1176.9 -60.4 157 0 10.3 7.5 3.5 2.5 2 0 1 4 4
799.0 -1169.8 -60.4 66 0 26.9 85.5 7.0 0.0 0 1 2 1 1
859.1 -1159.3 -60.4 246 0 18.1 7.8 3.5 2.5 2 0 1 0 0
862.6 -1170.4 -60.4 246 0 20.4 9.9 4.0 0.0 0 0 1 2 2
912.5 -1080.8 -60.4 336 0 63.5 18.5 8.0 2.5 2 0 2 0 0
930.1 -1089.5 -60.4 154 0 48.9 34.3 7.0 0.0 0 0 2 3 3
979.4 -1149.9 -60.4 335 0 9.5 17.6 8.0 2.5 2 1 2 4 4
803.7 -1262.2 -60.4 341 0 5.7 10.2 2.5 0.0 0 1 1 2 2
-3189.3 -4018.9 -74.0 219 0 9.3 15.0 5.0 2.5 2 0 2 4 4
-3166.8 -4015.0 -73.9 39 0 25.2 12.9 5.0 2.5 2 0 2 1 1
-1490.1 -1068.9 -63.9 322 0 10.8 5.8 2.5 0.0 0 0 1 1 1
-1568.0 -1061.4 -64.3 142 0 5.9 9.6 2.5 0.0 0 1 1 0 0
-1538.0 -1035.1 -64.0 232 0 13.5 6.1 2.5 2.5 2 0 1 1 1
-778.8 -1543.5 -60.5 257 0 7.8 11.1 2.5 2.5 2 1 1 5 5
-769.2 -1634.3 -60.5 158 0 4.6 9.3 2.5 0.0 0 1 1 1 1
-734.7 -1572.8 -60.5 345 0 25.8 18.8 2.5 2.5 2 0 1 2 2
-837.8 -1626.0 -60.5 91 0 7.3 13.3 5.0 2.5 2 1 2 4 4
-838.7 -1584.8 -60.5 1 0 7.1 14.3 5.0 2.5 2 1 2 5 5
-851.0 -1605.5 -60.5 181 0 11.2 17.1 2.5 2.5 2 1 1 0 0
-4098.9 -4914.9 -85.8 98 0 11.9 16.1 5.0 2.5 2 1 2 1 1
-4102.9 -4872.6 -85.9 198 0 10.9 12.0 5.0 2.5 2 1 2 4 4
-4148.6 -4891.5 -86.1 103 0 7.7 9.4 5.0 0.0 0 1 2 3 3
-4135.0 -4948.1 -85.9 109 0 7.9 7.8 2.5 0.0 0 0 1 2 2
-4100.8 -4817.8 -85.4 13 0 9.2 10.4 5.0 2.5 4 1 2 1 1
-4120.2 -4801.7 -85.4 195 0 9.5 15.1 5.0 2.5 2 1 2 1 1
-4109.0 -4778.7 -85.3 202 0 21.8 15.1 5.0 2.5 2 0 2 1 1
-4084.0 -4763.9 -85.3 14 0 12.9 8.5 5.0 2.5 2 0 2 4 4
-4085.8 -4732.9 -85.3 293 0 18.1 10.4 5.0 2.5 2 0 2 2 2
-4066.7 -4768.7 -85.3 202 0 11.9 9.4 5.0 2.5 2 0 2 5 5
-4064.3 -4757.1 -85.3 198 0 11.0 14.3 5.0 2.5 2 1 2 5 5
-4047.8 -4740.8 -85.3 200 0 9.4 13.7 5.0 2.5 2 1 2 2 2
-4059.6 -4809.3 -85.3 17 0 6.4 6.0 2.5 0.0 0 0 1 4 4
-4077.7 -4785.4 -85.3 196 0 13.5 11.3 5.0 2.5 2 0 2 0 0
-4080.9 -4800.1 -85.3 194 0 6.0 8.8 2.5 0.0 0 1 1 5 5
-4086.8 -4818.5 -85.4 190 0 17.3 11.7 5.0 2.5 2 0 2 5 5
-4079.0 -4932.0 -85.7 342 0 6.9 25.7 5.0 2.5 2 1 2 2 2
-4067.5 -4930.4 -85.6 283 0 6.2 6.7 2.5 0.0 0 1 1 4 4
-4026.6 -4757.2 -85.3 22 0 9.3 7.2 2.5 0.0 0 0 1 4 4
-2623.0 -3470.1 -65.2 3 0 4.7 8.0 2.5 0.0 0 1 1 1 1
-3027.3 -3991.5 -72.9 274 0 37.5 5.5 5.0 2.5 2 0 2 4 4
-3006.2 -3975.4 -72.3 348 0 5.1 44.6 5.0 2.5 2 1 2 1 1
-2222.7 -3136.3 -65.0 253 0 7.4 6.3 2.5 0.0 0 0 1 3 3
-2216.6 -3113.0 -65.4 134 0 9.9 9.6 5.0 2.5 2 0 2 4 4
-2190.9 -3131.0 -65.1 45 0 5.2 14.7 5.0 2.5 2 1 2 2 2
-2880.8 -3328.2 -63.9 208 0 10.2 7.6 5.0 2.5 2 0 2 1 1
-1672.9 -1394.4 -64.1 53 0 4.6 23.4 5.0 2.5 2 1 2 3 3
-5991.0 -8618.8 -93.8 110 0 9.2 5.9 2.5 0.0 0 0 1 0 0
-5941.8 -8540.3 -93.4 218 0 8.1 8.5 2.5 0.0 0 1 1 0 0
-5806.2 -8415.0 -92.8 322 0 8.3 35.7 2.5 2.5 2 1 1 0 0
-5768.8 -8463.5 -93.0 326 0 8.8 8.4 5.0 2.5 2 0 2 1 1
-5841.4 -8465.1 -93.1 54 0 9.9 10.7 2.5 2.5 2 1 1 4 4
-5851.3 -8493.0 -93.2 31 0 5.5 7.9 2.5 0.0 0 1 1 1 1
-5429.4 -7223.9 -95.9 30 0 13.3 9.1 5.0 2.5 2 0 2 0 0
-4933.1 -6866.6 -89.1 307 0 10.8 16.4 5.0 2.5 4 1 2 4 4
-5479.3 -7300.1 -95.1 122 0 5.7 4.4 2.5 0.0 0 0 1 3 3
-5469.6 -7352.8 -94.9 131 0 5.9 9.2 2.5 0.0 0 1 1 0 0
-5355.1 -7266.9 -96.3 8 0 7.0 6.0 2.5 0.0 0 0 1 2 2
-5112.5 -7414.4 -92.5 250 0 9.9 13.0 2.5 2.5 2 1 1 4 4
-5146.3 -7197.5 -93.9 204 0 8.2 6.8 2.5 0.0 0 0 1 1 1
-5319.2 -7210.5 -96.5 2 0 7.2 5.6 2.5 0.0 0 0 1 1 1
-5451.2 -7273.6 -96.1 207 0 15.8 10.6 5.0 2.5 2 0 2 2 2
-5630.3 -7533.0 -92.9 221 0 3.1 5.2 2.5 0.0 0 1 1 5 5
-5555.8 -7567.3 -93.7 20 0 4.3 3.4 2.5 0.0 0 0 1 1 1
-5404.9 -7171.5 -96.6 218 0 8.6 4.9 2.5 0.0 0 0 1 2 2
-5297.3 -7165.6 -96.5 26 0 6.7 9.9 2.5 0.0 0 1 1 0 0
-5064.1 -6968.4 -92.6 280 0 3.6 6.3 2.5 0.0 0 1 1 0 0
-5445.7 -7316.9 -95.1 295 0 9.2 5.9 2.5 0.0 0 0 1 1 1
-5587.0 -7546.0 -93.4 21 0 3.7 4.4 2.5 0.0 0 1 1 4 4
-5427.4 -7332.3 -95.1 29 0 5.9 8.1 2.5 0.0 0 1 1 5 5
-5301.9 -7113.8 -96.4 49 0 6.2 7.3 2.5 0.0 0 1 1 1 1
-5346.2 -7252.7 -96.3 2 0 7.0 5.8 2.5 0.0 0 0 1 0 0
-5337.2 -7238.6 -96.4 1 0 7.1 5.8 2.5 0.0 0 0 1 4 4
-5328.1 -7224.7 -96.5 1 0 7.1 5.9 2.5 0.0 0 0 1 2 2
-5523.9 -7545.0 -93.9 181 0 5.1 4.0 2.5 0.0 0 0 1 0 0
-5568.8 -7540.1 -93.5 15 0 11.4 20.3 5.0 2.5 2 1 2 2 2
-5619.3 -7544.6 -93.1 213 0 4.7 4.2 2.5 0.0 0 0 1 5 5
-5514.6 -7452.1 -93.2 30 0 9.4 9.6 2.5 2.5 2 1 1 5 5
-5454.5 -7338.1 -95.0 31 0 5.2 5.0 2.5 0.0 0 0 1 3 3
-5550.2 -7584.8 -93.5 24 0 14.4 12.0 5.0 2.5 2 0 2 4 4
-5462.4 -7305.7 -95.1 291 0 8.8 6.0 2.5 0.0 0 0 1 0 0
-2589.2 5639.6 -97.9 357 0 47.9 31.8 2.5 0.0 0 0 1 2 2
-2522.3 5564.1 -100.6 72 0 33.5 13.0 2.5 0.0 0 0 1 2 2
-2624.9 5569.1 -99.7 83 0 49.1 17.8 2.5 0.0 0 0 1 2 2
-2685.3 5583.1 -96.7 169 0 10.0 14.9 2.5 2.5 2 1 1 1 1
-2668.9 5530.4 -98.9 87 0 5.5 4.7 2.5 0.0 0 0 1 1 1
-2660.9 5669.1 -94.6 266 0 12.0 15.2 2.5 2.5 2 1 1 5 5
-2619.0 5534.7 -100.9 81 0 23.0 12.2 2.5 2.5 2 0 1 3 3
-2647.4 5517.3 -101.5 269 0 15.1 10.7 5.0 2.5 2 0 2 5 5
-2610.5 5486.7 -102.4 341 0 4.5 3.4 2.5 0.0 0 0 1 3 3
-2612.8 5493.6 -102.2 349 0 4.0 3.0 2.5 0.0 0 0 1 5 5
-2626.2 5453.7 -102.6 81 0 9.6 8.1 5.0 2.5 2 0 2 2 2
-2653.5 5453.0 -101.8 56 0 3.1 7.1 2.5 0.0 0 1 1 1 1
-2631.1 5481.7 -102.4 339 0 5.2 7.4 2.5 0.0 0 1 1 5 5
-2637.7 5489.2 -102.2 245 0 3.0 5.1 2.5 0.0 0 1 1 4 4
-2641.6 5504.4 -101.8 263 0 4.7 6.5 2.5 0.0 0 1 1 5 5
-2684.5 5562.6 -96.4 179 0 4.0 4.4 2.5 0.0 0 1 1 4 4
-3327.9 -3050.6 -61.7 2 0 12.1 12.5 5.0 2.5 4 1 2 2 2
-3346.8 -3079.4 -61.5 93 0 10.3 14.9 5.0 2.5 2 1 2 1 1
-3289.0 -2987.1 -61.6 3 0 10.7 9.4 5.0 0.0 0 0 2 5 5
-3319.0 -3037.8 -61.9 89 0 11.9 15.3 5.0 2.5 2 1 2 4 4
-3306.0 -3016.2 -61.7 92 0 10.6 14.2 5.0 2.5 4 1 2 1 1
-3280.8 -2973.5 -61.6 95 0 9.8 15.3 5.0 2.5 2 1 2 3 3
-3262.8 -2944.8 -61.7 3 0 14.0 11.3 5.0 2.5 4 0 2 2 2
-3341.6 -2963.2 -61.5 211 0 16.0 10.5 5.0 2.5 2 0 2 5 5
-3325.2 -2934.9 -61.6 210 0 9.3 15.0 5.0 2.5 2 1 2 5 5
-3316.7 -2917.3 -61.7 207 0 16.6 13.1 5.0 2.5 2 0 2 2 2
-3304.2 -3064.4 -61.7 212 0 18.5 21.9 5.0 2.5 2 1 2 1 1
-3288.3 -3037.8 -62.1 211 0 16.8 20.9 5.0 2.5 2 1 2 1 1
-3269.2 -3013.0 -62.0 210 0 37.1 15.9 5.0 0.0 0 0 2 5 5
-3249.0 -2969.3 -61.7 213 0 14.8 16.7 5.0 2.5 2 1 2 0 0
-3213.9 -2943.3 -61.7 313 0 16.7 11.0 5.0 2.5 2 0 2 5 5
-3257.4 -3136.9 -61.8 33 0 9.8 24.2 5.0 2.5 2 1 2 4 4
-3251.2 -3127.2 -61.7 34 0 5.8 8.1 2.5 0.0 0 1 1 3 3
-3243.0 -3112.7 -61.6 30 0 9.7 10.7 5.0 2.5 4 1 2 4 4
-4008.4 -4237.0 -84.9 188 0 29.8 4.4 8.0 2.5 2 0 2 0 0
-3933.0 -4194.2 -84.2 22 0 58.1 9.3 8.0 2.5 2 0 2 1 1
-4024.5 -4182.0 -85.1 13 0 15.6 15.1 7.0 2.5 2 0 2 4 4
-4053.8 -4195.7 -85.3 192 0 9.6 9.4 8.0 2.5 2 0 2 2 2
-4032.0 -4234.7 -85.1 15 0 5.4 4.2 2.5 0.0 0 0 1 4 4
-4045.7 -4279.7 -85.4 23 0 5.1 4.8 2.5 0.0 0 0 1 1 1
-4036.9 -4299.4 -85.2 191 0 5.1 7.8 2.5 0.0 0 1 1 5 5
-4030.2 -4262.3 -85.1 190 0 7.3 10.6 8.0 0.0 0 1 2 4 4
-4033.8 -4279.5 -85.3 190 0 23.0 11.2 7.0 2.5 4 0 2 0 0
-4005.2 -4326.5 -84.8 113 0 25.3 8.0 8.0 2.5 2 0 2 3 3
-3977.8 -4315.8 -84.6 20 0 20.0 15.1 7.0 0.0 0 0 2 1 1
-3967.5 -4286.8 -84.8 25 0 10.0 31.2 8.0 2.5 2 1 2 2 2
-3958.8 -4262.5 -84.7 23 0 27.7 23.6 8.0 0.0 0 0 2 5 5
-3980.3 -4236.6 -84.7 292 0 7.7 29.7 7.0 2.5 2 1 2 0 0
-3966.6 -4213.9 -84.7 18 0 11.2 30.8 8.0 2.5 2 1 2 1 1
-3986.4 -4170.5 -84.7 184 0 11.5 26.3 7.0 0.0 0 1 2 2 2
-3070.8 -3662.5 -67.6 127 0 14.2 9.0 5.0 2.5 2 0 2 2 2
-3091.0 -3644.2 -67.2 126 0 28.3 13.2 5.0 2.5 2 0 2 1 1
-2542.7 -2471.5 -61.3 318 0 17.5 9.5 4.0 2.5 2 0 1 5 5
-2501.4 -2329.8 -61.1 319 0 20.3 5.9 7.0 0.0 0 0 2 0 0
-2530.9 -2315.3 -61.2 229 0 7.4 14.6 7.0 2.5 2 1 2 5 5
-2547.6 -2311.7 -61.2 229 0 10.2 24.5 7.0 2.5 2 1 2 5 5
-2627.2 -2395.5 -61.1 224 0 22.8 14.3 8.0 2.5 2 0 2 5 5
-2614.9 -2431.8 -61.2 135 0 9.8 28.5 7.0 0.0 0 1 2 5 5
-2714.8 -2376.9 -61.1 219 0 4.6 7.4 2.5 0.0 0 1 1 2 2
-2724.4 -2382.7 -61.1 219 0 14.1 11.0 5.0 2.5 2 0 2 3 3
-2733.1 -2397.1 -61.1 219 0 4.6 7.4 2.5 0.0 0 1 1 0 0
-2742.7 -2402.9 -61.1 219 0 14.1 11.0 5.0 2.5 2 0 2 2 2
-2754.3 -2420.7 -61.2 219 0 4.6 7.4 2.5 0.0 0 1 1 1 1
-2763.8 -2426.5 -61.3 219 0 14.1 11.0 5.0 2.5 4 0 2 1 1
-2803.4 -2484.1 -61.3 219 0 4.6 7.4 2.5 0.0 0 1 1 5 5
-2813.0 -2489.9 -61.3 219 0 14.1 11.0 5.0 2.5 4 0 2 0 0
-2788.1 -2462.9 -61.3 219 0 4.6 7.4 2.5 0.0 0 1 1 2 2
-2797.7 -2468.7 -61.3 219 0 14.1 11.0 5.0 2.5 2 0 2 2 2
-2770.2 -2441.6 -61.3 219 0 4.6 7.4 2.5 0.0 0 1 1 0 0
-2779.8 -2447.4 -61.3 219 0 14.1 11.0 5.0 2.5 2 0 2 5 5
-3113.9 -2452.9 -61.5 198 0 9.8 15.8 5.0 2.5 2 1 2 0 0
-3096.1 -2395.7 -60.8 198 0 14.2 12.6 5.0 2.5 2 0 2 0 0
-3106.5 -2425.7 -61.5 202 0 15.1 13.3 5.0 2.5 2 0 2 3 3
-3000.6 -2519.9 -61.4 46 0 5.7 8.6 2.5 0.0 0 1 1 3 3
-2980.6 -2503.0 -61.4 54 0 6.9 8.6 2.5 0.0 0 1 1 5 5
-2910.3 -2409.2 -61.0 276 0 7.1 7.8 2.5 0.0 0 1 1 3 3
-2915.0 -2427.2 -61.4 4 0 16.2 11.3 5.0 2.5 2 0 2 1 1
-2909.9 -2451.3 -61.4 5 0 8.3 15.7 5.0 2.5 2 1 2 3 3
-2926.0 -2466.2 -61.4 90 0 7.4 11.3 5.0 2.5 2 1 2 3 3
-2950.4 -2474.8 -61.4 85 0 12.2 14.0 5.0 2.5 2 1 2 3 3
-2973.5 -2493.7 -61.4 50 0 13.1 11.3 5.0 2.5 2 0 2 2 2
-2996.1 -2511.5 -61.4 46 0 11.3 10.9 5.0 2.5 2 0 2 4 4
-2961.1 -2516.3 -61.4 236 0 13.9 8.8 7.5 2.5 2 0 3 3 3
-2991.8 -2542.4 -61.4 212 0 9.9 14.0 7.5 2.5 2 1 3 0 0
-3008.4 -2558.1 -61.5 213 0 10.5 12.9 7.5 2.5 2 1 3 3 3
-3026.1 -2576.4 -61.5 218 0 9.9 11.5 7.5 2.5 4 1 3 4 4
-3044.0 -2594.6 -61.5 218 0 13.0 12.4 7.5 2.5 4 0 3 5 5
-3060.8 -2621.3 -61.5 126 0 10.6 14.3 7.5 2.5 2 1 3 5 5
-3028.9 -2652.9 -61.5 122 0 8.6 11.6 7.5 2.5 2 1 3 1 1
-3011.0 -2633.9 -61.5 129 0 10.0 13.7 7.5 2.5 2 1 3 1 1
-2983.2 -2614.8 -61.5 53 0 12.0 7.2 7.5 2.5 4 0 3 3 3
-2969.4 -2597.8 -61.5 55 0 17.0 8.2 7.5 2.5 4 0 3 0 0
-2950.3 -2577.8 -61.4 50 0 13.8 8.4 7.5 2.5 2 0 3 0 0
-2928.1 -2558.0 -61.4 48 0 15.8 8.7 7.5 2.5 2 0 3 2 2
-2897.7 -2559.2 -61.4 89 0 15.1 13.9 7.5 2.5 2 0 3 0 0
-2870.1 -2555.8 -61.4 135 0 10.9 9.4 7.5 2.5 4 0 3 2 2
-2828.3 -2469.2 -61.3 37 0 18.6 11.3 2.5 2.5 2 0 1 2 2
-2863.7 -2474.0 -61.4 127 0 10.6 15.9 2.5 2.5 2 1 1 0 0
-2894.7 -2501.0 -61.4 312 0 12.1 15.5 7.5 2.5 4 1 3 0 0
-2866.1 -2504.4 -61.4 305 0 11.1 12.3 7.5 2.5 2 1 3 2 2
-2850.8 -2572.2 -61.4 132 0 12.4 9.9 7.5 0.0 0 0 3 1 1
-2828.4 -2591.3 -61.4 134 0 9.9 12.2 7.5 2.5 2 1 3 3 3
-2815.3 -2522.6 -61.4 310 0 11.1 18.1 7.5 2.5 2 1 3 1 1
-2792.5 -2536.7 -61.4 313 0 10.1 21.5 7.5 2.5 2 1 3 5 5
-2745.2 -2574.9 -61.3 132 0 7.0 9.1 2.5 0.0 0 1 1 0 0
-2758.6 -2562.6 -61.3 129 0 7.0 10.9 5.0 2.5 2 1 2 4 4
-2765.5 -2637.8 -61.4 39 0 12.1 8.2 5.0 2.5 2 0 2 0 0
-2783.3 -2660.9 -61.4 44 0 16.2 7.2 5.0 2.5 2 0 2 2 2
-2824.0 -2716.6 -61.4 36 0 6.5 9.4 2.5 0.0 0 1 1 4 4
-2827.1 -2701.7 -61.4 39 0 16.9 12.9 5.0 0.0 0 0 2 4 4
-2803.9 -2689.9 -61.4 42 0 17.1 7.5 5.0 2.5 2 0 2 3 3
-2784.9 -2580.6 -61.4 219 0 12.9 8.7 5.0 2.5 2 0 2 5 5
-2802.8 -2602.6 -61.4 220 0 16.8 8.7 5.0 0.0 0 0 2 0 0
-2826.4 -2632.1 -61.4 219 0 18.0 9.1 5.0 2.5 2 0 2 3 3
-2841.5 -2650.5 -61.4 221 0 13.2 9.4 5.0 2.5 2 0 2 5 5
-2859.1 -2673.7 -61.4 221 0 12.6 8.3 5.0 2.5 2 0 2 1 1
-2877.4 -2697.0 -61.5 224 0 13.9 8.0 5.0 2.5 2 0 2 4 4
-2838.0 -2734.9 -61.4 40 0 11.8 8.3 5.0 2.5 2 0 2 3 3
-2874.5 -2770.0 -62.0 135 0 12.6 15.0 5.0 2.5 2 1 2 1 1
-2892.3 -2663.8 -61.4 39 0 13.4 8.6 5.0 2.5 2 0 2 0 0
-2869.9 -2653.2 -61.4 40 0 13.4 8.3 5.0 2.5 2 0 2 0 0
-2841.4 -2615.9 -61.4 36 0 11.2 9.5 5.0 2.5 2 0 2 2 2
-2865.2 -2626.6 -61.4 36 0 11.4 9.1 5.0 2.5 2 0 2 1 1
-2884.3 -2583.0 -61.4 311 0 9.8 19.7 5.0 2.5 2 1 2 1 1
-2918.4 -2604.3 -61.4 213 0 12.6 9.2 5.0 2.5 2 0 2 3 3
-2934.9 -2626.1 -61.5 217 0 12.8 9.3 5.0 2.5 2 0 2 5 5
-2953.5 -2643.0 -61.5 213 0 11.2 8.7 5.0 2.5 2 0 2 4 4
-2969.8 -2657.9 -61.5 215 0 12.0 8.0 5.0 2.5 2 0 2 5 5
-2988.7 -2682.4 -61.5 129 0 8.1 14.7 5.0 2.5 2 1 2 5 5
-2897.2 -2689.2 -61.5 38 0 12.7 10.2 5.0 2.5 2 0 2 4 4
-2919.7 -2697.4 -61.5 38 0 13.8 10.0 5.0 2.5 2 0 2 2 2
-2950.7 -2708.0 -61.5 128 0 9.1 12.9 5.0 2.5 2 1 2 5 5
-2984.7 -2754.7 -61.5 42 0 13.4 7.3 2.5 2.5 2 0 1 2 2
-2959.4 -2727.9 -61.5 312 0 9.0 12.0 2.5 2.5 2 1 1 2 2
-3011.6 -2695.2 -61.5 218 0 10.9 9.6 2.5 0.0 0 0 1 1 1
-3033.1 -2715.1 -61.5 217 0 9.3 8.6 2.5 2.5 2 0 1 0 0
-3051.2 -2731.4 -61.5 221 0 9.5 7.9 2.5 2.5 2 0 1 0 0
-3138.4 -2811.0 -61.8 131 0 6.5 16.3 2.5 2.5 2 1 1 3 3
-3071.8 -2749.2 -61.6 220 0 11.8 10.7 2.5 2.5 2 0 1 4 4
-3001.8 -2769.5 -61.5 35 0 11.9 9.7 2.5 2.5 4 0 1 4 4
-3035.3 -2782.5 -61.6 39 0 11.7 8.3 2.5 2.5 2 0 1 3 3
-3087.0 -2791.6 -61.7 217 0 14.3 10.7 2.5 2.5 2 0 1 1 1
-3070.3 -2837.7 -62.3 37 0 6.6 10.6 2.5 2.5 4 1 1 0 0
-3104.8 -2837.5 -62.3 128 0 12.2 15.3 2.5 2.5 2 1 1 2 2
-3225.3 -2891.6 -61.8 29 0 21.6 11.6 5.0 2.5 2 0 2 0 0
-3197.3 -2884.3 -61.9 214 0 14.6 9.5 2.5 2.5 2 0 1 3 3
-3175.3 -2866.1 -62.0 218 0 15.1 11.1 2.5 2.5 2 0 1 0 0
-3157.6 -2828.5 -62.1 217 0 9.5 16.2 2.5 2.5 2 1 1 2 2
-3119.1 -2858.5 -62.2 306 0 12.6 9.9 2.5 2.5 2 0 1 5 5
-3141.0 -2887.3 -62.0 37 0 13.8 6.9 2.5 2.5 2 0 1 5 5
-3153.9 -2914.2 -61.9 37 0 7.3 10.8 2.5 2.5 2 1 1 4 4
-3181.1 -2943.2 -61.8 125 0 7.6 13.7 2.5 2.5 2 1 1 3 3
-3195.3 -3066.4 -61.9 212 0 6.2 9.6 2.5 0.0 0 1 1 1 1
-3189.4 -3053.9 -62.1 211 0 5.9 8.7 2.5 0.0 0 1 1 0 0
-3183.3 -3045.3 -62.4 211 0 12.8 7.0 5.0 2.5 2 0 2 0 0
-3026.2 -3062.1 -62.8 100 0 13.2 28.8 2.5 2.5 2 1 1 1 1
-3122.4 -3018.3 -62.5 309 0 37.6 10.3 5.0 2.5 2 0 2 1 1
-3185.4 -2993.1 -61.7 31 0 8.6 13.9 5.0 2.5 4 1 2 5 5
-3175.1 -2985.0 -61.8 32 0 12.0 11.3 5.0 2.5 2 0 2 2 2
-3190.1 -3013.1 -62.0 30 0 13.6 10.6 5.0 2.5 2 0 2 0 0
-3203.3 -3037.1 -62.2 29 0 12.9 11.0 5.0 2.5 2 0 2 3 3
-3219.3 -3064.3 -61.9 30 0 8.9 14.1 5.0 2.5 2 1 2 0 0
-3162.6 -3146.4 -62.0 38 0 8.2 12.0 5.0 2.5 2 1 2 2 2
-3212.7 -3167.0 -61.9 136 0 8.6 14.3 5.0 2.5 4 1 2 3 3
-3171.2 -3130.2 -61.8 36 0 10.5 19.4 5.0 2.5 4 1 2 3 3
-3201.2 -3075.5 -61.8 212 0 10.9 9.1 5.0 2.5 2 0 2 3 3
-3215.2 -3100.6 -61.6 212 0 14.6 7.7 5.0 2.5 2 0 2 5 5
-3228.2 -3125.1 -61.8 212 0 12.6 9.3 5.0 2.5 4 0 2 2 2
