5770.2 -9008.5 5.6 123 0 9.2 6.5 2.5 0.0 0 0 1 4 4
4579.7 3678.6 -14.0 134 0 12.4 7.1 2.5 2.5 2 0 1 0 0
4621.4 3699.9 -14.3 53 0 11.1 13.5 2.5 2.5 2 1 1 4 4
4634.5 3760.2 -16.0 58 0 17.3 5.1 2.5 2.5 2 0 1 2 2
4639.8 3811.7 -17.0 257 0 5.8 6.9 2.5 0.0 0 1 1 3 3
4690.1 3777.2 -15.2 75 0 8.5 9.6 2.5 0.0 0 1 1 0 0
4700.5 3797.1 -15.8 73 0 10.8 11.7 2.5 2.5 2 1 1 0 0
4660.8 3662.3 -11.9 58 0 5.5 13.0 2.5 0.0 0 1 1 2 2
4689.6 3659.0 -11.0 59 0 7.5 9.3 2.5 0.0 0 1 1 2 2
4703.9 3736.9 -13.1 250 0 14.7 8.0 2.5 2.5 4 0 1 1 1
4779.6 3872.4 -17.5 260 0 21.9 10.9 2.5 2.5 2 0 1 0 0
4803.3 3775.0 -14.2 263 0 8.0 24.0 2.5 2.5 2 1 1 1 1
4772.2 3754.8 -13.6 264 0 7.7 13.7 2.5 2.5 2 1 1 4 4
4748.6 3757.7 -13.8 254 0 13.1 6.1 2.5 2.5 2 0 1 0 0
4763.5 3673.0 -10.8 89 0 6.9 16.3 2.5 2.5 2 1 1 0 0
4821.5 3757.5 -13.7 254 0 9.2 13.2 2.5 2.5 2 1 1 5 5
4810.4 3820.4 -15.9 88 0 9.4 9.0 2.5 2.5 2 0 1 3 3
4891.5 3797.5 -14.6 252 0 19.2 6.1 2.5 2.5 4 0 1 0 0
4918.0 3808.4 -14.7 263 0 8.8 23.5 2.5 2.5 2 1 1 4 4
4938.7 3775.0 -13.9 260 0 12.2 12.9 2.5 2.5 2 1 1 1 1
4899.5 3769.4 -13.8 261 0 8.7 9.2 2.5 2.5 2 1 1 1 1
4931.8 3811.6 -14.8 267 0 16.0 10.3 2.5 0.0 0 0 1 5 5
